%!PS-Adobe-3.0 EPSF-3.0
%%Title: /home/martin/SurvivalTimes.eps
%%Creator: matplotlib version 1.3.1, http://matplotlib.org/
%%CreationDate: Thu Nov 19 08:36:32 2015
%%Orientation: portrait
%%BoundingBox: -86 89 698 702
%%EndComments
%%BeginProlog
/mpldict 8 dict def
mpldict begin
/m { moveto } bind def
/l { lineto } bind def
/r { rlineto } bind def
/c { curveto } bind def
/cl { closepath } bind def
/box {
m
1 index 0 r
0 exch r
neg 0 r
cl
} bind def
/clipbox {
box
clip
newpath
} bind def
%!PS-Adobe-3.0 Resource-Font
%%Title: DejaVu Sans
%%Copyright: Copyright (c) 2003 by Bitstream, Inc. All Rights Reserved. Copyright (c) 2006 by Tavmjong Bah. All Rights Reserved. DejaVu changes are in public domain 
%%Creator: Converted from TrueType to type 3 by PPR
25 dict begin
/_d{bind def}bind def
/_m{moveto}_d
/_l{lineto}_d
/_cl{closepath eofill}_d
/_c{curveto}_d
/_sc{7 -1 roll{setcachedevice}{pop pop pop pop pop pop}ifelse}_d
/_e{exec}_d
/FontName /DejaVuSans def
/PaintType 0 def
/FontMatrix[.001 0 0 .001 0 0]def
/FontBBox[-1021 -415 1681 1167]def
/FontType 3 def
/Encoding [ /space /slash /zero /one /two /three /four /five /six /eight /A /D /E /I /N /O /P /S /T /V /W /a /b /c /d /e /f /g /h /i /l /m /n /o /p /r /s /t /u /v /w ] def
/FontInfo 10 dict dup begin
/FamilyName (DejaVu Sans) def
/FullName (DejaVu Sans) def
/Notice (Copyright (c) 2003 by Bitstream, Inc. All Rights Reserved. Copyright (c) 2006 by Tavmjong Bah. All Rights Reserved. DejaVu changes are in public domain ) def
/Weight (Book) def
/Version (Version 2.34) def
/ItalicAngle 0.0 def
/isFixedPitch false def
/UnderlinePosition -130 def
/UnderlineThickness 90 def
end readonly def
/CharStrings 41 dict dup begin
/space{318 0 0 0 0 0 _sc
}_d
/slash{337 0 0 -92 337 729 _sc
254 729 _m
337 729 _l
83 -92 _l
0 -92 _l
254 729 _l
_cl}_d
/zero{636 0 66 -13 570 742 _sc
318 664 _m
267 664 229 639 203 589 _c
177 539 165 464 165 364 _c
165 264 177 189 203 139 _c
229 89 267 64 318 64 _c
369 64 407 89 433 139 _c
458 189 471 264 471 364 _c
471 464 458 539 433 589 _c
407 639 369 664 318 664 _c
318 742 _m
399 742 461 709 505 645 _c
548 580 570 486 570 364 _c
570 241 548 147 505 83 _c
461 19 399 -13 318 -13 _c
236 -13 173 19 130 83 _c
87 147 66 241 66 364 _c
66 486 87 580 130 645 _c
173 709 236 742 318 742 _c
_cl}_d
/one{636 0 110 0 544 729 _sc
124 83 _m
285 83 _l
285 639 _l
110 604 _l
110 694 _l
284 729 _l
383 729 _l
383 83 _l
544 83 _l
544 0 _l
124 0 _l
124 83 _l
_cl}_d
/two{{636 0 73 0 536 742 _sc
192 83 _m
536 83 _l
536 0 _l
73 0 _l
73 83 _l
110 121 161 173 226 239 _c
290 304 331 346 348 365 _c
380 400 402 430 414 455 _c
426 479 433 504 433 528 _c
433 566 419 598 392 622 _c
365 646 330 659 286 659 _c
255 659 222 653 188 643 _c
154 632 117 616 78 594 _c
78 694 _l
118 710 155 722 189 730 _c
223 738 255 742 284 742 _c
}_e{359 742 419 723 464 685 _c
509 647 532 597 532 534 _c
532 504 526 475 515 449 _c
504 422 484 390 454 354 _c
446 344 420 317 376 272 _c
332 227 271 164 192 83 _c
_cl}_e}_d
/three{{636 0 76 -13 556 742 _sc
406 393 _m
453 383 490 362 516 330 _c
542 298 556 258 556 212 _c
556 140 531 84 482 45 _c
432 6 362 -13 271 -13 _c
240 -13 208 -10 176 -4 _c
144 1 110 10 76 22 _c
76 117 _l
103 101 133 89 166 81 _c
198 73 232 69 268 69 _c
330 69 377 81 409 105 _c
441 129 458 165 458 212 _c
458 254 443 288 413 312 _c
383 336 341 349 287 349 _c
}_e{202 349 _l
202 430 _l
291 430 _l
339 430 376 439 402 459 _c
428 478 441 506 441 543 _c
441 580 427 609 401 629 _c
374 649 336 659 287 659 _c
260 659 231 656 200 650 _c
169 644 135 635 98 623 _c
98 711 _l
135 721 170 729 203 734 _c
235 739 266 742 296 742 _c
370 742 429 725 473 691 _c
517 657 539 611 539 553 _c
539 513 527 479 504 451 _c
481 423 448 403 406 393 _c
_cl}_e}_d
/four{636 0 49 0 580 729 _sc
378 643 _m
129 254 _l
378 254 _l
378 643 _l
352 729 _m
476 729 _l
476 254 _l
580 254 _l
580 172 _l
476 172 _l
476 0 _l
378 0 _l
378 172 _l
49 172 _l
49 267 _l
352 729 _l
_cl}_d
/five{{636 0 77 -13 549 729 _sc
108 729 _m
495 729 _l
495 646 _l
198 646 _l
198 467 _l
212 472 227 476 241 478 _c
255 480 270 482 284 482 _c
365 482 429 459 477 415 _c
525 370 549 310 549 234 _c
549 155 524 94 475 51 _c
426 8 357 -13 269 -13 _c
238 -13 207 -10 175 -6 _c
143 -1 111 6 77 17 _c
77 116 _l
106 100 136 88 168 80 _c
199 72 232 69 267 69 _c
}_e{323 69 368 83 401 113 _c
433 143 450 183 450 234 _c
450 284 433 324 401 354 _c
368 384 323 399 267 399 _c
241 399 214 396 188 390 _c
162 384 135 375 108 363 _c
108 729 _l
_cl}_e}_d
/six{{636 0 70 -13 573 742 _sc
330 404 _m
286 404 251 388 225 358 _c
199 328 186 286 186 234 _c
186 181 199 139 225 109 _c
251 79 286 64 330 64 _c
374 64 409 79 435 109 _c
461 139 474 181 474 234 _c
474 286 461 328 435 358 _c
409 388 374 404 330 404 _c
526 713 _m
526 623 _l
501 635 476 644 451 650 _c
425 656 400 659 376 659 _c
310 659 260 637 226 593 _c
}_e{192 549 172 482 168 394 _c
187 422 211 444 240 459 _c
269 474 301 482 336 482 _c
409 482 467 459 509 415 _c
551 371 573 310 573 234 _c
573 159 550 99 506 54 _c
462 9 403 -13 330 -13 _c
246 -13 181 19 137 83 _c
92 147 70 241 70 364 _c
70 479 97 571 152 639 _c
206 707 280 742 372 742 _c
396 742 421 739 447 735 _c
472 730 498 723 526 713 _c
_cl}_e}_d
/eight{{636 0 68 -13 568 742 _sc
318 346 _m
271 346 234 333 207 308 _c
180 283 167 249 167 205 _c
167 161 180 126 207 101 _c
234 76 271 64 318 64 _c
364 64 401 76 428 102 _c
455 127 469 161 469 205 _c
469 249 455 283 429 308 _c
402 333 365 346 318 346 _c
219 388 _m
177 398 144 418 120 447 _c
96 476 85 511 85 553 _c
85 611 105 657 147 691 _c
188 725 245 742 318 742 _c
}_e{390 742 447 725 489 691 _c
530 657 551 611 551 553 _c
551 511 539 476 515 447 _c
491 418 459 398 417 388 _c
464 377 501 355 528 323 _c
554 291 568 251 568 205 _c
568 134 546 80 503 43 _c
459 5 398 -13 318 -13 _c
237 -13 175 5 132 43 _c
89 80 68 134 68 205 _c
68 251 81 291 108 323 _c
134 355 171 377 219 388 _c
183 544 _m
183 506 194 476 218 455 _c
}_e{242 434 275 424 318 424 _c
360 424 393 434 417 455 _c
441 476 453 506 453 544 _c
453 582 441 611 417 632 _c
393 653 360 664 318 664 _c
275 664 242 653 218 632 _c
194 611 183 582 183 544 _c
_cl}_e}_d
/A{684 0 8 0 676 729 _sc
342 632 _m
208 269 _l
476 269 _l
342 632 _l
286 729 _m
398 729 _l
676 0 _l
573 0 _l
507 187 _l
178 187 _l
112 0 _l
8 0 _l
286 729 _l
_cl}_d
/D{770 0 98 0 711 729 _sc
197 648 _m
197 81 _l
316 81 _l
416 81 490 103 537 149 _c
583 195 607 267 607 365 _c
607 463 583 534 537 580 _c
490 625 416 648 316 648 _c
197 648 _l
98 729 _m
301 729 _l
442 729 546 699 612 641 _c
678 582 711 490 711 365 _c
711 239 677 147 611 88 _c
545 29 441 0 301 0 _c
98 0 _l
98 729 _l
_cl}_d
/E{632 0 98 0 568 729 _sc
98 729 _m
559 729 _l
559 646 _l
197 646 _l
197 430 _l
544 430 _l
544 347 _l
197 347 _l
197 83 _l
568 83 _l
568 0 _l
98 0 _l
98 729 _l
_cl}_d
/I{295 0 98 0 197 729 _sc
98 729 _m
197 729 _l
197 0 _l
98 0 _l
98 729 _l
_cl}_d
/N{748 0 98 0 650 729 _sc
98 729 _m
231 729 _l
554 119 _l
554 729 _l
650 729 _l
650 0 _l
517 0 _l
194 610 _l
194 0 _l
98 0 _l
98 729 _l
_cl}_d
/O{787 0 56 -13 731 742 _sc
394 662 _m
322 662 265 635 223 582 _c
181 528 160 456 160 364 _c
160 272 181 199 223 146 _c
265 92 322 66 394 66 _c
465 66 522 92 564 146 _c
606 199 627 272 627 364 _c
627 456 606 528 564 582 _c
522 635 465 662 394 662 _c
394 742 _m
496 742 577 707 639 639 _c
700 571 731 479 731 364 _c
731 248 700 157 639 89 _c
577 21 496 -13 394 -13 _c
291 -13 209 21 148 89 _c
86 157 56 248 56 364 _c
56 479 86 571 148 639 _c
209 707 291 742 394 742 _c
_cl}_d
/P{603 0 98 0 569 729 _sc
197 648 _m
197 374 _l
321 374 _l
367 374 402 385 427 409 _c
452 433 465 467 465 511 _c
465 555 452 588 427 612 _c
402 636 367 648 321 648 _c
197 648 _l
98 729 _m
321 729 _l
402 729 464 710 506 673 _c
548 636 569 582 569 511 _c
569 439 548 384 506 348 _c
464 311 402 293 321 293 _c
197 293 _l
197 0 _l
98 0 _l
98 729 _l
_cl}_d
/S{{635 0 66 -13 579 742 _sc
535 705 _m
535 609 _l
497 627 462 640 429 649 _c
395 657 363 662 333 662 _c
279 662 237 651 208 631 _c
179 610 165 580 165 542 _c
165 510 174 485 194 469 _c
213 452 250 439 304 429 _c
364 417 _l
437 403 491 378 526 343 _c
561 307 579 260 579 201 _c
579 130 555 77 508 41 _c
460 5 391 -13 300 -13 _c
265 -13 228 -9 189 -2 _c
}_e{150 5 110 16 69 32 _c
69 134 _l
109 111 148 94 186 83 _c
224 71 262 66 300 66 _c
356 66 399 77 430 99 _c
460 121 476 152 476 194 _c
476 230 465 258 443 278 _c
421 298 385 313 335 323 _c
275 335 _l
201 349 148 372 115 404 _c
82 435 66 478 66 534 _c
66 598 88 649 134 686 _c
179 723 242 742 322 742 _c
356 742 390 739 426 733 _c
461 727 497 717 535 705 _c
}_e{_cl}_e}_d
/T{611 0 -2 0 614 729 _sc
-2 729 _m
614 729 _l
614 646 _l
355 646 _l
355 0 _l
256 0 _l
256 646 _l
-2 646 _l
-2 729 _l
_cl}_d
/V{684 0 8 0 676 729 _sc
286 0 _m
8 729 _l
111 729 _l
342 115 _l
573 729 _l
676 729 _l
398 0 _l
286 0 _l
_cl}_d
/W{989 0 33 0 956 729 _sc
33 729 _m
133 729 _l
286 113 _l
439 729 _l
550 729 _l
703 113 _l
856 729 _l
956 729 _l
773 0 _l
649 0 _l
495 633 _l
340 0 _l
216 0 _l
33 729 _l
_cl}_d
/a{{613 0 60 -13 522 560 _sc
343 275 _m
270 275 220 266 192 250 _c
164 233 150 205 150 165 _c
150 133 160 107 181 89 _c
202 70 231 61 267 61 _c
317 61 357 78 387 114 _c
417 149 432 196 432 255 _c
432 275 _l
343 275 _l
522 312 _m
522 0 _l
432 0 _l
432 83 _l
411 49 385 25 355 10 _c
325 -5 287 -13 243 -13 _c
187 -13 142 2 109 33 _c
76 64 60 106 60 159 _c
}_e{60 220 80 266 122 298 _c
163 329 224 345 306 345 _c
432 345 _l
432 354 _l
432 395 418 427 391 450 _c
364 472 326 484 277 484 _c
245 484 215 480 185 472 _c
155 464 127 453 100 439 _c
100 522 _l
132 534 164 544 195 550 _c
226 556 256 560 286 560 _c
365 560 424 539 463 498 _c
502 457 522 395 522 312 _c
_cl}_e}_d
/b{{635 0 91 -13 580 760 _sc
487 273 _m
487 339 473 390 446 428 _c
418 466 381 485 334 485 _c
286 485 249 466 222 428 _c
194 390 181 339 181 273 _c
181 207 194 155 222 117 _c
249 79 286 61 334 61 _c
381 61 418 79 446 117 _c
473 155 487 207 487 273 _c
181 464 _m
199 496 223 520 252 536 _c
281 552 316 560 356 560 _c
422 560 476 533 518 481 _c
559 428 580 359 580 273 _c
}_e{580 187 559 117 518 65 _c
476 13 422 -13 356 -13 _c
316 -13 281 -5 252 10 _c
223 25 199 49 181 82 _c
181 0 _l
91 0 _l
91 760 _l
181 760 _l
181 464 _l
_cl}_e}_d
/c{{550 0 55 -13 488 560 _sc
488 526 _m
488 442 _l
462 456 437 466 411 473 _c
385 480 360 484 334 484 _c
276 484 230 465 198 428 _c
166 391 150 339 150 273 _c
150 206 166 154 198 117 _c
230 80 276 62 334 62 _c
360 62 385 65 411 72 _c
437 79 462 90 488 104 _c
488 21 _l
462 9 436 0 410 -5 _c
383 -10 354 -13 324 -13 _c
242 -13 176 12 128 64 _c
}_e{79 115 55 185 55 273 _c
55 362 79 432 128 483 _c
177 534 244 560 330 560 _c
358 560 385 557 411 551 _c
437 545 463 537 488 526 _c
_cl}_e}_d
/d{{635 0 55 -13 544 760 _sc
454 464 _m
454 760 _l
544 760 _l
544 0 _l
454 0 _l
454 82 _l
435 49 411 25 382 10 _c
353 -5 319 -13 279 -13 _c
213 -13 159 13 117 65 _c
75 117 55 187 55 273 _c
55 359 75 428 117 481 _c
159 533 213 560 279 560 _c
319 560 353 552 382 536 _c
411 520 435 496 454 464 _c
148 273 _m
148 207 161 155 188 117 _c
215 79 253 61 301 61 _c
}_e{348 61 385 79 413 117 _c
440 155 454 207 454 273 _c
454 339 440 390 413 428 _c
385 466 348 485 301 485 _c
253 485 215 466 188 428 _c
161 390 148 339 148 273 _c
_cl}_e}_d
/e{{615 0 55 -13 562 560 _sc
562 296 _m
562 252 _l
149 252 _l
153 190 171 142 205 110 _c
238 78 284 62 344 62 _c
378 62 412 66 444 74 _c
476 82 509 95 541 113 _c
541 28 _l
509 14 476 3 442 -3 _c
408 -9 373 -13 339 -13 _c
251 -13 182 12 131 62 _c
80 112 55 181 55 268 _c
55 357 79 428 127 481 _c
175 533 241 560 323 560 _c
397 560 455 536 498 489 _c
}_e{540 441 562 377 562 296 _c
472 322 _m
471 371 457 410 431 440 _c
404 469 368 484 324 484 _c
274 484 234 469 204 441 _c
174 413 156 373 152 322 _c
472 322 _l
_cl}_e}_d
/f{352 0 23 0 371 760 _sc
371 760 _m
371 685 _l
285 685 _l
253 685 230 678 218 665 _c
205 652 199 629 199 595 _c
199 547 _l
347 547 _l
347 477 _l
199 477 _l
199 0 _l
109 0 _l
109 477 _l
23 477 _l
23 547 _l
109 547 _l
109 585 _l
109 645 123 690 151 718 _c
179 746 224 760 286 760 _c
371 760 _l
_cl}_d
/g{{635 0 55 -207 544 560 _sc
454 280 _m
454 344 440 395 414 431 _c
387 467 349 485 301 485 _c
253 485 215 467 188 431 _c
161 395 148 344 148 280 _c
148 215 161 165 188 129 _c
215 93 253 75 301 75 _c
349 75 387 93 414 129 _c
440 165 454 215 454 280 _c
544 68 _m
544 -24 523 -93 482 -139 _c
440 -184 377 -207 292 -207 _c
260 -207 231 -204 203 -200 _c
175 -195 147 -188 121 -178 _c
}_e{121 -91 _l
147 -105 173 -115 199 -122 _c
225 -129 251 -133 278 -133 _c
336 -133 380 -117 410 -87 _c
439 -56 454 -10 454 52 _c
454 96 _l
435 64 411 40 382 24 _c
353 8 319 0 279 0 _c
211 0 157 25 116 76 _c
75 127 55 195 55 280 _c
55 364 75 432 116 483 _c
157 534 211 560 279 560 _c
319 560 353 552 382 536 _c
411 520 435 496 454 464 _c
454 547 _l
544 547 _l
}_e{544 68 _l
_cl}_e}_d
/h{634 0 91 0 549 760 _sc
549 330 _m
549 0 _l
459 0 _l
459 327 _l
459 379 448 417 428 443 _c
408 469 378 482 338 482 _c
289 482 251 466 223 435 _c
195 404 181 362 181 309 _c
181 0 _l
91 0 _l
91 760 _l
181 760 _l
181 462 _l
202 494 227 519 257 535 _c
286 551 320 560 358 560 _c
420 560 468 540 500 501 _c
532 462 549 405 549 330 _c
_cl}_d
/i{278 0 94 0 184 760 _sc
94 547 _m
184 547 _l
184 0 _l
94 0 _l
94 547 _l
94 760 _m
184 760 _l
184 646 _l
94 646 _l
94 760 _l
_cl}_d
/l{278 0 94 0 184 760 _sc
94 760 _m
184 760 _l
184 0 _l
94 0 _l
94 760 _l
_cl}_d
/m{{974 0 91 0 889 560 _sc
520 442 _m
542 482 569 511 600 531 _c
631 550 668 560 711 560 _c
767 560 811 540 842 500 _c
873 460 889 403 889 330 _c
889 0 _l
799 0 _l
799 327 _l
799 379 789 418 771 444 _c
752 469 724 482 686 482 _c
639 482 602 466 575 435 _c
548 404 535 362 535 309 _c
535 0 _l
445 0 _l
445 327 _l
445 379 435 418 417 444 _c
398 469 369 482 331 482 _c
}_e{285 482 248 466 221 435 _c
194 404 181 362 181 309 _c
181 0 _l
91 0 _l
91 547 _l
181 547 _l
181 462 _l
201 495 226 520 255 536 _c
283 552 317 560 357 560 _c
397 560 430 550 458 530 _c
486 510 506 480 520 442 _c
_cl}_e}_d
/n{634 0 91 0 549 560 _sc
549 330 _m
549 0 _l
459 0 _l
459 327 _l
459 379 448 417 428 443 _c
408 469 378 482 338 482 _c
289 482 251 466 223 435 _c
195 404 181 362 181 309 _c
181 0 _l
91 0 _l
91 547 _l
181 547 _l
181 462 _l
202 494 227 519 257 535 _c
286 551 320 560 358 560 _c
420 560 468 540 500 501 _c
532 462 549 405 549 330 _c
_cl}_d
/o{612 0 55 -13 557 560 _sc
306 484 _m
258 484 220 465 192 427 _c
164 389 150 338 150 273 _c
150 207 163 156 191 118 _c
219 80 257 62 306 62 _c
354 62 392 80 420 118 _c
448 156 462 207 462 273 _c
462 337 448 389 420 427 _c
392 465 354 484 306 484 _c
306 560 _m
384 560 445 534 490 484 _c
534 433 557 363 557 273 _c
557 183 534 113 490 63 _c
445 12 384 -13 306 -13 _c
227 -13 165 12 121 63 _c
77 113 55 183 55 273 _c
55 363 77 433 121 484 _c
165 534 227 560 306 560 _c
_cl}_d
/p{{635 0 91 -207 580 560 _sc
181 82 _m
181 -207 _l
91 -207 _l
91 547 _l
181 547 _l
181 464 _l
199 496 223 520 252 536 _c
281 552 316 560 356 560 _c
422 560 476 533 518 481 _c
559 428 580 359 580 273 _c
580 187 559 117 518 65 _c
476 13 422 -13 356 -13 _c
316 -13 281 -5 252 10 _c
223 25 199 49 181 82 _c
487 273 _m
487 339 473 390 446 428 _c
418 466 381 485 334 485 _c
}_e{286 485 249 466 222 428 _c
194 390 181 339 181 273 _c
181 207 194 155 222 117 _c
249 79 286 61 334 61 _c
381 61 418 79 446 117 _c
473 155 487 207 487 273 _c
_cl}_e}_d
/r{411 0 91 0 411 560 _sc
411 463 _m
401 469 390 473 378 476 _c
366 478 353 480 339 480 _c
288 480 249 463 222 430 _c
194 397 181 350 181 288 _c
181 0 _l
91 0 _l
91 547 _l
181 547 _l
181 462 _l
199 495 224 520 254 536 _c
284 552 321 560 365 560 _c
371 560 378 559 386 559 _c
393 558 401 557 411 555 _c
411 463 _l
_cl}_d
/s{{521 0 54 -13 472 560 _sc
443 531 _m
443 446 _l
417 458 391 468 364 475 _c
336 481 308 485 279 485 _c
234 485 200 478 178 464 _c
156 450 145 430 145 403 _c
145 382 153 366 169 354 _c
185 342 217 330 265 320 _c
296 313 _l
360 299 405 279 432 255 _c
458 230 472 195 472 151 _c
472 100 452 60 412 31 _c
372 1 316 -13 246 -13 _c
216 -13 186 -10 154 -5 _c
}_e{122 0 89 8 54 20 _c
54 113 _l
87 95 120 82 152 74 _c
184 65 216 61 248 61 _c
290 61 323 68 346 82 _c
368 96 380 117 380 144 _c
380 168 371 187 355 200 _c
339 213 303 226 247 238 _c
216 245 _l
160 257 119 275 95 299 _c
70 323 58 356 58 399 _c
58 450 76 490 112 518 _c
148 546 200 560 268 560 _c
301 560 332 557 362 552 _c
391 547 418 540 443 531 _c
}_e{_cl}_e}_d
/t{392 0 27 0 368 702 _sc
183 702 _m
183 547 _l
368 547 _l
368 477 _l
183 477 _l
183 180 _l
183 135 189 106 201 94 _c
213 81 238 75 276 75 _c
368 75 _l
368 0 _l
276 0 _l
206 0 158 13 132 39 _c
106 65 93 112 93 180 _c
93 477 _l
27 477 _l
27 547 _l
93 547 _l
93 702 _l
183 702 _l
_cl}_d
/u{634 0 85 -13 543 560 _sc
85 216 _m
85 547 _l
175 547 _l
175 219 _l
175 167 185 129 205 103 _c
225 77 255 64 296 64 _c
344 64 383 79 411 110 _c
439 141 453 183 453 237 _c
453 547 _l
543 547 _l
543 0 _l
453 0 _l
453 84 _l
431 50 405 26 377 10 _c
348 -5 315 -13 277 -13 _c
214 -13 166 6 134 45 _c
101 83 85 140 85 216 _c
311 560 _m
311 560 _l
_cl}_d
/v{592 0 30 0 562 547 _sc
30 547 _m
125 547 _l
296 88 _l
467 547 _l
562 547 _l
357 0 _l
235 0 _l
30 547 _l
_cl}_d
/w{818 0 42 0 776 547 _sc
42 547 _m
132 547 _l
244 120 _l
356 547 _l
462 547 _l
574 120 _l
686 547 _l
776 547 _l
633 0 _l
527 0 _l
409 448 _l
291 0 _l
185 0 _l
42 547 _l
_cl}_d
end readonly def

/BuildGlyph
 {exch begin
 CharStrings exch
 2 copy known not{pop /.notdef}if
 true 3 1 roll get exec
 end}_d

/BuildChar {
 1 index /Encoding get exch get
 1 index /BuildGlyph get exec
}_d

FontName currentdict end definefont pop
end
%%EndProlog
mpldict begin
-86.4 89.1 translate
784.8 613.8 0 0 clipbox
gsave
0 0 m
784.8 0 l
784.8 613.8 l
0 613.8 l
cl
1.000 setgray
fill
grestore
gsave
98.1 329.22 m
706.32 329.22 l
706.32 552.42 l
98.1 552.42 l
cl
1.000 setgray
fill
grestore
/p0_0 {
newpath
translate
125.746 504.768 m
125.746 549.242 l
} bind def
/p0_1 {
newpath
translate
263.978 403.817 m
263.978 417.639 l
} bind def
/p0_2 {
newpath
translate
402.21 379.642 m
402.21 402.688 l
} bind def
/p0_3 {
newpath
translate
540.442 354.005 m
540.442 370.424 l
} bind def
/p0_4 {
newpath
translate
678.674 348.919 m
678.674 354.716 l
} bind def
1.000 setlinewidth
1 setlinejoin
0 setlinecap
[] 0 setdash
0.000 0.000 1.000 setrgbcolor
gsave
608.2 223.2 98.1 329.2 clipbox
0 0 p0_0
stroke
grestore
gsave
608.2 223.2 98.1 329.2 clipbox
0 0 p0_1
stroke
grestore
gsave
608.2 223.2 98.1 329.2 clipbox
0 0 p0_2
stroke
grestore
gsave
608.2 223.2 98.1 329.2 clipbox
0 0 p0_3
stroke
grestore
gsave
608.2 223.2 98.1 329.2 clipbox
0 0 p0_4
stroke
grestore
/p1_0 {
newpath
translate
125.746 434.269 m
125.746 473.489 l
} bind def
/p1_1 {
newpath
translate
263.978 389.438 m
263.978 421.022 l
} bind def
/p1_2 {
newpath
translate
402.21 393.042 m
402.21 425.574 l
} bind def
/p1_3 {
newpath
translate
540.442 363.775 m
540.442 375.563 l
} bind def
/p1_4 {
newpath
translate
678.674 356.429 m
678.674 368.731 l
} bind def
0.000 0.500 0.000 setrgbcolor
gsave
608.2 223.2 98.1 329.2 clipbox
0 0 p1_0
stroke
grestore
gsave
608.2 223.2 98.1 329.2 clipbox
0 0 p1_1
stroke
grestore
gsave
608.2 223.2 98.1 329.2 clipbox
0 0 p1_2
stroke
grestore
gsave
608.2 223.2 98.1 329.2 clipbox
0 0 p1_3
stroke
grestore
gsave
608.2 223.2 98.1 329.2 clipbox
0 0 p1_4
stroke
grestore
0.500 setlinewidth
0.000 0.000 1.000 setrgbcolor
gsave
608.2 223.2 98.1 329.2 clipbox
/o {
gsave
newpath
translate
0.5 setlinewidth
1 setlinejoin
0 setlinecap
3 -1.83697e-16 m
-3 1.83697e-16 l
gsave
0.000 0.000 1.000 setrgbcolor
fill
grestore
stroke
grestore
} bind def
125.746 504.768 o
263.978 403.817 o
402.21 379.642 o
540.442 354.005 o
678.674 348.919 o
grestore
gsave
608.2 223.2 98.1 329.2 clipbox
/o {
gsave
newpath
translate
0.5 setlinewidth
1 setlinejoin
0 setlinecap
3 -1.83697e-16 m
-3 1.83697e-16 l
gsave
0.000 0.000 1.000 setrgbcolor
fill
grestore
stroke
grestore
} bind def
125.746 549.242 o
263.978 417.639 o
402.21 402.688 o
540.442 370.424 o
678.674 354.716 o
grestore
1.000 setlinewidth
2 setlinecap
gsave
608.2 223.2 98.1 329.2 clipbox
125.746 527.005 m
263.978 410.728 l
402.21 391.165 l
540.442 362.214 l
678.674 351.817 l
stroke
grestore
0.500 setlinewidth
0 setlinecap
0.000 0.500 0.000 setrgbcolor
gsave
608.2 223.2 98.1 329.2 clipbox
/o {
gsave
newpath
translate
0.5 setlinewidth
1 setlinejoin
0 setlinecap
3 -1.83697e-16 m
-3 1.83697e-16 l
gsave
0.000 0.500 0.000 setrgbcolor
fill
grestore
stroke
grestore
} bind def
125.746 434.269 o
263.978 389.438 o
402.21 393.042 o
540.442 363.775 o
678.674 356.429 o
grestore
gsave
608.2 223.2 98.1 329.2 clipbox
/o {
gsave
newpath
translate
0.5 setlinewidth
1 setlinejoin
0 setlinecap
3 -1.83697e-16 m
-3 1.83697e-16 l
gsave
0.000 0.500 0.000 setrgbcolor
fill
grestore
stroke
grestore
} bind def
125.746 473.489 o
263.978 421.022 o
402.21 425.574 o
540.442 375.563 o
678.674 368.731 o
grestore
1.000 setlinewidth
2 setlinecap
gsave
608.2 223.2 98.1 329.2 clipbox
125.746 453.879 m
263.978 405.23 l
402.21 409.308 l
540.442 369.669 l
678.674 362.58 l
stroke
grestore
0.500 setlinewidth
0 setlinecap
[1 3] 0 setdash
0.000 setgray
gsave
608.2 223.2 98.1 329.2 clipbox
125.746 329.22 m
125.746 552.42 l
stroke
grestore
[] 0 setdash
gsave
/o {
gsave
newpath
translate
0.5 setlinewidth
1 setlinejoin
0 setlinecap
0 0 m
0 4 l
gsave
0.000 setgray
fill
grestore
stroke
grestore
} bind def
125.746 329.22 o
grestore
gsave
/o {
gsave
newpath
translate
0.5 setlinewidth
1 setlinejoin
0 setlinecap
0 0 m
0 -4 l
gsave
0.000 setgray
fill
grestore
stroke
grestore
} bind def
125.746 552.42 o
grestore
/DejaVuSans findfont
12.000 scalefont
setfont
gsave
115.340114 316.095000 translate
0.000000 rotate
0.000000 0.000000 m /one glyphshow
7.634766 0.000000 m /zero glyphshow
15.269531 0.000000 m /zero glyphshow
grestore
[1 3] 0 setdash
gsave
608.2 223.2 98.1 329.2 clipbox
263.978 329.22 m
263.978 552.42 l
stroke
grestore
[] 0 setdash
gsave
/o {
gsave
newpath
translate
0.5 setlinewidth
1 setlinejoin
0 setlinecap
0 0 m
0 4 l
gsave
0.000 setgray
fill
grestore
stroke
grestore
} bind def
263.978 329.22 o
grestore
gsave
/o {
gsave
newpath
translate
0.5 setlinewidth
1 setlinejoin
0 setlinecap
0 0 m
0 -4 l
gsave
0.000 setgray
fill
grestore
stroke
grestore
} bind def
263.978 552.42 o
grestore
gsave
253.571932 316.095000 translate
0.000000 rotate
0.000000 0.000000 m /one glyphshow
7.634766 0.000000 m /five glyphshow
15.269531 0.000000 m /zero glyphshow
grestore
[1 3] 0 setdash
gsave
608.2 223.2 98.1 329.2 clipbox
402.21 329.22 m
402.21 552.42 l
stroke
grestore
[] 0 setdash
gsave
/o {
gsave
newpath
translate
0.5 setlinewidth
1 setlinejoin
0 setlinecap
0 0 m
0 4 l
gsave
0.000 setgray
fill
grestore
stroke
grestore
} bind def
402.21 329.22 o
grestore
gsave
/o {
gsave
newpath
translate
0.5 setlinewidth
1 setlinejoin
0 setlinecap
0 0 m
0 -4 l
gsave
0.000 setgray
fill
grestore
stroke
grestore
} bind def
402.21 552.42 o
grestore
gsave
391.585000 316.095000 translate
0.000000 rotate
0.000000 0.000000 m /two glyphshow
7.634766 0.000000 m /zero glyphshow
15.269531 0.000000 m /zero glyphshow
grestore
[1 3] 0 setdash
gsave
608.2 223.2 98.1 329.2 clipbox
540.442 329.22 m
540.442 552.42 l
stroke
grestore
[] 0 setdash
gsave
/o {
gsave
newpath
translate
0.5 setlinewidth
1 setlinejoin
0 setlinecap
0 0 m
0 4 l
gsave
0.000 setgray
fill
grestore
stroke
grestore
} bind def
540.442 329.22 o
grestore
gsave
/o {
gsave
newpath
translate
0.5 setlinewidth
1 setlinejoin
0 setlinecap
0 0 m
0 -4 l
gsave
0.000 setgray
fill
grestore
stroke
grestore
} bind def
540.442 552.42 o
grestore
gsave
529.816818 316.095000 translate
0.000000 rotate
0.000000 0.000000 m /two glyphshow
7.634766 0.000000 m /five glyphshow
15.269531 0.000000 m /zero glyphshow
grestore
[1 3] 0 setdash
gsave
608.2 223.2 98.1 329.2 clipbox
678.674 329.22 m
678.674 552.42 l
stroke
grestore
[] 0 setdash
gsave
/o {
gsave
newpath
translate
0.5 setlinewidth
1 setlinejoin
0 setlinecap
0 0 m
0 4 l
gsave
0.000 setgray
fill
grestore
stroke
grestore
} bind def
678.674 329.22 o
grestore
gsave
/o {
gsave
newpath
translate
0.5 setlinewidth
1 setlinejoin
0 setlinecap
0 0 m
0 -4 l
gsave
0.000 setgray
fill
grestore
stroke
grestore
} bind def
678.674 552.42 o
grestore
gsave
668.072074 316.095000 translate
0.000000 rotate
0.000000 0.000000 m /three glyphshow
7.634766 0.000000 m /zero glyphshow
15.269531 0.000000 m /zero glyphshow
grestore
gsave
330.342813 299.470000 translate
0.000000 rotate
0.000000 0.000000 m /I glyphshow
3.539062 0.000000 m /n glyphshow
11.144531 0.000000 m /i glyphshow
14.478516 0.000000 m /t glyphshow
19.183594 0.000000 m /i glyphshow
22.517578 0.000000 m /a glyphshow
29.871094 0.000000 m /l glyphshow
33.205078 0.000000 m /space glyphshow
37.019531 0.000000 m /N glyphshow
45.996094 0.000000 m /u glyphshow
53.601562 0.000000 m /m glyphshow
65.291016 0.000000 m /b glyphshow
72.908203 0.000000 m /e glyphshow
80.291016 0.000000 m /r glyphshow
85.224609 0.000000 m /space glyphshow
89.039062 0.000000 m /o glyphshow
96.380859 0.000000 m /f glyphshow
100.605469 0.000000 m /space glyphshow
104.419922 0.000000 m /P glyphshow
111.281250 0.000000 m /e glyphshow
118.664062 0.000000 m /o glyphshow
126.005859 0.000000 m /p glyphshow
133.623047 0.000000 m /l glyphshow
136.957031 0.000000 m /e glyphshow
grestore
[1 3] 0 setdash
gsave
608.2 223.2 98.1 329.2 clipbox
98.1 329.22 m
706.32 329.22 l
stroke
grestore
[] 0 setdash
gsave
/o {
gsave
newpath
translate
0.5 setlinewidth
1 setlinejoin
0 setlinecap
0 0 m
4 0 l
gsave
0.000 setgray
fill
grestore
stroke
grestore
} bind def
98.1 329.22 o
grestore
gsave
/o {
gsave
newpath
translate
0.5 setlinewidth
1 setlinejoin
0 setlinecap
0 0 m
-4 0 l
gsave
0.000 setgray
fill
grestore
stroke
grestore
} bind def
706.32 329.22 o
grestore
gsave
88.053125 325.907500 translate
0.000000 rotate
0.000000 0.000000 m /zero glyphshow
grestore
[1 3] 0 setdash
gsave
608.2 223.2 98.1 329.2 clipbox
98.1 354.02 m
706.32 354.02 l
stroke
grestore
[] 0 setdash
gsave
/o {
gsave
newpath
translate
0.5 setlinewidth
1 setlinejoin
0 setlinecap
0 0 m
4 0 l
gsave
0.000 setgray
fill
grestore
stroke
grestore
} bind def
98.1 354.02 o
grestore
gsave
/o {
gsave
newpath
translate
0.5 setlinewidth
1 setlinejoin
0 setlinecap
0 0 m
-4 0 l
gsave
0.000 setgray
fill
grestore
stroke
grestore
} bind def
706.32 354.02 o
grestore
gsave
65.209375 350.707500 translate
0.000000 rotate
0.000000 0.000000 m /two glyphshow
7.634766 0.000000 m /zero glyphshow
15.269531 0.000000 m /zero glyphshow
22.904297 0.000000 m /zero glyphshow
grestore
[1 3] 0 setdash
gsave
608.2 223.2 98.1 329.2 clipbox
98.1 378.82 m
706.32 378.82 l
stroke
grestore
[] 0 setdash
gsave
/o {
gsave
newpath
translate
0.5 setlinewidth
1 setlinejoin
0 setlinecap
0 0 m
4 0 l
gsave
0.000 setgray
fill
grestore
stroke
grestore
} bind def
98.1 378.82 o
grestore
gsave
/o {
gsave
newpath
translate
0.5 setlinewidth
1 setlinejoin
0 setlinecap
0 0 m
-4 0 l
gsave
0.000 setgray
fill
grestore
stroke
grestore
} bind def
706.32 378.82 o
grestore
gsave
64.928125 375.507500 translate
0.000000 rotate
0.000000 0.000000 m /four glyphshow
7.634766 0.000000 m /zero glyphshow
15.269531 0.000000 m /zero glyphshow
22.904297 0.000000 m /zero glyphshow
grestore
[1 3] 0 setdash
gsave
608.2 223.2 98.1 329.2 clipbox
98.1 403.62 m
706.32 403.62 l
stroke
grestore
[] 0 setdash
gsave
/o {
gsave
newpath
translate
0.5 setlinewidth
1 setlinejoin
0 setlinecap
0 0 m
4 0 l
gsave
0.000 setgray
fill
grestore
stroke
grestore
} bind def
98.1 403.62 o
grestore
gsave
/o {
gsave
newpath
translate
0.5 setlinewidth
1 setlinejoin
0 setlinecap
0 0 m
-4 0 l
gsave
0.000 setgray
fill
grestore
stroke
grestore
} bind def
706.32 403.62 o
grestore
gsave
65.178125 400.307500 translate
0.000000 rotate
0.000000 0.000000 m /six glyphshow
7.634766 0.000000 m /zero glyphshow
15.269531 0.000000 m /zero glyphshow
22.904297 0.000000 m /zero glyphshow
grestore
[1 3] 0 setdash
gsave
608.2 223.2 98.1 329.2 clipbox
98.1 428.42 m
706.32 428.42 l
stroke
grestore
[] 0 setdash
gsave
/o {
gsave
newpath
translate
0.5 setlinewidth
1 setlinejoin
0 setlinecap
0 0 m
4 0 l
gsave
0.000 setgray
fill
grestore
stroke
grestore
} bind def
98.1 428.42 o
grestore
gsave
/o {
gsave
newpath
translate
0.5 setlinewidth
1 setlinejoin
0 setlinecap
0 0 m
-4 0 l
gsave
0.000 setgray
fill
grestore
stroke
grestore
} bind def
706.32 428.42 o
grestore
gsave
65.146875 425.107500 translate
0.000000 rotate
0.000000 0.000000 m /eight glyphshow
7.634766 0.000000 m /zero glyphshow
15.269531 0.000000 m /zero glyphshow
22.904297 0.000000 m /zero glyphshow
grestore
[1 3] 0 setdash
gsave
608.2 223.2 98.1 329.2 clipbox
98.1 453.22 m
706.32 453.22 l
stroke
grestore
[] 0 setdash
gsave
/o {
gsave
newpath
translate
0.5 setlinewidth
1 setlinejoin
0 setlinecap
0 0 m
4 0 l
gsave
0.000 setgray
fill
grestore
stroke
grestore
} bind def
98.1 453.22 o
grestore
gsave
/o {
gsave
newpath
translate
0.5 setlinewidth
1 setlinejoin
0 setlinecap
0 0 m
-4 0 l
gsave
0.000 setgray
fill
grestore
stroke
grestore
} bind def
706.32 453.22 o
grestore
gsave
58.006250 449.907500 translate
0.000000 rotate
0.000000 0.000000 m /one glyphshow
7.634766 0.000000 m /zero glyphshow
15.269531 0.000000 m /zero glyphshow
22.904297 0.000000 m /zero glyphshow
30.539062 0.000000 m /zero glyphshow
grestore
[1 3] 0 setdash
gsave
608.2 223.2 98.1 329.2 clipbox
98.1 478.02 m
706.32 478.02 l
stroke
grestore
[] 0 setdash
gsave
/o {
gsave
newpath
translate
0.5 setlinewidth
1 setlinejoin
0 setlinecap
0 0 m
4 0 l
gsave
0.000 setgray
fill
grestore
stroke
grestore
} bind def
98.1 478.02 o
grestore
gsave
/o {
gsave
newpath
translate
0.5 setlinewidth
1 setlinejoin
0 setlinecap
0 0 m
-4 0 l
gsave
0.000 setgray
fill
grestore
stroke
grestore
} bind def
706.32 478.02 o
grestore
gsave
58.006250 474.707500 translate
0.000000 rotate
0.000000 0.000000 m /one glyphshow
7.634766 0.000000 m /two glyphshow
15.269531 0.000000 m /zero glyphshow
22.904297 0.000000 m /zero glyphshow
30.539062 0.000000 m /zero glyphshow
grestore
[1 3] 0 setdash
gsave
608.2 223.2 98.1 329.2 clipbox
98.1 502.82 m
706.32 502.82 l
stroke
grestore
[] 0 setdash
gsave
/o {
gsave
newpath
translate
0.5 setlinewidth
1 setlinejoin
0 setlinecap
0 0 m
4 0 l
gsave
0.000 setgray
fill
grestore
stroke
grestore
} bind def
98.1 502.82 o
grestore
gsave
/o {
gsave
newpath
translate
0.5 setlinewidth
1 setlinejoin
0 setlinecap
0 0 m
-4 0 l
gsave
0.000 setgray
fill
grestore
stroke
grestore
} bind def
706.32 502.82 o
grestore
gsave
58.006250 499.507500 translate
0.000000 rotate
0.000000 0.000000 m /one glyphshow
7.634766 0.000000 m /four glyphshow
15.269531 0.000000 m /zero glyphshow
22.904297 0.000000 m /zero glyphshow
30.539062 0.000000 m /zero glyphshow
grestore
[1 3] 0 setdash
gsave
608.2 223.2 98.1 329.2 clipbox
98.1 527.62 m
706.32 527.62 l
stroke
grestore
[] 0 setdash
gsave
/o {
gsave
newpath
translate
0.5 setlinewidth
1 setlinejoin
0 setlinecap
0 0 m
4 0 l
gsave
0.000 setgray
fill
grestore
stroke
grestore
} bind def
98.1 527.62 o
grestore
gsave
/o {
gsave
newpath
translate
0.5 setlinewidth
1 setlinejoin
0 setlinecap
0 0 m
-4 0 l
gsave
0.000 setgray
fill
grestore
stroke
grestore
} bind def
706.32 527.62 o
grestore
gsave
58.006250 524.307500 translate
0.000000 rotate
0.000000 0.000000 m /one glyphshow
7.634766 0.000000 m /six glyphshow
15.269531 0.000000 m /zero glyphshow
22.904297 0.000000 m /zero glyphshow
30.539062 0.000000 m /zero glyphshow
grestore
[1 3] 0 setdash
gsave
608.2 223.2 98.1 329.2 clipbox
98.1 552.42 m
706.32 552.42 l
stroke
grestore
[] 0 setdash
gsave
/o {
gsave
newpath
translate
0.5 setlinewidth
1 setlinejoin
0 setlinecap
0 0 m
4 0 l
gsave
0.000 setgray
fill
grestore
stroke
grestore
} bind def
98.1 552.42 o
grestore
gsave
/o {
gsave
newpath
translate
0.5 setlinewidth
1 setlinejoin
0 setlinecap
0 0 m
-4 0 l
gsave
0.000 setgray
fill
grestore
stroke
grestore
} bind def
706.32 552.42 o
grestore
gsave
58.006250 549.107500 translate
0.000000 rotate
0.000000 0.000000 m /one glyphshow
7.634766 0.000000 m /eight glyphshow
15.269531 0.000000 m /zero glyphshow
22.904297 0.000000 m /zero glyphshow
30.539062 0.000000 m /zero glyphshow
grestore
gsave
50.506250 373.812188 translate
90.000000 rotate
0.000000 0.000000 m /A glyphshow
7.458984 0.000000 m /v glyphshow
14.560547 0.000000 m /e glyphshow
21.943359 0.000000 m /r glyphshow
26.876953 0.000000 m /a glyphshow
34.230469 0.000000 m /g glyphshow
41.847656 0.000000 m /e glyphshow
49.230469 0.000000 m /space glyphshow
53.044922 0.000000 m /S glyphshow
60.662109 0.000000 m /u glyphshow
68.267578 0.000000 m /r glyphshow
73.201172 0.000000 m /v glyphshow
80.302734 0.000000 m /i glyphshow
83.636719 0.000000 m /v glyphshow
90.738281 0.000000 m /a glyphshow
98.091797 0.000000 m /l glyphshow
101.425781 0.000000 m /space glyphshow
105.240234 0.000000 m /T glyphshow
112.195312 0.000000 m /i glyphshow
115.529297 0.000000 m /m glyphshow
127.218750 0.000000 m /e glyphshow
grestore
1.000 setlinewidth
gsave
98.1 552.42 m
706.32 552.42 l
stroke
grestore
gsave
706.32 329.22 m
706.32 552.42 l
stroke
grestore
gsave
98.1 329.22 m
706.32 329.22 l
stroke
grestore
gsave
98.1 329.22 m
98.1 552.42 l
stroke
grestore
gsave
464.624 499.406 m
699.12 499.406 l
699.12 545.22 l
464.624 545.22 l
464.624 499.406 l
cl
gsave
1.000 setgray
fill
grestore
stroke
grestore
/p2_0 {
newpath
translate
474.704 526.659 m
474.704 541.059 l
} bind def
/p2_1 {
newpath
translate
494.864 526.659 m
494.864 541.059 l
} bind def
0.000 0.000 1.000 setrgbcolor
gsave
0 0 p2_0
stroke
grestore
gsave
0 0 p2_1
stroke
grestore
0.500 setlinewidth
gsave
/o {
gsave
newpath
translate
0.5 setlinewidth
1 setlinejoin
0 setlinecap
3 -1.83697e-16 m
-3 1.83697e-16 l
gsave
0.000 0.000 1.000 setrgbcolor
fill
grestore
stroke
grestore
} bind def
474.704 526.659 o
494.864 526.659 o
grestore
gsave
/o {
gsave
newpath
translate
0.5 setlinewidth
1 setlinejoin
0 setlinecap
3 -1.83697e-16 m
-3 1.83697e-16 l
gsave
0.000 0.000 1.000 setrgbcolor
fill
grestore
stroke
grestore
} bind def
474.704 541.059 o
494.864 541.059 o
grestore
1.000 setlinewidth
2 setlinecap
gsave
474.704 533.859 m
494.864 533.859 l
stroke
grestore
0.000 setgray
/DejaVuSans findfont
14.400 scalefont
setfont
gsave
510.703750 528.819375 translate
0.000000 rotate
0.000000 0.000000 m /N glyphshow
10.764862 0.000000 m /o glyphshow
19.569275 0.000000 m /space glyphshow
24.143631 0.000000 m /O glyphshow
35.470627 0.000000 m /b glyphshow
44.605301 0.000000 m /s glyphshow
52.102753 0.000000 m /t glyphshow
57.745163 0.000000 m /a glyphshow
66.563629 0.000000 m /c glyphshow
74.475662 0.000000 m /l glyphshow
78.473831 0.000000 m /e glyphshow
87.327438 0.000000 m /s glyphshow
94.824890 0.000000 m /space glyphshow
99.399246 0.000000 m /w glyphshow
111.168915 0.000000 m /slash glyphshow
116.017319 0.000000 m /space glyphshow
120.591675 0.000000 m /S glyphshow
129.726349 0.000000 m /t glyphshow
135.368759 0.000000 m /d glyphshow
144.503433 0.000000 m /space glyphshow
149.077789 0.000000 m /E glyphshow
158.170303 0.000000 m /r glyphshow
163.836761 0.000000 m /r glyphshow
grestore
/p3_0 {
newpath
translate
474.704 505.913 m
474.704 520.312 l
} bind def
/p3_1 {
newpath
translate
494.864 505.913 m
494.864 520.312 l
} bind def
0 setlinecap
0.000 0.500 0.000 setrgbcolor
gsave
0 0 p3_0
stroke
grestore
gsave
0 0 p3_1
stroke
grestore
0.500 setlinewidth
gsave
/o {
gsave
newpath
translate
0.5 setlinewidth
1 setlinejoin
0 setlinecap
3 -1.83697e-16 m
-3 1.83697e-16 l
gsave
0.000 0.500 0.000 setrgbcolor
fill
grestore
stroke
grestore
} bind def
474.704 505.913 o
494.864 505.913 o
grestore
gsave
/o {
gsave
newpath
translate
0.5 setlinewidth
1 setlinejoin
0 setlinecap
3 -1.83697e-16 m
-3 1.83697e-16 l
gsave
0.000 0.500 0.000 setrgbcolor
fill
grestore
stroke
grestore
} bind def
474.704 520.312 o
494.864 520.312 o
grestore
1.000 setlinewidth
2 setlinecap
gsave
474.704 513.113 m
494.864 513.113 l
stroke
grestore
0.000 setgray
gsave
510.703750 508.072500 translate
0.000000 rotate
0.000000 0.000000 m /W glyphshow
13.854004 0.000000 m /i glyphshow
17.852173 0.000000 m /t glyphshow
23.494583 0.000000 m /h glyphshow
32.615204 0.000000 m /space glyphshow
37.189560 0.000000 m /O glyphshow
48.516556 0.000000 m /b glyphshow
57.651230 0.000000 m /s glyphshow
65.148682 0.000000 m /t glyphshow
70.791092 0.000000 m /a glyphshow
79.609558 0.000000 m /c glyphshow
87.521591 0.000000 m /l glyphshow
91.519760 0.000000 m /e glyphshow
100.373367 0.000000 m /s glyphshow
107.870819 0.000000 m /space glyphshow
112.445175 0.000000 m /w glyphshow
124.214844 0.000000 m /slash glyphshow
129.063248 0.000000 m /space glyphshow
133.637604 0.000000 m /S glyphshow
142.772278 0.000000 m /t glyphshow
148.414688 0.000000 m /d glyphshow
157.549362 0.000000 m /space glyphshow
162.123718 0.000000 m /E glyphshow
171.216232 0.000000 m /r glyphshow
176.882690 0.000000 m /r glyphshow
grestore
gsave
98.1 61.38 m
706.32 61.38 l
706.32 284.58 l
98.1 284.58 l
cl
1.000 setgray
fill
grestore
/p4_0 {
newpath
translate
125.746 92.2255 m
125.746 142.135 l
} bind def
/p4_1 {
newpath
translate
263.978 83.7 m
263.978 128.34 l
} bind def
/p4_2 {
newpath
translate
402.21 109.973 m
402.21 169.027 l
} bind def
/p4_3 {
newpath
translate
540.442 175.863 m
540.442 259.377 l
} bind def
/p4_4 {
newpath
translate
678.674 156.641 m
678.674 233.959 l
} bind def
0 setlinecap
0.000 0.000 1.000 setrgbcolor
gsave
608.2 223.2 98.1 61.38 clipbox
0 0 p4_0
stroke
grestore
gsave
608.2 223.2 98.1 61.38 clipbox
0 0 p4_1
stroke
grestore
gsave
608.2 223.2 98.1 61.38 clipbox
0 0 p4_2
stroke
grestore
gsave
608.2 223.2 98.1 61.38 clipbox
0 0 p4_3
stroke
grestore
gsave
608.2 223.2 98.1 61.38 clipbox
0 0 p4_4
stroke
grestore
/p5_0 {
newpath
translate
125.746 101.004 m
125.746 155.676 l
} bind def
/p5_1 {
newpath
translate
263.978 128.34 m
263.978 195.3 l
} bind def
/p5_2 {
newpath
translate
402.21 166.222 m
402.21 246.698 l
} bind def
/p5_3 {
newpath
translate
540.442 137.689 m
540.442 208.271 l
} bind def
/p5_4 {
newpath
translate
678.674 175.863 m
678.674 259.377 l
} bind def
0.000 0.500 0.000 setrgbcolor
gsave
608.2 223.2 98.1 61.38 clipbox
0 0 p5_0
stroke
grestore
gsave
608.2 223.2 98.1 61.38 clipbox
0 0 p5_1
stroke
grestore
gsave
608.2 223.2 98.1 61.38 clipbox
0 0 p5_2
stroke
grestore
gsave
608.2 223.2 98.1 61.38 clipbox
0 0 p5_3
stroke
grestore
gsave
608.2 223.2 98.1 61.38 clipbox
0 0 p5_4
stroke
grestore
0.500 setlinewidth
0.000 0.000 1.000 setrgbcolor
gsave
608.2 223.2 98.1 61.38 clipbox
/o {
gsave
newpath
translate
0.5 setlinewidth
1 setlinejoin
0 setlinecap
3 -1.83697e-16 m
-3 1.83697e-16 l
gsave
0.000 0.000 1.000 setrgbcolor
fill
grestore
stroke
grestore
} bind def
125.746 92.2255 o
263.978 83.7 o
402.21 109.973 o
540.442 175.863 o
678.674 156.641 o
grestore
gsave
608.2 223.2 98.1 61.38 clipbox
/o {
gsave
newpath
translate
0.5 setlinewidth
1 setlinejoin
0 setlinecap
3 -1.83697e-16 m
-3 1.83697e-16 l
gsave
0.000 0.000 1.000 setrgbcolor
fill
grestore
stroke
grestore
} bind def
125.746 142.135 o
263.978 128.34 o
402.21 169.027 o
540.442 259.377 o
678.674 233.959 o
grestore
1.000 setlinewidth
2 setlinecap
gsave
608.2 223.2 98.1 61.38 clipbox
125.746 117.18 m
263.978 106.02 l
402.21 139.5 l
540.442 217.62 l
678.674 195.3 l
stroke
grestore
0.500 setlinewidth
0 setlinecap
0.000 0.500 0.000 setrgbcolor
gsave
608.2 223.2 98.1 61.38 clipbox
/o {
gsave
newpath
translate
0.5 setlinewidth
1 setlinejoin
0 setlinecap
3 -1.83697e-16 m
-3 1.83697e-16 l
gsave
0.000 0.500 0.000 setrgbcolor
fill
grestore
stroke
grestore
} bind def
125.746 101.004 o
263.978 128.34 o
402.21 166.222 o
540.442 137.689 o
678.674 175.863 o
grestore
gsave
608.2 223.2 98.1 61.38 clipbox
/o {
gsave
newpath
translate
0.5 setlinewidth
1 setlinejoin
0 setlinecap
3 -1.83697e-16 m
-3 1.83697e-16 l
gsave
0.000 0.500 0.000 setrgbcolor
fill
grestore
stroke
grestore
} bind def
125.746 155.676 o
263.978 195.3 o
402.21 246.698 o
540.442 208.271 o
678.674 259.377 o
grestore
1.000 setlinewidth
2 setlinecap
gsave
608.2 223.2 98.1 61.38 clipbox
125.746 128.34 m
263.978 161.82 l
402.21 206.46 l
540.442 172.98 l
678.674 217.62 l
stroke
grestore
0.500 setlinewidth
0 setlinecap
[1 3] 0 setdash
0.000 setgray
gsave
608.2 223.2 98.1 61.38 clipbox
125.746 61.38 m
125.746 284.58 l
stroke
grestore
[] 0 setdash
gsave
/o {
gsave
newpath
translate
0.5 setlinewidth
1 setlinejoin
0 setlinecap
0 0 m
0 4 l
gsave
0.000 setgray
fill
grestore
stroke
grestore
} bind def
125.746 61.38 o
grestore
gsave
/o {
gsave
newpath
translate
0.5 setlinewidth
1 setlinejoin
0 setlinecap
0 0 m
0 -4 l
gsave
0.000 setgray
fill
grestore
stroke
grestore
} bind def
125.746 284.58 o
grestore
/DejaVuSans findfont
12.000 scalefont
setfont
gsave
115.340114 48.255000 translate
0.000000 rotate
0.000000 0.000000 m /one glyphshow
7.634766 0.000000 m /zero glyphshow
15.269531 0.000000 m /zero glyphshow
grestore
[1 3] 0 setdash
gsave
608.2 223.2 98.1 61.38 clipbox
263.978 61.38 m
263.978 284.58 l
stroke
grestore
[] 0 setdash
gsave
/o {
gsave
newpath
translate
0.5 setlinewidth
1 setlinejoin
0 setlinecap
0 0 m
0 4 l
gsave
0.000 setgray
fill
grestore
stroke
grestore
} bind def
263.978 61.38 o
grestore
gsave
/o {
gsave
newpath
translate
0.5 setlinewidth
1 setlinejoin
0 setlinecap
0 0 m
0 -4 l
gsave
0.000 setgray
fill
grestore
stroke
grestore
} bind def
263.978 284.58 o
grestore
gsave
253.571932 48.255000 translate
0.000000 rotate
0.000000 0.000000 m /one glyphshow
7.634766 0.000000 m /five glyphshow
15.269531 0.000000 m /zero glyphshow
grestore
[1 3] 0 setdash
gsave
608.2 223.2 98.1 61.38 clipbox
402.21 61.38 m
402.21 284.58 l
stroke
grestore
[] 0 setdash
gsave
/o {
gsave
newpath
translate
0.5 setlinewidth
1 setlinejoin
0 setlinecap
0 0 m
0 4 l
gsave
0.000 setgray
fill
grestore
stroke
grestore
} bind def
402.21 61.38 o
grestore
gsave
/o {
gsave
newpath
translate
0.5 setlinewidth
1 setlinejoin
0 setlinecap
0 0 m
0 -4 l
gsave
0.000 setgray
fill
grestore
stroke
grestore
} bind def
402.21 284.58 o
grestore
gsave
391.585000 48.255000 translate
0.000000 rotate
0.000000 0.000000 m /two glyphshow
7.634766 0.000000 m /zero glyphshow
15.269531 0.000000 m /zero glyphshow
grestore
[1 3] 0 setdash
gsave
608.2 223.2 98.1 61.38 clipbox
540.442 61.38 m
540.442 284.58 l
stroke
grestore
[] 0 setdash
gsave
/o {
gsave
newpath
translate
0.5 setlinewidth
1 setlinejoin
0 setlinecap
0 0 m
0 4 l
gsave
0.000 setgray
fill
grestore
stroke
grestore
} bind def
540.442 61.38 o
grestore
gsave
/o {
gsave
newpath
translate
0.5 setlinewidth
1 setlinejoin
0 setlinecap
0 0 m
0 -4 l
gsave
0.000 setgray
fill
grestore
stroke
grestore
} bind def
540.442 284.58 o
grestore
gsave
529.816818 48.255000 translate
0.000000 rotate
0.000000 0.000000 m /two glyphshow
7.634766 0.000000 m /five glyphshow
15.269531 0.000000 m /zero glyphshow
grestore
[1 3] 0 setdash
gsave
608.2 223.2 98.1 61.38 clipbox
678.674 61.38 m
678.674 284.58 l
stroke
grestore
[] 0 setdash
gsave
/o {
gsave
newpath
translate
0.5 setlinewidth
1 setlinejoin
0 setlinecap
0 0 m
0 4 l
gsave
0.000 setgray
fill
grestore
stroke
grestore
} bind def
678.674 61.38 o
grestore
gsave
/o {
gsave
newpath
translate
0.5 setlinewidth
1 setlinejoin
0 setlinecap
0 0 m
0 -4 l
gsave
0.000 setgray
fill
grestore
stroke
grestore
} bind def
678.674 284.58 o
grestore
gsave
668.072074 48.255000 translate
0.000000 rotate
0.000000 0.000000 m /three glyphshow
7.634766 0.000000 m /zero glyphshow
15.269531 0.000000 m /zero glyphshow
grestore
gsave
330.342813 31.630000 translate
0.000000 rotate
0.000000 0.000000 m /I glyphshow
3.539062 0.000000 m /n glyphshow
11.144531 0.000000 m /i glyphshow
14.478516 0.000000 m /t glyphshow
19.183594 0.000000 m /i glyphshow
22.517578 0.000000 m /a glyphshow
29.871094 0.000000 m /l glyphshow
33.205078 0.000000 m /space glyphshow
37.019531 0.000000 m /N glyphshow
45.996094 0.000000 m /u glyphshow
53.601562 0.000000 m /m glyphshow
65.291016 0.000000 m /b glyphshow
72.908203 0.000000 m /e glyphshow
80.291016 0.000000 m /r glyphshow
85.224609 0.000000 m /space glyphshow
89.039062 0.000000 m /o glyphshow
96.380859 0.000000 m /f glyphshow
100.605469 0.000000 m /space glyphshow
104.419922 0.000000 m /P glyphshow
111.281250 0.000000 m /e glyphshow
118.664062 0.000000 m /o glyphshow
126.005859 0.000000 m /p glyphshow
133.623047 0.000000 m /l glyphshow
136.957031 0.000000 m /e glyphshow
grestore
[1 3] 0 setdash
gsave
608.2 223.2 98.1 61.38 clipbox
98.1 61.38 m
706.32 61.38 l
stroke
grestore
[] 0 setdash
gsave
/o {
gsave
newpath
translate
0.5 setlinewidth
1 setlinejoin
0 setlinecap
0 0 m
4 0 l
gsave
0.000 setgray
fill
grestore
stroke
grestore
} bind def
98.1 61.38 o
grestore
gsave
/o {
gsave
newpath
translate
0.5 setlinewidth
1 setlinejoin
0 setlinecap
0 0 m
-4 0 l
gsave
0.000 setgray
fill
grestore
stroke
grestore
} bind def
706.32 61.38 o
grestore
gsave
88.053125 58.067500 translate
0.000000 rotate
0.000000 0.000000 m /zero glyphshow
grestore
[1 3] 0 setdash
gsave
608.2 223.2 98.1 61.38 clipbox
98.1 117.18 m
706.32 117.18 l
stroke
grestore
[] 0 setdash
gsave
/o {
gsave
newpath
translate
0.5 setlinewidth
1 setlinejoin
0 setlinecap
0 0 m
4 0 l
gsave
0.000 setgray
fill
grestore
stroke
grestore
} bind def
98.1 117.18 o
grestore
gsave
/o {
gsave
newpath
translate
0.5 setlinewidth
1 setlinejoin
0 setlinecap
0 0 m
-4 0 l
gsave
0.000 setgray
fill
grestore
stroke
grestore
} bind def
706.32 117.18 o
grestore
gsave
88.428125 113.867500 translate
0.000000 rotate
0.000000 0.000000 m /five glyphshow
grestore
[1 3] 0 setdash
gsave
608.2 223.2 98.1 61.38 clipbox
98.1 172.98 m
706.32 172.98 l
stroke
grestore
[] 0 setdash
gsave
/o {
gsave
newpath
translate
0.5 setlinewidth
1 setlinejoin
0 setlinecap
0 0 m
4 0 l
gsave
0.000 setgray
fill
grestore
stroke
grestore
} bind def
98.1 172.98 o
grestore
gsave
/o {
gsave
newpath
translate
0.5 setlinewidth
1 setlinejoin
0 setlinecap
0 0 m
-4 0 l
gsave
0.000 setgray
fill
grestore
stroke
grestore
} bind def
706.32 172.98 o
grestore
gsave
80.928125 169.667500 translate
0.000000 rotate
0.000000 0.000000 m /one glyphshow
7.634766 0.000000 m /zero glyphshow
grestore
[1 3] 0 setdash
gsave
608.2 223.2 98.1 61.38 clipbox
98.1 228.78 m
706.32 228.78 l
stroke
grestore
[] 0 setdash
gsave
/o {
gsave
newpath
translate
0.5 setlinewidth
1 setlinejoin
0 setlinecap
0 0 m
4 0 l
gsave
0.000 setgray
fill
grestore
stroke
grestore
} bind def
98.1 228.78 o
grestore
gsave
/o {
gsave
newpath
translate
0.5 setlinewidth
1 setlinejoin
0 setlinecap
0 0 m
-4 0 l
gsave
0.000 setgray
fill
grestore
stroke
grestore
} bind def
706.32 228.78 o
grestore
gsave
81.178125 225.467500 translate
0.000000 rotate
0.000000 0.000000 m /one glyphshow
7.634766 0.000000 m /five glyphshow
grestore
[1 3] 0 setdash
gsave
608.2 223.2 98.1 61.38 clipbox
98.1 284.58 m
706.32 284.58 l
stroke
grestore
[] 0 setdash
gsave
/o {
gsave
newpath
translate
0.5 setlinewidth
1 setlinejoin
0 setlinecap
0 0 m
4 0 l
gsave
0.000 setgray
fill
grestore
stroke
grestore
} bind def
98.1 284.58 o
grestore
gsave
/o {
gsave
newpath
translate
0.5 setlinewidth
1 setlinejoin
0 setlinecap
0 0 m
-4 0 l
gsave
0.000 setgray
fill
grestore
stroke
grestore
} bind def
706.32 284.58 o
grestore
gsave
80.490625 281.267500 translate
0.000000 rotate
0.000000 0.000000 m /two glyphshow
7.634766 0.000000 m /zero glyphshow
grestore
gsave
72.990625 147.401875 translate
90.000000 rotate
0.000000 0.000000 m /V glyphshow
7.958984 0.000000 m /i glyphshow
11.292969 0.000000 m /c glyphshow
17.890625 0.000000 m /t glyphshow
22.595703 0.000000 m /o glyphshow
29.937500 0.000000 m /r glyphshow
34.871094 0.000000 m /i glyphshow
38.205078 0.000000 m /e glyphshow
45.587891 0.000000 m /s glyphshow
grestore
1.000 setlinewidth
gsave
98.1 284.58 m
706.32 284.58 l
stroke
grestore
gsave
706.32 61.38 m
706.32 284.58 l
stroke
grestore
gsave
98.1 61.38 m
706.32 61.38 l
stroke
grestore
gsave
98.1 61.38 m
98.1 284.58 l
stroke
grestore
gsave
105.3 231.566 m
347.14 231.566 l
347.14 277.38 l
105.3 277.38 l
105.3 231.566 l
cl
gsave
1.000 setgray
fill
grestore
stroke
grestore
/p6_0 {
newpath
translate
115.38 258.819 m
115.38 273.219 l
} bind def
/p6_1 {
newpath
translate
135.54 258.819 m
135.54 273.219 l
} bind def
0.000 0.000 1.000 setrgbcolor
gsave
0 0 p6_0
stroke
grestore
gsave
0 0 p6_1
stroke
grestore
0.500 setlinewidth
gsave
/o {
gsave
newpath
translate
0.5 setlinewidth
1 setlinejoin
0 setlinecap
3 -1.83697e-16 m
-3 1.83697e-16 l
gsave
0.000 0.000 1.000 setrgbcolor
fill
grestore
stroke
grestore
} bind def
115.38 258.819 o
135.54 258.819 o
grestore
gsave
/o {
gsave
newpath
translate
0.5 setlinewidth
1 setlinejoin
0 setlinecap
3 -1.83697e-16 m
-3 1.83697e-16 l
gsave
0.000 0.000 1.000 setrgbcolor
fill
grestore
stroke
grestore
} bind def
115.38 273.219 o
135.54 273.219 o
grestore
1.000 setlinewidth
2 setlinecap
gsave
115.38 266.019 m
135.54 266.019 l
stroke
grestore
0.000 setgray
/DejaVuSans findfont
14.400 scalefont
setfont
gsave
151.380000 260.979375 translate
0.000000 rotate
0.000000 0.000000 m /N glyphshow
10.764862 0.000000 m /o glyphshow
19.569275 0.000000 m /space glyphshow
24.143631 0.000000 m /O glyphshow
35.470627 0.000000 m /b glyphshow
44.605301 0.000000 m /s glyphshow
52.102753 0.000000 m /t glyphshow
57.745163 0.000000 m /a glyphshow
66.563629 0.000000 m /c glyphshow
74.475662 0.000000 m /l glyphshow
78.473831 0.000000 m /e glyphshow
87.327438 0.000000 m /s glyphshow
94.824890 0.000000 m /space glyphshow
99.399246 0.000000 m /w glyphshow
111.168915 0.000000 m /slash glyphshow
116.017319 0.000000 m /space glyphshow
120.591675 0.000000 m /S glyphshow
129.726349 0.000000 m /t glyphshow
135.368759 0.000000 m /d glyphshow
144.503433 0.000000 m /space glyphshow
149.077789 0.000000 m /D glyphshow
160.158844 0.000000 m /e glyphshow
169.012451 0.000000 m /v glyphshow
grestore
/p7_0 {
newpath
translate
115.38 238.073 m
115.38 252.473 l
} bind def
/p7_1 {
newpath
translate
135.54 238.073 m
135.54 252.473 l
} bind def
0 setlinecap
0.000 0.500 0.000 setrgbcolor
gsave
0 0 p7_0
stroke
grestore
gsave
0 0 p7_1
stroke
grestore
0.500 setlinewidth
gsave
/o {
gsave
newpath
translate
0.5 setlinewidth
1 setlinejoin
0 setlinecap
3 -1.83697e-16 m
-3 1.83697e-16 l
gsave
0.000 0.500 0.000 setrgbcolor
fill
grestore
stroke
grestore
} bind def
115.38 238.073 o
135.54 238.073 o
grestore
gsave
/o {
gsave
newpath
translate
0.5 setlinewidth
1 setlinejoin
0 setlinecap
3 -1.83697e-16 m
-3 1.83697e-16 l
gsave
0.000 0.500 0.000 setrgbcolor
fill
grestore
stroke
grestore
} bind def
115.38 252.473 o
135.54 252.473 o
grestore
1.000 setlinewidth
2 setlinecap
gsave
115.38 245.273 m
135.54 245.273 l
stroke
grestore
0.000 setgray
gsave
151.380000 240.232500 translate
0.000000 rotate
0.000000 0.000000 m /W glyphshow
13.854004 0.000000 m /i glyphshow
17.852173 0.000000 m /t glyphshow
23.494583 0.000000 m /h glyphshow
32.615204 0.000000 m /space glyphshow
37.189560 0.000000 m /O glyphshow
48.516556 0.000000 m /b glyphshow
57.651230 0.000000 m /s glyphshow
65.148682 0.000000 m /t glyphshow
70.791092 0.000000 m /a glyphshow
79.609558 0.000000 m /c glyphshow
87.521591 0.000000 m /l glyphshow
91.519760 0.000000 m /e glyphshow
100.373367 0.000000 m /s glyphshow
107.870819 0.000000 m /space glyphshow
112.445175 0.000000 m /w glyphshow
124.214844 0.000000 m /slash glyphshow
129.063248 0.000000 m /space glyphshow
133.637604 0.000000 m /S glyphshow
142.772278 0.000000 m /t glyphshow
148.414688 0.000000 m /d glyphshow
157.549362 0.000000 m /space glyphshow
162.123718 0.000000 m /D glyphshow
173.204773 0.000000 m /e glyphshow
182.058380 0.000000 m /v glyphshow
grestore

end
showpage
