%!PS-Adobe-3.0 EPSF-3.0
%%Title: /home/martin/git-repos/hendricks-course/assignments/assignment-1/latex/plots/A1Q2_averages.eps
%%Creator: matplotlib version 1.3.1, http://matplotlib.org/
%%CreationDate: Thu Sep 24 16:46:21 2015
%%Orientation: portrait
%%BoundingBox: -308 76 920 715
%%EndComments
%%BeginProlog
/mpldict 8 dict def
mpldict begin
/m { moveto } bind def
/l { lineto } bind def
/r { rlineto } bind def
/c { curveto } bind def
/cl { closepath } bind def
/box {
m
1 index 0 r
0 exch r
neg 0 r
cl
} bind def
/clipbox {
box
clip
newpath
} bind def
%!PS-Adobe-3.0 Resource-Font
%%Title: DejaVu Sans
%%Copyright: Copyright (c) 2003 by Bitstream, Inc. All Rights Reserved. Copyright (c) 2006 by Tavmjong Bah. All Rights Reserved. DejaVu changes are in public domain 
%%Creator: Converted from TrueType to type 3 by PPR
25 dict begin
/_d{bind def}bind def
/_m{moveto}_d
/_l{lineto}_d
/_cl{closepath eofill}_d
/_c{curveto}_d
/_sc{7 -1 roll{setcachedevice}{pop pop pop pop pop pop}ifelse}_d
/_e{exec}_d
/FontName /DejaVuSans def
/PaintType 0 def
/FontMatrix[.001 0 0 .001 0 0]def
/FontBBox[-1021 -415 1681 1167]def
/FontType 3 def
/Encoding [ /space /period /zero /one /two /three /four /five /F /M /S /a /c /e /l /m /n /p /q /r /u /y /minus ] def
/FontInfo 10 dict dup begin
/FamilyName (DejaVu Sans) def
/FullName (DejaVu Sans) def
/Notice (Copyright (c) 2003 by Bitstream, Inc. All Rights Reserved. Copyright (c) 2006 by Tavmjong Bah. All Rights Reserved. DejaVu changes are in public domain ) def
/Weight (Book) def
/Version (Version 2.34) def
/ItalicAngle 0.0 def
/isFixedPitch false def
/UnderlinePosition -130 def
/UnderlineThickness 90 def
end readonly def
/CharStrings 23 dict dup begin
/space{318 0 0 0 0 0 _sc
}_d
/period{318 0 107 0 210 124 _sc
107 124 _m
210 124 _l
210 0 _l
107 0 _l
107 124 _l
_cl}_d
/zero{636 0 66 -13 570 742 _sc
318 664 _m
267 664 229 639 203 589 _c
177 539 165 464 165 364 _c
165 264 177 189 203 139 _c
229 89 267 64 318 64 _c
369 64 407 89 433 139 _c
458 189 471 264 471 364 _c
471 464 458 539 433 589 _c
407 639 369 664 318 664 _c
318 742 _m
399 742 461 709 505 645 _c
548 580 570 486 570 364 _c
570 241 548 147 505 83 _c
461 19 399 -13 318 -13 _c
236 -13 173 19 130 83 _c
87 147 66 241 66 364 _c
66 486 87 580 130 645 _c
173 709 236 742 318 742 _c
_cl}_d
/one{636 0 110 0 544 729 _sc
124 83 _m
285 83 _l
285 639 _l
110 604 _l
110 694 _l
284 729 _l
383 729 _l
383 83 _l
544 83 _l
544 0 _l
124 0 _l
124 83 _l
_cl}_d
/two{{636 0 73 0 536 742 _sc
192 83 _m
536 83 _l
536 0 _l
73 0 _l
73 83 _l
110 121 161 173 226 239 _c
290 304 331 346 348 365 _c
380 400 402 430 414 455 _c
426 479 433 504 433 528 _c
433 566 419 598 392 622 _c
365 646 330 659 286 659 _c
255 659 222 653 188 643 _c
154 632 117 616 78 594 _c
78 694 _l
118 710 155 722 189 730 _c
223 738 255 742 284 742 _c
}_e{359 742 419 723 464 685 _c
509 647 532 597 532 534 _c
532 504 526 475 515 449 _c
504 422 484 390 454 354 _c
446 344 420 317 376 272 _c
332 227 271 164 192 83 _c
_cl}_e}_d
/three{{636 0 76 -13 556 742 _sc
406 393 _m
453 383 490 362 516 330 _c
542 298 556 258 556 212 _c
556 140 531 84 482 45 _c
432 6 362 -13 271 -13 _c
240 -13 208 -10 176 -4 _c
144 1 110 10 76 22 _c
76 117 _l
103 101 133 89 166 81 _c
198 73 232 69 268 69 _c
330 69 377 81 409 105 _c
441 129 458 165 458 212 _c
458 254 443 288 413 312 _c
383 336 341 349 287 349 _c
}_e{202 349 _l
202 430 _l
291 430 _l
339 430 376 439 402 459 _c
428 478 441 506 441 543 _c
441 580 427 609 401 629 _c
374 649 336 659 287 659 _c
260 659 231 656 200 650 _c
169 644 135 635 98 623 _c
98 711 _l
135 721 170 729 203 734 _c
235 739 266 742 296 742 _c
370 742 429 725 473 691 _c
517 657 539 611 539 553 _c
539 513 527 479 504 451 _c
481 423 448 403 406 393 _c
_cl}_e}_d
/four{636 0 49 0 580 729 _sc
378 643 _m
129 254 _l
378 254 _l
378 643 _l
352 729 _m
476 729 _l
476 254 _l
580 254 _l
580 172 _l
476 172 _l
476 0 _l
378 0 _l
378 172 _l
49 172 _l
49 267 _l
352 729 _l
_cl}_d
/five{{636 0 77 -13 549 729 _sc
108 729 _m
495 729 _l
495 646 _l
198 646 _l
198 467 _l
212 472 227 476 241 478 _c
255 480 270 482 284 482 _c
365 482 429 459 477 415 _c
525 370 549 310 549 234 _c
549 155 524 94 475 51 _c
426 8 357 -13 269 -13 _c
238 -13 207 -10 175 -6 _c
143 -1 111 6 77 17 _c
77 116 _l
106 100 136 88 168 80 _c
199 72 232 69 267 69 _c
}_e{323 69 368 83 401 113 _c
433 143 450 183 450 234 _c
450 284 433 324 401 354 _c
368 384 323 399 267 399 _c
241 399 214 396 188 390 _c
162 384 135 375 108 363 _c
108 729 _l
_cl}_e}_d
/F{575 0 98 0 517 729 _sc
98 729 _m
517 729 _l
517 646 _l
197 646 _l
197 431 _l
486 431 _l
486 348 _l
197 348 _l
197 0 _l
98 0 _l
98 729 _l
_cl}_d
/M{863 0 98 0 765 729 _sc
98 729 _m
245 729 _l
431 233 _l
618 729 _l
765 729 _l
765 0 _l
669 0 _l
669 640 _l
481 140 _l
382 140 _l
194 640 _l
194 0 _l
98 0 _l
98 729 _l
_cl}_d
/S{{635 0 66 -13 579 742 _sc
535 705 _m
535 609 _l
497 627 462 640 429 649 _c
395 657 363 662 333 662 _c
279 662 237 651 208 631 _c
179 610 165 580 165 542 _c
165 510 174 485 194 469 _c
213 452 250 439 304 429 _c
364 417 _l
437 403 491 378 526 343 _c
561 307 579 260 579 201 _c
579 130 555 77 508 41 _c
460 5 391 -13 300 -13 _c
265 -13 228 -9 189 -2 _c
}_e{150 5 110 16 69 32 _c
69 134 _l
109 111 148 94 186 83 _c
224 71 262 66 300 66 _c
356 66 399 77 430 99 _c
460 121 476 152 476 194 _c
476 230 465 258 443 278 _c
421 298 385 313 335 323 _c
275 335 _l
201 349 148 372 115 404 _c
82 435 66 478 66 534 _c
66 598 88 649 134 686 _c
179 723 242 742 322 742 _c
356 742 390 739 426 733 _c
461 727 497 717 535 705 _c
}_e{_cl}_e}_d
/a{{613 0 60 -13 522 560 _sc
343 275 _m
270 275 220 266 192 250 _c
164 233 150 205 150 165 _c
150 133 160 107 181 89 _c
202 70 231 61 267 61 _c
317 61 357 78 387 114 _c
417 149 432 196 432 255 _c
432 275 _l
343 275 _l
522 312 _m
522 0 _l
432 0 _l
432 83 _l
411 49 385 25 355 10 _c
325 -5 287 -13 243 -13 _c
187 -13 142 2 109 33 _c
76 64 60 106 60 159 _c
}_e{60 220 80 266 122 298 _c
163 329 224 345 306 345 _c
432 345 _l
432 354 _l
432 395 418 427 391 450 _c
364 472 326 484 277 484 _c
245 484 215 480 185 472 _c
155 464 127 453 100 439 _c
100 522 _l
132 534 164 544 195 550 _c
226 556 256 560 286 560 _c
365 560 424 539 463 498 _c
502 457 522 395 522 312 _c
_cl}_e}_d
/c{{550 0 55 -13 488 560 _sc
488 526 _m
488 442 _l
462 456 437 466 411 473 _c
385 480 360 484 334 484 _c
276 484 230 465 198 428 _c
166 391 150 339 150 273 _c
150 206 166 154 198 117 _c
230 80 276 62 334 62 _c
360 62 385 65 411 72 _c
437 79 462 90 488 104 _c
488 21 _l
462 9 436 0 410 -5 _c
383 -10 354 -13 324 -13 _c
242 -13 176 12 128 64 _c
}_e{79 115 55 185 55 273 _c
55 362 79 432 128 483 _c
177 534 244 560 330 560 _c
358 560 385 557 411 551 _c
437 545 463 537 488 526 _c
_cl}_e}_d
/e{{615 0 55 -13 562 560 _sc
562 296 _m
562 252 _l
149 252 _l
153 190 171 142 205 110 _c
238 78 284 62 344 62 _c
378 62 412 66 444 74 _c
476 82 509 95 541 113 _c
541 28 _l
509 14 476 3 442 -3 _c
408 -9 373 -13 339 -13 _c
251 -13 182 12 131 62 _c
80 112 55 181 55 268 _c
55 357 79 428 127 481 _c
175 533 241 560 323 560 _c
397 560 455 536 498 489 _c
}_e{540 441 562 377 562 296 _c
472 322 _m
471 371 457 410 431 440 _c
404 469 368 484 324 484 _c
274 484 234 469 204 441 _c
174 413 156 373 152 322 _c
472 322 _l
_cl}_e}_d
/l{278 0 94 0 184 760 _sc
94 760 _m
184 760 _l
184 0 _l
94 0 _l
94 760 _l
_cl}_d
/m{{974 0 91 0 889 560 _sc
520 442 _m
542 482 569 511 600 531 _c
631 550 668 560 711 560 _c
767 560 811 540 842 500 _c
873 460 889 403 889 330 _c
889 0 _l
799 0 _l
799 327 _l
799 379 789 418 771 444 _c
752 469 724 482 686 482 _c
639 482 602 466 575 435 _c
548 404 535 362 535 309 _c
535 0 _l
445 0 _l
445 327 _l
445 379 435 418 417 444 _c
398 469 369 482 331 482 _c
}_e{285 482 248 466 221 435 _c
194 404 181 362 181 309 _c
181 0 _l
91 0 _l
91 547 _l
181 547 _l
181 462 _l
201 495 226 520 255 536 _c
283 552 317 560 357 560 _c
397 560 430 550 458 530 _c
486 510 506 480 520 442 _c
_cl}_e}_d
/n{634 0 91 0 549 560 _sc
549 330 _m
549 0 _l
459 0 _l
459 327 _l
459 379 448 417 428 443 _c
408 469 378 482 338 482 _c
289 482 251 466 223 435 _c
195 404 181 362 181 309 _c
181 0 _l
91 0 _l
91 547 _l
181 547 _l
181 462 _l
202 494 227 519 257 535 _c
286 551 320 560 358 560 _c
420 560 468 540 500 501 _c
532 462 549 405 549 330 _c
_cl}_d
/p{{635 0 91 -207 580 560 _sc
181 82 _m
181 -207 _l
91 -207 _l
91 547 _l
181 547 _l
181 464 _l
199 496 223 520 252 536 _c
281 552 316 560 356 560 _c
422 560 476 533 518 481 _c
559 428 580 359 580 273 _c
580 187 559 117 518 65 _c
476 13 422 -13 356 -13 _c
316 -13 281 -5 252 10 _c
223 25 199 49 181 82 _c
487 273 _m
487 339 473 390 446 428 _c
418 466 381 485 334 485 _c
}_e{286 485 249 466 222 428 _c
194 390 181 339 181 273 _c
181 207 194 155 222 117 _c
249 79 286 61 334 61 _c
381 61 418 79 446 117 _c
473 155 487 207 487 273 _c
_cl}_e}_d
/q{{635 0 55 -207 544 560 _sc
148 273 _m
148 207 161 155 188 117 _c
215 79 253 61 301 61 _c
348 61 385 79 413 117 _c
440 155 454 207 454 273 _c
454 339 440 390 413 428 _c
385 466 348 485 301 485 _c
253 485 215 466 188 428 _c
161 390 148 339 148 273 _c
454 82 _m
435 49 411 25 382 10 _c
353 -5 319 -13 279 -13 _c
213 -13 159 13 117 65 _c
75 117 55 187 55 273 _c
}_e{55 359 75 428 117 481 _c
159 533 213 560 279 560 _c
319 560 353 552 382 536 _c
411 520 435 496 454 464 _c
454 547 _l
544 547 _l
544 -207 _l
454 -207 _l
454 82 _l
_cl}_e}_d
/r{411 0 91 0 411 560 _sc
411 463 _m
401 469 390 473 378 476 _c
366 478 353 480 339 480 _c
288 480 249 463 222 430 _c
194 397 181 350 181 288 _c
181 0 _l
91 0 _l
91 547 _l
181 547 _l
181 462 _l
199 495 224 520 254 536 _c
284 552 321 560 365 560 _c
371 560 378 559 386 559 _c
393 558 401 557 411 555 _c
411 463 _l
_cl}_d
/u{634 0 85 -13 543 560 _sc
85 216 _m
85 547 _l
175 547 _l
175 219 _l
175 167 185 129 205 103 _c
225 77 255 64 296 64 _c
344 64 383 79 411 110 _c
439 141 453 183 453 237 _c
453 547 _l
543 547 _l
543 0 _l
453 0 _l
453 84 _l
431 50 405 26 377 10 _c
348 -5 315 -13 277 -13 _c
214 -13 166 6 134 45 _c
101 83 85 140 85 216 _c
311 560 _m
311 560 _l
_cl}_d
/y{592 0 30 -207 562 547 _sc
322 -50 _m
296 -114 271 -157 247 -177 _c
223 -197 191 -207 151 -207 _c
79 -207 _l
79 -132 _l
132 -132 _l
156 -132 175 -126 189 -114 _c
203 -102 218 -75 235 -31 _c
251 9 _l
30 547 _l
125 547 _l
296 119 _l
467 547 _l
562 547 _l
322 -50 _l
_cl}_d
/minus{838 0 106 272 732 355 _sc
106 355 _m
732 355 _l
732 272 _l
106 272 _l
106 355 _l
_cl}_d
end readonly def

/BuildGlyph
 {exch begin
 CharStrings exch
 2 copy known not{pop /.notdef}if
 true 3 1 roll get exec
 end}_d

/BuildChar {
 1 index /Encoding get exch get
 1 index /BuildGlyph get exec
}_d

FontName currentdict end definefont pop
end
%%EndProlog
mpldict begin
-308.7 76.5 translate
1229.4 639 0 0 clipbox
gsave
0 0 m
1229.4 0 l
1229.4 639 l
0 639 l
cl
1.000 setgray
fill
grestore
gsave
153.675 63.9 m
1106.46 63.9 l
1106.46 575.1 l
153.675 575.1 l
cl
1.000 setgray
fill
grestore
1.000 setlinewidth
1 setlinejoin
0 setlinecap
[] 0 setdash
0.000 setgray
gsave
952.8 511.2 153.7 63.9 clipbox
153.675 63.9 m
163.203 63.9 l
163.203 63.9 l
153.675 63.9 l
cl
gsave
0.000 0.000 1.000 setrgbcolor
fill
grestore
stroke
grestore
gsave
952.8 511.2 153.7 63.9 clipbox
163.299 63.9 m
172.827 63.9 l
172.827 63.9 l
163.299 63.9 l
cl
gsave
0.000 0.000 1.000 setrgbcolor
fill
grestore
stroke
grestore
gsave
952.8 511.2 153.7 63.9 clipbox
172.923 63.9 m
182.451 63.9 l
182.451 63.9 l
172.923 63.9 l
cl
gsave
0.000 0.000 1.000 setrgbcolor
fill
grestore
stroke
grestore
gsave
952.8 511.2 153.7 63.9 clipbox
182.547 63.9 m
192.075 63.9 l
192.075 63.9 l
182.547 63.9 l
cl
gsave
0.000 0.000 1.000 setrgbcolor
fill
grestore
stroke
grestore
gsave
952.8 511.2 153.7 63.9 clipbox
192.171 63.9 m
201.699 63.9 l
201.699 63.9 l
192.171 63.9 l
cl
gsave
0.000 0.000 1.000 setrgbcolor
fill
grestore
stroke
grestore
gsave
952.8 511.2 153.7 63.9 clipbox
201.795 63.9 m
211.323 63.9 l
211.323 75.26 l
201.795 75.26 l
cl
gsave
0.000 0.000 1.000 setrgbcolor
fill
grestore
stroke
grestore
gsave
952.8 511.2 153.7 63.9 clipbox
211.42 63.9 m
220.947 63.9 l
220.947 75.26 l
211.42 75.26 l
cl
gsave
0.000 0.000 1.000 setrgbcolor
fill
grestore
stroke
grestore
gsave
952.8 511.2 153.7 63.9 clipbox
221.044 63.9 m
230.571 63.9 l
230.571 75.26 l
221.044 75.26 l
cl
gsave
0.000 0.000 1.000 setrgbcolor
fill
grestore
stroke
grestore
gsave
952.8 511.2 153.7 63.9 clipbox
230.668 63.9 m
240.196 63.9 l
240.196 63.9 l
230.668 63.9 l
cl
gsave
0.000 0.000 1.000 setrgbcolor
fill
grestore
stroke
grestore
gsave
952.8 511.2 153.7 63.9 clipbox
240.292 63.9 m
249.82 63.9 l
249.82 75.26 l
240.292 75.26 l
cl
gsave
0.000 0.000 1.000 setrgbcolor
fill
grestore
stroke
grestore
gsave
952.8 511.2 153.7 63.9 clipbox
249.916 63.9 m
259.444 63.9 l
259.444 63.9 l
249.916 63.9 l
cl
gsave
0.000 0.000 1.000 setrgbcolor
fill
grestore
stroke
grestore
gsave
952.8 511.2 153.7 63.9 clipbox
259.54 63.9 m
269.068 63.9 l
269.068 63.9 l
259.54 63.9 l
cl
gsave
0.000 0.000 1.000 setrgbcolor
fill
grestore
stroke
grestore
gsave
952.8 511.2 153.7 63.9 clipbox
269.164 63.9 m
278.692 63.9 l
278.692 109.34 l
269.164 109.34 l
cl
gsave
0.000 0.000 1.000 setrgbcolor
fill
grestore
stroke
grestore
gsave
952.8 511.2 153.7 63.9 clipbox
278.788 63.9 m
288.316 63.9 l
288.316 86.62 l
278.788 86.62 l
cl
gsave
0.000 0.000 1.000 setrgbcolor
fill
grestore
stroke
grestore
gsave
952.8 511.2 153.7 63.9 clipbox
288.412 63.9 m
297.94 63.9 l
297.94 97.98 l
288.412 97.98 l
cl
gsave
0.000 0.000 1.000 setrgbcolor
fill
grestore
stroke
grestore
gsave
952.8 511.2 153.7 63.9 clipbox
298.036 63.9 m
307.564 63.9 l
307.564 97.98 l
298.036 97.98 l
cl
gsave
0.000 0.000 1.000 setrgbcolor
fill
grestore
stroke
grestore
gsave
952.8 511.2 153.7 63.9 clipbox
307.66 63.9 m
317.188 63.9 l
317.188 86.62 l
307.66 86.62 l
cl
gsave
0.000 0.000 1.000 setrgbcolor
fill
grestore
stroke
grestore
gsave
952.8 511.2 153.7 63.9 clipbox
317.285 63.9 m
326.812 63.9 l
326.812 86.62 l
317.285 86.62 l
cl
gsave
0.000 0.000 1.000 setrgbcolor
fill
grestore
stroke
grestore
gsave
952.8 511.2 153.7 63.9 clipbox
326.909 63.9 m
336.436 63.9 l
336.436 109.34 l
326.909 109.34 l
cl
gsave
0.000 0.000 1.000 setrgbcolor
fill
grestore
stroke
grestore
gsave
952.8 511.2 153.7 63.9 clipbox
336.533 63.9 m
346.061 63.9 l
346.061 120.7 l
336.533 120.7 l
cl
gsave
0.000 0.000 1.000 setrgbcolor
fill
grestore
stroke
grestore
gsave
952.8 511.2 153.7 63.9 clipbox
346.157 63.9 m
355.685 63.9 l
355.685 109.34 l
346.157 109.34 l
cl
gsave
0.000 0.000 1.000 setrgbcolor
fill
grestore
stroke
grestore
gsave
952.8 511.2 153.7 63.9 clipbox
355.781 63.9 m
365.309 63.9 l
365.309 143.42 l
355.781 143.42 l
cl
gsave
0.000 0.000 1.000 setrgbcolor
fill
grestore
stroke
grestore
gsave
952.8 511.2 153.7 63.9 clipbox
365.405 63.9 m
374.933 63.9 l
374.933 132.06 l
365.405 132.06 l
cl
gsave
0.000 0.000 1.000 setrgbcolor
fill
grestore
stroke
grestore
gsave
952.8 511.2 153.7 63.9 clipbox
375.029 63.9 m
384.557 63.9 l
384.557 177.5 l
375.029 177.5 l
cl
gsave
0.000 0.000 1.000 setrgbcolor
fill
grestore
stroke
grestore
gsave
952.8 511.2 153.7 63.9 clipbox
384.653 63.9 m
394.181 63.9 l
394.181 154.78 l
384.653 154.78 l
cl
gsave
0.000 0.000 1.000 setrgbcolor
fill
grestore
stroke
grestore
gsave
952.8 511.2 153.7 63.9 clipbox
394.277 63.9 m
403.805 63.9 l
403.805 154.78 l
394.277 154.78 l
cl
gsave
0.000 0.000 1.000 setrgbcolor
fill
grestore
stroke
grestore
gsave
952.8 511.2 153.7 63.9 clipbox
403.901 63.9 m
413.429 63.9 l
413.429 177.5 l
403.901 177.5 l
cl
gsave
0.000 0.000 1.000 setrgbcolor
fill
grestore
stroke
grestore
gsave
952.8 511.2 153.7 63.9 clipbox
413.525 63.9 m
423.053 63.9 l
423.053 143.42 l
413.525 143.42 l
cl
gsave
0.000 0.000 1.000 setrgbcolor
fill
grestore
stroke
grestore
gsave
952.8 511.2 153.7 63.9 clipbox
423.15 63.9 m
432.677 63.9 l
432.677 166.14 l
423.15 166.14 l
cl
gsave
0.000 0.000 1.000 setrgbcolor
fill
grestore
stroke
grestore
gsave
952.8 511.2 153.7 63.9 clipbox
432.774 63.9 m
442.301 63.9 l
442.301 188.86 l
432.774 188.86 l
cl
gsave
0.000 0.000 1.000 setrgbcolor
fill
grestore
stroke
grestore
gsave
952.8 511.2 153.7 63.9 clipbox
442.398 63.9 m
451.926 63.9 l
451.926 166.14 l
442.398 166.14 l
cl
gsave
0.000 0.000 1.000 setrgbcolor
fill
grestore
stroke
grestore
gsave
952.8 511.2 153.7 63.9 clipbox
452.022 63.9 m
461.55 63.9 l
461.55 200.22 l
452.022 200.22 l
cl
gsave
0.000 0.000 1.000 setrgbcolor
fill
grestore
stroke
grestore
gsave
952.8 511.2 153.7 63.9 clipbox
461.646 63.9 m
471.174 63.9 l
471.174 222.94 l
461.646 222.94 l
cl
gsave
0.000 0.000 1.000 setrgbcolor
fill
grestore
stroke
grestore
gsave
952.8 511.2 153.7 63.9 clipbox
471.27 63.9 m
480.798 63.9 l
480.798 211.58 l
471.27 211.58 l
cl
gsave
0.000 0.000 1.000 setrgbcolor
fill
grestore
stroke
grestore
gsave
952.8 511.2 153.7 63.9 clipbox
480.894 63.9 m
490.422 63.9 l
490.422 359.26 l
480.894 359.26 l
cl
gsave
0.000 0.000 1.000 setrgbcolor
fill
grestore
stroke
grestore
gsave
952.8 511.2 153.7 63.9 clipbox
490.518 63.9 m
500.046 63.9 l
500.046 222.94 l
490.518 222.94 l
cl
gsave
0.000 0.000 1.000 setrgbcolor
fill
grestore
stroke
grestore
gsave
952.8 511.2 153.7 63.9 clipbox
500.142 63.9 m
509.67 63.9 l
509.67 325.18 l
500.142 325.18 l
cl
gsave
0.000 0.000 1.000 setrgbcolor
fill
grestore
stroke
grestore
gsave
952.8 511.2 153.7 63.9 clipbox
509.766 63.9 m
519.294 63.9 l
519.294 234.3 l
509.766 234.3 l
cl
gsave
0.000 0.000 1.000 setrgbcolor
fill
grestore
stroke
grestore
gsave
952.8 511.2 153.7 63.9 clipbox
519.39 63.9 m
528.918 63.9 l
528.918 291.1 l
519.39 291.1 l
cl
gsave
0.000 0.000 1.000 setrgbcolor
fill
grestore
stroke
grestore
gsave
952.8 511.2 153.7 63.9 clipbox
529.015 63.9 m
538.542 63.9 l
538.542 347.9 l
529.015 347.9 l
cl
gsave
0.000 0.000 1.000 setrgbcolor
fill
grestore
stroke
grestore
gsave
952.8 511.2 153.7 63.9 clipbox
538.639 63.9 m
548.166 63.9 l
548.166 313.82 l
538.639 313.82 l
cl
gsave
0.000 0.000 1.000 setrgbcolor
fill
grestore
stroke
grestore
gsave
952.8 511.2 153.7 63.9 clipbox
548.263 63.9 m
557.791 63.9 l
557.791 291.1 l
548.263 291.1 l
cl
gsave
0.000 0.000 1.000 setrgbcolor
fill
grestore
stroke
grestore
gsave
952.8 511.2 153.7 63.9 clipbox
557.887 63.9 m
567.415 63.9 l
567.415 325.18 l
557.887 325.18 l
cl
gsave
0.000 0.000 1.000 setrgbcolor
fill
grestore
stroke
grestore
gsave
952.8 511.2 153.7 63.9 clipbox
567.511 63.9 m
577.039 63.9 l
577.039 302.46 l
567.511 302.46 l
cl
gsave
0.000 0.000 1.000 setrgbcolor
fill
grestore
stroke
grestore
gsave
952.8 511.2 153.7 63.9 clipbox
577.135 63.9 m
586.663 63.9 l
586.663 291.1 l
577.135 291.1 l
cl
gsave
0.000 0.000 1.000 setrgbcolor
fill
grestore
stroke
grestore
gsave
952.8 511.2 153.7 63.9 clipbox
586.759 63.9 m
596.287 63.9 l
596.287 313.82 l
586.759 313.82 l
cl
gsave
0.000 0.000 1.000 setrgbcolor
fill
grestore
stroke
grestore
gsave
952.8 511.2 153.7 63.9 clipbox
596.383 63.9 m
605.911 63.9 l
605.911 325.18 l
596.383 325.18 l
cl
gsave
0.000 0.000 1.000 setrgbcolor
fill
grestore
stroke
grestore
gsave
952.8 511.2 153.7 63.9 clipbox
606.007 63.9 m
615.535 63.9 l
615.535 291.1 l
606.007 291.1 l
cl
gsave
0.000 0.000 1.000 setrgbcolor
fill
grestore
stroke
grestore
gsave
952.8 511.2 153.7 63.9 clipbox
615.631 63.9 m
625.159 63.9 l
625.159 529.66 l
615.631 529.66 l
cl
gsave
0.000 0.000 1.000 setrgbcolor
fill
grestore
stroke
grestore
gsave
952.8 511.2 153.7 63.9 clipbox
625.255 63.9 m
634.783 63.9 l
634.783 336.54 l
625.255 336.54 l
cl
gsave
0.000 0.000 1.000 setrgbcolor
fill
grestore
stroke
grestore
gsave
952.8 511.2 153.7 63.9 clipbox
634.88 63.9 m
644.407 63.9 l
644.407 370.62 l
634.88 370.62 l
cl
gsave
0.000 0.000 1.000 setrgbcolor
fill
grestore
stroke
grestore
gsave
952.8 511.2 153.7 63.9 clipbox
644.504 63.9 m
654.031 63.9 l
654.031 279.74 l
644.504 279.74 l
cl
gsave
0.000 0.000 1.000 setrgbcolor
fill
grestore
stroke
grestore
gsave
952.8 511.2 153.7 63.9 clipbox
654.128 63.9 m
663.656 63.9 l
663.656 370.62 l
654.128 370.62 l
cl
gsave
0.000 0.000 1.000 setrgbcolor
fill
grestore
stroke
grestore
gsave
952.8 511.2 153.7 63.9 clipbox
663.752 63.9 m
673.28 63.9 l
673.28 393.34 l
663.752 393.34 l
cl
gsave
0.000 0.000 1.000 setrgbcolor
fill
grestore
stroke
grestore
gsave
952.8 511.2 153.7 63.9 clipbox
673.376 63.9 m
682.904 63.9 l
682.904 313.82 l
673.376 313.82 l
cl
gsave
0.000 0.000 1.000 setrgbcolor
fill
grestore
stroke
grestore
gsave
952.8 511.2 153.7 63.9 clipbox
683 63.9 m
692.528 63.9 l
692.528 302.46 l
683 302.46 l
cl
gsave
0.000 0.000 1.000 setrgbcolor
fill
grestore
stroke
grestore
gsave
952.8 511.2 153.7 63.9 clipbox
692.624 63.9 m
702.152 63.9 l
702.152 279.74 l
692.624 279.74 l
cl
gsave
0.000 0.000 1.000 setrgbcolor
fill
grestore
stroke
grestore
gsave
952.8 511.2 153.7 63.9 clipbox
702.248 63.9 m
711.776 63.9 l
711.776 302.46 l
702.248 302.46 l
cl
gsave
0.000 0.000 1.000 setrgbcolor
fill
grestore
stroke
grestore
gsave
952.8 511.2 153.7 63.9 clipbox
711.872 63.9 m
721.4 63.9 l
721.4 359.26 l
711.872 359.26 l
cl
gsave
0.000 0.000 1.000 setrgbcolor
fill
grestore
stroke
grestore
gsave
952.8 511.2 153.7 63.9 clipbox
721.496 63.9 m
731.024 63.9 l
731.024 313.82 l
721.496 313.82 l
cl
gsave
0.000 0.000 1.000 setrgbcolor
fill
grestore
stroke
grestore
gsave
952.8 511.2 153.7 63.9 clipbox
731.12 63.9 m
740.648 63.9 l
740.648 291.1 l
731.12 291.1 l
cl
gsave
0.000 0.000 1.000 setrgbcolor
fill
grestore
stroke
grestore
gsave
952.8 511.2 153.7 63.9 clipbox
740.745 63.9 m
750.272 63.9 l
750.272 222.94 l
740.745 222.94 l
cl
gsave
0.000 0.000 1.000 setrgbcolor
fill
grestore
stroke
grestore
gsave
952.8 511.2 153.7 63.9 clipbox
750.369 63.9 m
759.896 63.9 l
759.896 404.7 l
750.369 404.7 l
cl
gsave
0.000 0.000 1.000 setrgbcolor
fill
grestore
stroke
grestore
gsave
952.8 511.2 153.7 63.9 clipbox
759.993 63.9 m
769.521 63.9 l
769.521 245.66 l
759.993 245.66 l
cl
gsave
0.000 0.000 1.000 setrgbcolor
fill
grestore
stroke
grestore
gsave
952.8 511.2 153.7 63.9 clipbox
769.617 63.9 m
779.145 63.9 l
779.145 188.86 l
769.617 188.86 l
cl
gsave
0.000 0.000 1.000 setrgbcolor
fill
grestore
stroke
grestore
gsave
952.8 511.2 153.7 63.9 clipbox
779.241 63.9 m
788.769 63.9 l
788.769 222.94 l
779.241 222.94 l
cl
gsave
0.000 0.000 1.000 setrgbcolor
fill
grestore
stroke
grestore
gsave
952.8 511.2 153.7 63.9 clipbox
788.865 63.9 m
798.393 63.9 l
798.393 234.3 l
788.865 234.3 l
cl
gsave
0.000 0.000 1.000 setrgbcolor
fill
grestore
stroke
grestore
gsave
952.8 511.2 153.7 63.9 clipbox
798.489 63.9 m
808.017 63.9 l
808.017 234.3 l
798.489 234.3 l
cl
gsave
0.000 0.000 1.000 setrgbcolor
fill
grestore
stroke
grestore
gsave
952.8 511.2 153.7 63.9 clipbox
808.113 63.9 m
817.641 63.9 l
817.641 200.22 l
808.113 200.22 l
cl
gsave
0.000 0.000 1.000 setrgbcolor
fill
grestore
stroke
grestore
gsave
952.8 511.2 153.7 63.9 clipbox
817.737 63.9 m
827.265 63.9 l
827.265 154.78 l
817.737 154.78 l
cl
gsave
0.000 0.000 1.000 setrgbcolor
fill
grestore
stroke
grestore
gsave
952.8 511.2 153.7 63.9 clipbox
827.361 63.9 m
836.889 63.9 l
836.889 222.94 l
827.361 222.94 l
cl
gsave
0.000 0.000 1.000 setrgbcolor
fill
grestore
stroke
grestore
gsave
952.8 511.2 153.7 63.9 clipbox
836.985 63.9 m
846.513 63.9 l
846.513 154.78 l
836.985 154.78 l
cl
gsave
0.000 0.000 1.000 setrgbcolor
fill
grestore
stroke
grestore
gsave
952.8 511.2 153.7 63.9 clipbox
846.61 63.9 m
856.137 63.9 l
856.137 211.58 l
846.61 211.58 l
cl
gsave
0.000 0.000 1.000 setrgbcolor
fill
grestore
stroke
grestore
gsave
952.8 511.2 153.7 63.9 clipbox
856.234 63.9 m
865.761 63.9 l
865.761 132.06 l
856.234 132.06 l
cl
gsave
0.000 0.000 1.000 setrgbcolor
fill
grestore
stroke
grestore
gsave
952.8 511.2 153.7 63.9 clipbox
865.858 63.9 m
875.386 63.9 l
875.386 120.7 l
865.858 120.7 l
cl
gsave
0.000 0.000 1.000 setrgbcolor
fill
grestore
stroke
grestore
gsave
952.8 511.2 153.7 63.9 clipbox
875.482 63.9 m
885.01 63.9 l
885.01 75.26 l
875.482 75.26 l
cl
gsave
0.000 0.000 1.000 setrgbcolor
fill
grestore
stroke
grestore
gsave
952.8 511.2 153.7 63.9 clipbox
885.106 63.9 m
894.634 63.9 l
894.634 109.34 l
885.106 109.34 l
cl
gsave
0.000 0.000 1.000 setrgbcolor
fill
grestore
stroke
grestore
gsave
952.8 511.2 153.7 63.9 clipbox
894.73 63.9 m
904.258 63.9 l
904.258 143.42 l
894.73 143.42 l
cl
gsave
0.000 0.000 1.000 setrgbcolor
fill
grestore
stroke
grestore
gsave
952.8 511.2 153.7 63.9 clipbox
904.354 63.9 m
913.882 63.9 l
913.882 75.26 l
904.354 75.26 l
cl
gsave
0.000 0.000 1.000 setrgbcolor
fill
grestore
stroke
grestore
gsave
952.8 511.2 153.7 63.9 clipbox
913.978 63.9 m
923.506 63.9 l
923.506 120.7 l
913.978 120.7 l
cl
gsave
0.000 0.000 1.000 setrgbcolor
fill
grestore
stroke
grestore
gsave
952.8 511.2 153.7 63.9 clipbox
923.602 63.9 m
933.13 63.9 l
933.13 132.06 l
923.602 132.06 l
cl
gsave
0.000 0.000 1.000 setrgbcolor
fill
grestore
stroke
grestore
gsave
952.8 511.2 153.7 63.9 clipbox
933.226 63.9 m
942.754 63.9 l
942.754 109.34 l
933.226 109.34 l
cl
gsave
0.000 0.000 1.000 setrgbcolor
fill
grestore
stroke
grestore
gsave
952.8 511.2 153.7 63.9 clipbox
942.85 63.9 m
952.378 63.9 l
952.378 109.34 l
942.85 109.34 l
cl
gsave
0.000 0.000 1.000 setrgbcolor
fill
grestore
stroke
grestore
gsave
952.8 511.2 153.7 63.9 clipbox
952.475 63.9 m
962.002 63.9 l
962.002 109.34 l
952.475 109.34 l
cl
gsave
0.000 0.000 1.000 setrgbcolor
fill
grestore
stroke
grestore
gsave
952.8 511.2 153.7 63.9 clipbox
962.099 63.9 m
971.626 63.9 l
971.626 75.26 l
962.099 75.26 l
cl
gsave
0.000 0.000 1.000 setrgbcolor
fill
grestore
stroke
grestore
gsave
952.8 511.2 153.7 63.9 clipbox
971.723 63.9 m
981.251 63.9 l
981.251 120.7 l
971.723 120.7 l
cl
gsave
0.000 0.000 1.000 setrgbcolor
fill
grestore
stroke
grestore
gsave
952.8 511.2 153.7 63.9 clipbox
981.347 63.9 m
990.875 63.9 l
990.875 75.26 l
981.347 75.26 l
cl
gsave
0.000 0.000 1.000 setrgbcolor
fill
grestore
stroke
grestore
gsave
952.8 511.2 153.7 63.9 clipbox
990.971 63.9 m
1000.5 63.9 l
1000.5 63.9 l
990.971 63.9 l
cl
gsave
0.000 0.000 1.000 setrgbcolor
fill
grestore
stroke
grestore
gsave
952.8 511.2 153.7 63.9 clipbox
1000.59 63.9 m
1010.12 63.9 l
1010.12 75.26 l
1000.59 75.26 l
cl
gsave
0.000 0.000 1.000 setrgbcolor
fill
grestore
stroke
grestore
gsave
952.8 511.2 153.7 63.9 clipbox
1010.22 63.9 m
1019.75 63.9 l
1019.75 86.62 l
1010.22 86.62 l
cl
gsave
0.000 0.000 1.000 setrgbcolor
fill
grestore
stroke
grestore
gsave
952.8 511.2 153.7 63.9 clipbox
1019.84 63.9 m
1029.37 63.9 l
1029.37 75.26 l
1019.84 75.26 l
cl
gsave
0.000 0.000 1.000 setrgbcolor
fill
grestore
stroke
grestore
gsave
952.8 511.2 153.7 63.9 clipbox
1029.47 63.9 m
1039 63.9 l
1039 75.26 l
1029.47 75.26 l
cl
gsave
0.000 0.000 1.000 setrgbcolor
fill
grestore
stroke
grestore
gsave
952.8 511.2 153.7 63.9 clipbox
1039.09 63.9 m
1048.62 63.9 l
1048.62 63.9 l
1039.09 63.9 l
cl
gsave
0.000 0.000 1.000 setrgbcolor
fill
grestore
stroke
grestore
gsave
952.8 511.2 153.7 63.9 clipbox
1048.72 63.9 m
1058.24 63.9 l
1058.24 75.26 l
1048.72 75.26 l
cl
gsave
0.000 0.000 1.000 setrgbcolor
fill
grestore
stroke
grestore
gsave
952.8 511.2 153.7 63.9 clipbox
1058.34 63.9 m
1067.87 63.9 l
1067.87 63.9 l
1058.34 63.9 l
cl
gsave
0.000 0.000 1.000 setrgbcolor
fill
grestore
stroke
grestore
gsave
952.8 511.2 153.7 63.9 clipbox
1067.96 63.9 m
1077.49 63.9 l
1077.49 63.9 l
1067.96 63.9 l
cl
gsave
0.000 0.000 1.000 setrgbcolor
fill
grestore
stroke
grestore
gsave
952.8 511.2 153.7 63.9 clipbox
1077.59 63.9 m
1087.12 63.9 l
1087.12 63.9 l
1077.59 63.9 l
cl
gsave
0.000 0.000 1.000 setrgbcolor
fill
grestore
stroke
grestore
gsave
952.8 511.2 153.7 63.9 clipbox
1087.21 63.9 m
1096.74 63.9 l
1096.74 63.9 l
1087.21 63.9 l
cl
gsave
0.000 0.000 1.000 setrgbcolor
fill
grestore
stroke
grestore
gsave
952.8 511.2 153.7 63.9 clipbox
1096.84 63.9 m
1106.36 63.9 l
1106.36 63.9 l
1096.84 63.9 l
cl
gsave
0.000 0.000 1.000 setrgbcolor
fill
grestore
stroke
grestore
5.000 setlinewidth
[6 6] 0 setdash
gsave
952.8 511.2 153.7 63.9 clipbox
153.675 65.8508 m
163.299 66.2827 l
172.923 66.7983 l
182.547 67.4111 l
192.171 68.1362 l
201.795 68.9902 l
211.42 69.9915 l
221.044 71.16 l
230.668 72.5175 l
240.292 74.0872 l
249.916 75.8936 l
259.54 77.9629 l
269.164 80.3221 l
278.788 82.999 l
288.412 86.0217 l
298.036 89.4184 l
307.66 93.2169 l
317.285 97.4435 l
326.909 102.123 l
336.533 107.278 l
346.157 112.928 l
355.781 119.088 l
365.405 125.769 l
375.029 132.977 l
384.653 140.71 l
394.277 148.96 l
403.901 157.714 l
413.525 166.946 l
423.15 176.626 l
432.774 186.714 l
442.398 197.159 l
452.022 207.903 l
461.646 218.88 l
471.27 230.015 l
480.894 241.224 l
490.518 252.419 l
500.142 263.504 l
509.766 274.38 l
519.39 284.945 l
529.015 295.094 l
538.639 304.725 l
548.263 313.735 l
557.887 322.027 l
567.511 329.507 l
577.135 336.092 l
586.759 341.703 l
596.383 346.275 l
606.007 349.754 l
615.631 352.097 l
625.255 353.275 l
634.88 353.275 l
644.504 352.097 l
654.128 349.754 l
663.752 346.275 l
673.376 341.703 l
683 336.092 l
692.624 329.507 l
702.248 322.027 l
711.872 313.735 l
721.496 304.725 l
731.12 295.094 l
740.745 284.945 l
750.369 274.38 l
759.993 263.504 l
769.617 252.419 l
779.241 241.224 l
788.865 230.015 l
798.489 218.88 l
808.113 207.903 l
817.737 197.159 l
827.361 186.714 l
836.985 176.626 l
846.61 166.946 l
856.234 157.714 l
865.858 148.96 l
875.482 140.71 l
885.106 132.977 l
894.73 125.769 l
904.354 119.088 l
913.978 112.928 l
923.602 107.278 l
933.226 102.123 l
942.85 97.4435 l
952.475 93.2169 l
962.099 89.4184 l
971.723 86.0217 l
981.347 82.999 l
990.971 80.3221 l
1000.59 77.9629 l
1010.22 75.8936 l
1019.84 74.0872 l
1029.47 72.5175 l
1039.09 71.16 l
1048.72 69.9915 l
1058.34 68.9902 l
1067.96 68.1362 l
1077.59 67.4111 l
1087.21 66.7983 l
1096.84 66.2827 l
1106.46 65.8508 l
stroke
grestore
0.500 setlinewidth
[] 0 setdash
gsave
/o {
gsave
newpath
translate
0.5 setlinewidth
1 setlinejoin
0 setlinecap
0 0 m
0 4 l
gsave
0.000 setgray
fill
grestore
stroke
grestore
} bind def
153.675 63.9 o
grestore
gsave
/o {
gsave
newpath
translate
0.5 setlinewidth
1 setlinejoin
0 setlinecap
0 0 m
0 -4 l
gsave
0.000 setgray
fill
grestore
stroke
grestore
} bind def
153.675 575.1 o
grestore
/DejaVuSans findfont
20.000 scalefont
setfont
gsave
118.401562 44.696875 translate
0.000000 rotate
0.000000 0.000000 m /minus glyphshow
16.757812 0.000000 m /zero glyphshow
29.482422 0.000000 m /period glyphshow
35.839844 0.000000 m /zero glyphshow
48.564453 0.000000 m /one glyphshow
61.289062 0.000000 m /zero glyphshow
grestore
gsave
/o {
gsave
newpath
translate
0.5 setlinewidth
1 setlinejoin
0 setlinecap
0 0 m
0 4 l
gsave
0.000 setgray
fill
grestore
stroke
grestore
} bind def
391.871 63.9 o
grestore
gsave
/o {
gsave
newpath
translate
0.5 setlinewidth
1 setlinejoin
0 setlinecap
0 0 m
0 -4 l
gsave
0.000 setgray
fill
grestore
stroke
grestore
} bind def
391.871 575.1 o
grestore
gsave
356.800937 44.696875 translate
0.000000 rotate
0.000000 0.000000 m /minus glyphshow
16.757812 0.000000 m /zero glyphshow
29.482422 0.000000 m /period glyphshow
35.839844 0.000000 m /zero glyphshow
48.564453 0.000000 m /zero glyphshow
61.289062 0.000000 m /five glyphshow
grestore
gsave
/o {
gsave
newpath
translate
0.5 setlinewidth
1 setlinejoin
0 setlinecap
0 0 m
0 4 l
gsave
0.000 setgray
fill
grestore
stroke
grestore
} bind def
630.067 63.9 o
grestore
gsave
/o {
gsave
newpath
translate
0.5 setlinewidth
1 setlinejoin
0 setlinecap
0 0 m
0 -4 l
gsave
0.000 setgray
fill
grestore
stroke
grestore
} bind def
630.067 575.1 o
grestore
gsave
602.770625 44.696875 translate
0.000000 rotate
0.000000 0.000000 m /zero glyphshow
12.724609 0.000000 m /period glyphshow
19.082031 0.000000 m /zero glyphshow
31.806641 0.000000 m /zero glyphshow
44.531250 0.000000 m /zero glyphshow
grestore
gsave
/o {
gsave
newpath
translate
0.5 setlinewidth
1 setlinejoin
0 setlinecap
0 0 m
0 4 l
gsave
0.000 setgray
fill
grestore
stroke
grestore
} bind def
868.264 63.9 o
grestore
gsave
/o {
gsave
newpath
translate
0.5 setlinewidth
1 setlinejoin
0 setlinecap
0 0 m
0 -4 l
gsave
0.000 setgray
fill
grestore
stroke
grestore
} bind def
868.264 575.1 o
grestore
gsave
841.170000 44.696875 translate
0.000000 rotate
0.000000 0.000000 m /zero glyphshow
12.724609 0.000000 m /period glyphshow
19.082031 0.000000 m /zero glyphshow
31.806641 0.000000 m /zero glyphshow
44.531250 0.000000 m /five glyphshow
grestore
gsave
/o {
gsave
newpath
translate
0.5 setlinewidth
1 setlinejoin
0 setlinecap
0 0 m
0 4 l
gsave
0.000 setgray
fill
grestore
stroke
grestore
} bind def
1106.46 63.9 o
grestore
gsave
/o {
gsave
newpath
translate
0.5 setlinewidth
1 setlinejoin
0 setlinecap
0 0 m
0 -4 l
gsave
0.000 setgray
fill
grestore
stroke
grestore
} bind def
1106.46 575.1 o
grestore
gsave
1079.163125 44.696875 translate
0.000000 rotate
0.000000 0.000000 m /zero glyphshow
12.724609 0.000000 m /period glyphshow
19.082031 0.000000 m /zero glyphshow
31.806641 0.000000 m /one glyphshow
44.531250 0.000000 m /zero glyphshow
grestore
gsave
562.981562 20.337500 translate
0.000000 rotate
0.000000 0.000000 m /S glyphshow
12.695312 0.000000 m /a glyphshow
24.951172 0.000000 m /m glyphshow
44.433594 0.000000 m /p glyphshow
57.128906 0.000000 m /l glyphshow
62.685547 0.000000 m /e glyphshow
74.990234 0.000000 m /space glyphshow
81.347656 0.000000 m /M glyphshow
98.603516 0.000000 m /e glyphshow
110.908203 0.000000 m /a glyphshow
123.164062 0.000000 m /n glyphshow
grestore
gsave
/o {
gsave
newpath
translate
0.5 setlinewidth
1 setlinejoin
0 setlinecap
0 0 m
4 0 l
gsave
0.000 setgray
fill
grestore
stroke
grestore
} bind def
153.675 63.9 o
grestore
gsave
/o {
gsave
newpath
translate
0.5 setlinewidth
1 setlinejoin
0 setlinecap
0 0 m
-4 0 l
gsave
0.000 setgray
fill
grestore
stroke
grestore
} bind def
1106.46 63.9 o
grestore
gsave
139.596875 58.376562 translate
0.000000 rotate
0.000000 0.000000 m /zero glyphshow
grestore
gsave
/o {
gsave
newpath
translate
0.5 setlinewidth
1 setlinejoin
0 setlinecap
0 0 m
4 0 l
gsave
0.000 setgray
fill
grestore
stroke
grestore
} bind def
153.675 120.7 o
grestore
gsave
/o {
gsave
newpath
translate
0.5 setlinewidth
1 setlinejoin
0 setlinecap
0 0 m
-4 0 l
gsave
0.000 setgray
fill
grestore
stroke
grestore
} bind def
1106.46 120.7 o
grestore
gsave
140.237500 115.176562 translate
0.000000 rotate
0.000000 0.000000 m /five glyphshow
grestore
gsave
/o {
gsave
newpath
translate
0.5 setlinewidth
1 setlinejoin
0 setlinecap
0 0 m
4 0 l
gsave
0.000 setgray
fill
grestore
stroke
grestore
} bind def
153.675 177.5 o
grestore
gsave
/o {
gsave
newpath
translate
0.5 setlinewidth
1 setlinejoin
0 setlinecap
0 0 m
-4 0 l
gsave
0.000 setgray
fill
grestore
stroke
grestore
} bind def
1106.46 177.5 o
grestore
gsave
127.768750 171.976562 translate
0.000000 rotate
0.000000 0.000000 m /one glyphshow
12.724609 0.000000 m /zero glyphshow
grestore
gsave
/o {
gsave
newpath
translate
0.5 setlinewidth
1 setlinejoin
0 setlinecap
0 0 m
4 0 l
gsave
0.000 setgray
fill
grestore
stroke
grestore
} bind def
153.675 234.3 o
grestore
gsave
/o {
gsave
newpath
translate
0.5 setlinewidth
1 setlinejoin
0 setlinecap
0 0 m
-4 0 l
gsave
0.000 setgray
fill
grestore
stroke
grestore
} bind def
1106.46 234.3 o
grestore
gsave
128.175000 228.776562 translate
0.000000 rotate
0.000000 0.000000 m /one glyphshow
12.724609 0.000000 m /five glyphshow
grestore
gsave
/o {
gsave
newpath
translate
0.5 setlinewidth
1 setlinejoin
0 setlinecap
0 0 m
4 0 l
gsave
0.000 setgray
fill
grestore
stroke
grestore
} bind def
153.675 291.1 o
grestore
gsave
/o {
gsave
newpath
translate
0.5 setlinewidth
1 setlinejoin
0 setlinecap
0 0 m
-4 0 l
gsave
0.000 setgray
fill
grestore
stroke
grestore
} bind def
1106.46 291.1 o
grestore
gsave
127.034375 285.576563 translate
0.000000 rotate
0.000000 0.000000 m /two glyphshow
12.724609 0.000000 m /zero glyphshow
grestore
gsave
/o {
gsave
newpath
translate
0.5 setlinewidth
1 setlinejoin
0 setlinecap
0 0 m
4 0 l
gsave
0.000 setgray
fill
grestore
stroke
grestore
} bind def
153.675 347.9 o
grestore
gsave
/o {
gsave
newpath
translate
0.5 setlinewidth
1 setlinejoin
0 setlinecap
0 0 m
-4 0 l
gsave
0.000 setgray
fill
grestore
stroke
grestore
} bind def
1106.46 347.9 o
grestore
gsave
127.440625 342.376563 translate
0.000000 rotate
0.000000 0.000000 m /two glyphshow
12.724609 0.000000 m /five glyphshow
grestore
gsave
/o {
gsave
newpath
translate
0.5 setlinewidth
1 setlinejoin
0 setlinecap
0 0 m
4 0 l
gsave
0.000 setgray
fill
grestore
stroke
grestore
} bind def
153.675 404.7 o
grestore
gsave
/o {
gsave
newpath
translate
0.5 setlinewidth
1 setlinejoin
0 setlinecap
0 0 m
-4 0 l
gsave
0.000 setgray
fill
grestore
stroke
grestore
} bind def
1106.46 404.7 o
grestore
gsave
127.096875 399.176562 translate
0.000000 rotate
0.000000 0.000000 m /three glyphshow
12.724609 0.000000 m /zero glyphshow
grestore
gsave
/o {
gsave
newpath
translate
0.5 setlinewidth
1 setlinejoin
0 setlinecap
0 0 m
4 0 l
gsave
0.000 setgray
fill
grestore
stroke
grestore
} bind def
153.675 461.5 o
grestore
gsave
/o {
gsave
newpath
translate
0.5 setlinewidth
1 setlinejoin
0 setlinecap
0 0 m
-4 0 l
gsave
0.000 setgray
fill
grestore
stroke
grestore
} bind def
1106.46 461.5 o
grestore
gsave
127.503125 455.976562 translate
0.000000 rotate
0.000000 0.000000 m /three glyphshow
12.724609 0.000000 m /five glyphshow
grestore
gsave
/o {
gsave
newpath
translate
0.5 setlinewidth
1 setlinejoin
0 setlinecap
0 0 m
4 0 l
gsave
0.000 setgray
fill
grestore
stroke
grestore
} bind def
153.675 518.3 o
grestore
gsave
/o {
gsave
newpath
translate
0.5 setlinewidth
1 setlinejoin
0 setlinecap
0 0 m
-4 0 l
gsave
0.000 setgray
fill
grestore
stroke
grestore
} bind def
1106.46 518.3 o
grestore
gsave
126.550000 512.776563 translate
0.000000 rotate
0.000000 0.000000 m /four glyphshow
12.724609 0.000000 m /zero glyphshow
grestore
gsave
/o {
gsave
newpath
translate
0.5 setlinewidth
1 setlinejoin
0 setlinecap
0 0 m
4 0 l
gsave
0.000 setgray
fill
grestore
stroke
grestore
} bind def
153.675 575.1 o
grestore
gsave
/o {
gsave
newpath
translate
0.5 setlinewidth
1 setlinejoin
0 setlinecap
0 0 m
-4 0 l
gsave
0.000 setgray
fill
grestore
stroke
grestore
} bind def
1106.46 575.1 o
grestore
gsave
126.956250 569.576563 translate
0.000000 rotate
0.000000 0.000000 m /four glyphshow
12.724609 0.000000 m /five glyphshow
grestore
gsave
117.393750 269.171875 translate
90.000000 rotate
0.000000 0.000000 m /F glyphshow
10.003906 0.000000 m /r glyphshow
17.726562 0.000000 m /e glyphshow
30.031250 0.000000 m /q glyphshow
42.726562 0.000000 m /u glyphshow
55.402344 0.000000 m /e glyphshow
67.707031 0.000000 m /n glyphshow
80.382812 0.000000 m /c glyphshow
91.378906 0.000000 m /y glyphshow
grestore
1.000 setlinewidth
gsave
153.675 575.1 m
1106.46 575.1 l
stroke
grestore
gsave
1106.46 63.9 m
1106.46 575.1 l
stroke
grestore
gsave
153.675 63.9 m
1106.46 63.9 l
stroke
grestore
gsave
153.675 63.9 m
153.675 575.1 l
stroke
grestore

end
showpage
