%!PS-Adobe-3.0 EPSF-3.0
%%Title: /home/martin/git-repos/hendricks-course/assignments/assignment-1/latex/plots/CustomCubic-100kSamples.eps
%%Creator: matplotlib version 1.3.1, http://matplotlib.org/
%%CreationDate: Thu Sep 24 16:16:46 2015
%%Orientation: portrait
%%BoundingBox: -308 76 920 715
%%EndComments
%%BeginProlog
/mpldict 8 dict def
mpldict begin
/m { moveto } bind def
/l { lineto } bind def
/r { rlineto } bind def
/c { curveto } bind def
/cl { closepath } bind def
/box {
m
1 index 0 r
0 exch r
neg 0 r
cl
} bind def
/clipbox {
box
clip
newpath
} bind def
%!PS-Adobe-3.0 Resource-Font
%%Title: DejaVu Sans
%%Copyright: Copyright (c) 2003 by Bitstream, Inc. All Rights Reserved. Copyright (c) 2006 by Tavmjong Bah. All Rights Reserved. DejaVu changes are in public domain 
%%Creator: Converted from TrueType to type 3 by PPR
25 dict begin
/_d{bind def}bind def
/_m{moveto}_d
/_l{lineto}_d
/_cl{closepath eofill}_d
/_c{curveto}_d
/_sc{7 -1 roll{setcachedevice}{pop pop pop pop pop pop}ifelse}_d
/_e{exec}_d
/FontName /DejaVuSans def
/PaintType 0 def
/FontMatrix[.001 0 0 .001 0 0]def
/FontBBox[-1021 -415 1681 1167]def
/FontType 3 def
/Encoding [ /period /zero /one /two /three /four /five /six /N /a /e /l /m /p /s /x /minus ] def
/FontInfo 10 dict dup begin
/FamilyName (DejaVu Sans) def
/FullName (DejaVu Sans) def
/Notice (Copyright (c) 2003 by Bitstream, Inc. All Rights Reserved. Copyright (c) 2006 by Tavmjong Bah. All Rights Reserved. DejaVu changes are in public domain ) def
/Weight (Book) def
/Version (Version 2.34) def
/ItalicAngle 0.0 def
/isFixedPitch false def
/UnderlinePosition -130 def
/UnderlineThickness 90 def
end readonly def
/CharStrings 17 dict dup begin
/period{318 0 107 0 210 124 _sc
107 124 _m
210 124 _l
210 0 _l
107 0 _l
107 124 _l
_cl}_d
/zero{636 0 66 -13 570 742 _sc
318 664 _m
267 664 229 639 203 589 _c
177 539 165 464 165 364 _c
165 264 177 189 203 139 _c
229 89 267 64 318 64 _c
369 64 407 89 433 139 _c
458 189 471 264 471 364 _c
471 464 458 539 433 589 _c
407 639 369 664 318 664 _c
318 742 _m
399 742 461 709 505 645 _c
548 580 570 486 570 364 _c
570 241 548 147 505 83 _c
461 19 399 -13 318 -13 _c
236 -13 173 19 130 83 _c
87 147 66 241 66 364 _c
66 486 87 580 130 645 _c
173 709 236 742 318 742 _c
_cl}_d
/one{636 0 110 0 544 729 _sc
124 83 _m
285 83 _l
285 639 _l
110 604 _l
110 694 _l
284 729 _l
383 729 _l
383 83 _l
544 83 _l
544 0 _l
124 0 _l
124 83 _l
_cl}_d
/two{{636 0 73 0 536 742 _sc
192 83 _m
536 83 _l
536 0 _l
73 0 _l
73 83 _l
110 121 161 173 226 239 _c
290 304 331 346 348 365 _c
380 400 402 430 414 455 _c
426 479 433 504 433 528 _c
433 566 419 598 392 622 _c
365 646 330 659 286 659 _c
255 659 222 653 188 643 _c
154 632 117 616 78 594 _c
78 694 _l
118 710 155 722 189 730 _c
223 738 255 742 284 742 _c
}_e{359 742 419 723 464 685 _c
509 647 532 597 532 534 _c
532 504 526 475 515 449 _c
504 422 484 390 454 354 _c
446 344 420 317 376 272 _c
332 227 271 164 192 83 _c
_cl}_e}_d
/three{{636 0 76 -13 556 742 _sc
406 393 _m
453 383 490 362 516 330 _c
542 298 556 258 556 212 _c
556 140 531 84 482 45 _c
432 6 362 -13 271 -13 _c
240 -13 208 -10 176 -4 _c
144 1 110 10 76 22 _c
76 117 _l
103 101 133 89 166 81 _c
198 73 232 69 268 69 _c
330 69 377 81 409 105 _c
441 129 458 165 458 212 _c
458 254 443 288 413 312 _c
383 336 341 349 287 349 _c
}_e{202 349 _l
202 430 _l
291 430 _l
339 430 376 439 402 459 _c
428 478 441 506 441 543 _c
441 580 427 609 401 629 _c
374 649 336 659 287 659 _c
260 659 231 656 200 650 _c
169 644 135 635 98 623 _c
98 711 _l
135 721 170 729 203 734 _c
235 739 266 742 296 742 _c
370 742 429 725 473 691 _c
517 657 539 611 539 553 _c
539 513 527 479 504 451 _c
481 423 448 403 406 393 _c
_cl}_e}_d
/four{636 0 49 0 580 729 _sc
378 643 _m
129 254 _l
378 254 _l
378 643 _l
352 729 _m
476 729 _l
476 254 _l
580 254 _l
580 172 _l
476 172 _l
476 0 _l
378 0 _l
378 172 _l
49 172 _l
49 267 _l
352 729 _l
_cl}_d
/five{{636 0 77 -13 549 729 _sc
108 729 _m
495 729 _l
495 646 _l
198 646 _l
198 467 _l
212 472 227 476 241 478 _c
255 480 270 482 284 482 _c
365 482 429 459 477 415 _c
525 370 549 310 549 234 _c
549 155 524 94 475 51 _c
426 8 357 -13 269 -13 _c
238 -13 207 -10 175 -6 _c
143 -1 111 6 77 17 _c
77 116 _l
106 100 136 88 168 80 _c
199 72 232 69 267 69 _c
}_e{323 69 368 83 401 113 _c
433 143 450 183 450 234 _c
450 284 433 324 401 354 _c
368 384 323 399 267 399 _c
241 399 214 396 188 390 _c
162 384 135 375 108 363 _c
108 729 _l
_cl}_e}_d
/six{{636 0 70 -13 573 742 _sc
330 404 _m
286 404 251 388 225 358 _c
199 328 186 286 186 234 _c
186 181 199 139 225 109 _c
251 79 286 64 330 64 _c
374 64 409 79 435 109 _c
461 139 474 181 474 234 _c
474 286 461 328 435 358 _c
409 388 374 404 330 404 _c
526 713 _m
526 623 _l
501 635 476 644 451 650 _c
425 656 400 659 376 659 _c
310 659 260 637 226 593 _c
}_e{192 549 172 482 168 394 _c
187 422 211 444 240 459 _c
269 474 301 482 336 482 _c
409 482 467 459 509 415 _c
551 371 573 310 573 234 _c
573 159 550 99 506 54 _c
462 9 403 -13 330 -13 _c
246 -13 181 19 137 83 _c
92 147 70 241 70 364 _c
70 479 97 571 152 639 _c
206 707 280 742 372 742 _c
396 742 421 739 447 735 _c
472 730 498 723 526 713 _c
_cl}_e}_d
/N{748 0 98 0 650 729 _sc
98 729 _m
231 729 _l
554 119 _l
554 729 _l
650 729 _l
650 0 _l
517 0 _l
194 610 _l
194 0 _l
98 0 _l
98 729 _l
_cl}_d
/a{{613 0 60 -13 522 560 _sc
343 275 _m
270 275 220 266 192 250 _c
164 233 150 205 150 165 _c
150 133 160 107 181 89 _c
202 70 231 61 267 61 _c
317 61 357 78 387 114 _c
417 149 432 196 432 255 _c
432 275 _l
343 275 _l
522 312 _m
522 0 _l
432 0 _l
432 83 _l
411 49 385 25 355 10 _c
325 -5 287 -13 243 -13 _c
187 -13 142 2 109 33 _c
76 64 60 106 60 159 _c
}_e{60 220 80 266 122 298 _c
163 329 224 345 306 345 _c
432 345 _l
432 354 _l
432 395 418 427 391 450 _c
364 472 326 484 277 484 _c
245 484 215 480 185 472 _c
155 464 127 453 100 439 _c
100 522 _l
132 534 164 544 195 550 _c
226 556 256 560 286 560 _c
365 560 424 539 463 498 _c
502 457 522 395 522 312 _c
_cl}_e}_d
/e{{615 0 55 -13 562 560 _sc
562 296 _m
562 252 _l
149 252 _l
153 190 171 142 205 110 _c
238 78 284 62 344 62 _c
378 62 412 66 444 74 _c
476 82 509 95 541 113 _c
541 28 _l
509 14 476 3 442 -3 _c
408 -9 373 -13 339 -13 _c
251 -13 182 12 131 62 _c
80 112 55 181 55 268 _c
55 357 79 428 127 481 _c
175 533 241 560 323 560 _c
397 560 455 536 498 489 _c
}_e{540 441 562 377 562 296 _c
472 322 _m
471 371 457 410 431 440 _c
404 469 368 484 324 484 _c
274 484 234 469 204 441 _c
174 413 156 373 152 322 _c
472 322 _l
_cl}_e}_d
/l{278 0 94 0 184 760 _sc
94 760 _m
184 760 _l
184 0 _l
94 0 _l
94 760 _l
_cl}_d
/m{{974 0 91 0 889 560 _sc
520 442 _m
542 482 569 511 600 531 _c
631 550 668 560 711 560 _c
767 560 811 540 842 500 _c
873 460 889 403 889 330 _c
889 0 _l
799 0 _l
799 327 _l
799 379 789 418 771 444 _c
752 469 724 482 686 482 _c
639 482 602 466 575 435 _c
548 404 535 362 535 309 _c
535 0 _l
445 0 _l
445 327 _l
445 379 435 418 417 444 _c
398 469 369 482 331 482 _c
}_e{285 482 248 466 221 435 _c
194 404 181 362 181 309 _c
181 0 _l
91 0 _l
91 547 _l
181 547 _l
181 462 _l
201 495 226 520 255 536 _c
283 552 317 560 357 560 _c
397 560 430 550 458 530 _c
486 510 506 480 520 442 _c
_cl}_e}_d
/p{{635 0 91 -207 580 560 _sc
181 82 _m
181 -207 _l
91 -207 _l
91 547 _l
181 547 _l
181 464 _l
199 496 223 520 252 536 _c
281 552 316 560 356 560 _c
422 560 476 533 518 481 _c
559 428 580 359 580 273 _c
580 187 559 117 518 65 _c
476 13 422 -13 356 -13 _c
316 -13 281 -5 252 10 _c
223 25 199 49 181 82 _c
487 273 _m
487 339 473 390 446 428 _c
418 466 381 485 334 485 _c
}_e{286 485 249 466 222 428 _c
194 390 181 339 181 273 _c
181 207 194 155 222 117 _c
249 79 286 61 334 61 _c
381 61 418 79 446 117 _c
473 155 487 207 487 273 _c
_cl}_e}_d
/s{{521 0 54 -13 472 560 _sc
443 531 _m
443 446 _l
417 458 391 468 364 475 _c
336 481 308 485 279 485 _c
234 485 200 478 178 464 _c
156 450 145 430 145 403 _c
145 382 153 366 169 354 _c
185 342 217 330 265 320 _c
296 313 _l
360 299 405 279 432 255 _c
458 230 472 195 472 151 _c
472 100 452 60 412 31 _c
372 1 316 -13 246 -13 _c
216 -13 186 -10 154 -5 _c
}_e{122 0 89 8 54 20 _c
54 113 _l
87 95 120 82 152 74 _c
184 65 216 61 248 61 _c
290 61 323 68 346 82 _c
368 96 380 117 380 144 _c
380 168 371 187 355 200 _c
339 213 303 226 247 238 _c
216 245 _l
160 257 119 275 95 299 _c
70 323 58 356 58 399 _c
58 450 76 490 112 518 _c
148 546 200 560 268 560 _c
301 560 332 557 362 552 _c
391 547 418 540 443 531 _c
}_e{_cl}_e}_d
/x{592 0 29 0 559 547 _sc
549 547 _m
351 281 _l
559 0 _l
453 0 _l
294 215 _l
135 0 _l
29 0 _l
241 286 _l
47 547 _l
153 547 _l
298 352 _l
443 547 _l
549 547 _l
_cl}_d
/minus{838 0 106 272 732 355 _sc
106 355 _m
732 355 _l
732 272 _l
106 272 _l
106 355 _l
_cl}_d
end readonly def

/BuildGlyph
 {exch begin
 CharStrings exch
 2 copy known not{pop /.notdef}if
 true 3 1 roll get exec
 end}_d

/BuildChar {
 1 index /Encoding get exch get
 1 index /BuildGlyph get exec
}_d

FontName currentdict end definefont pop
end
%%EndProlog
mpldict begin
-308.7 76.5 translate
1229.4 639 0 0 clipbox
gsave
0 0 m
1229.4 0 l
1229.4 639 l
0 639 l
cl
1.000 setgray
fill
grestore
gsave
153.675 63.9 m
1106.46 63.9 l
1106.46 575.1 l
153.675 575.1 l
cl
1.000 setgray
fill
grestore
1.000 setlinewidth
1 setlinejoin
0 setlinecap
[] 0 setdash
0.000 setgray
gsave
952.8 511.2 153.7 63.9 clipbox
153.675 63.9 m
163.203 63.9 l
163.203 504.81 l
153.675 504.81 l
cl
gsave
0.000 0.000 1.000 setrgbcolor
fill
grestore
stroke
grestore
gsave
952.8 511.2 153.7 63.9 clipbox
163.299 63.9 m
172.827 63.9 l
172.827 490.922 l
163.299 490.922 l
cl
gsave
0.000 0.000 1.000 setrgbcolor
fill
grestore
stroke
grestore
gsave
952.8 511.2 153.7 63.9 clipbox
172.923 63.9 m
182.451 63.9 l
182.451 454.286 l
172.923 454.286 l
cl
gsave
0.000 0.000 1.000 setrgbcolor
fill
grestore
stroke
grestore
gsave
952.8 511.2 153.7 63.9 clipbox
182.547 63.9 m
192.075 63.9 l
192.075 427.789 l
182.547 427.789 l
cl
gsave
0.000 0.000 1.000 setrgbcolor
fill
grestore
stroke
grestore
gsave
952.8 511.2 153.7 63.9 clipbox
192.171 63.9 m
201.699 63.9 l
201.699 405.552 l
192.171 405.552 l
cl
gsave
0.000 0.000 1.000 setrgbcolor
fill
grestore
stroke
grestore
gsave
952.8 511.2 153.7 63.9 clipbox
201.795 63.9 m
211.323 63.9 l
211.323 386.041 l
201.795 386.041 l
cl
gsave
0.000 0.000 1.000 setrgbcolor
fill
grestore
stroke
grestore
gsave
952.8 511.2 153.7 63.9 clipbox
211.42 63.9 m
220.947 63.9 l
220.947 349.831 l
211.42 349.831 l
cl
gsave
0.000 0.000 1.000 setrgbcolor
fill
grestore
stroke
grestore
gsave
952.8 511.2 153.7 63.9 clipbox
221.044 63.9 m
230.571 63.9 l
230.571 339.266 l
221.044 339.266 l
cl
gsave
0.000 0.000 1.000 setrgbcolor
fill
grestore
stroke
grestore
gsave
952.8 511.2 153.7 63.9 clipbox
230.668 63.9 m
240.196 63.9 l
240.196 320.096 l
230.668 320.096 l
cl
gsave
0.000 0.000 1.000 setrgbcolor
fill
grestore
stroke
grestore
gsave
952.8 511.2 153.7 63.9 clipbox
240.292 63.9 m
249.82 63.9 l
249.82 298.541 l
240.292 298.541 l
cl
gsave
0.000 0.000 1.000 setrgbcolor
fill
grestore
stroke
grestore
gsave
952.8 511.2 153.7 63.9 clipbox
249.916 63.9 m
259.444 63.9 l
259.444 290.276 l
249.916 290.276 l
cl
gsave
0.000 0.000 1.000 setrgbcolor
fill
grestore
stroke
grestore
gsave
952.8 511.2 153.7 63.9 clipbox
259.54 63.9 m
269.068 63.9 l
269.068 272.044 l
259.54 272.044 l
cl
gsave
0.000 0.000 1.000 setrgbcolor
fill
grestore
stroke
grestore
gsave
952.8 511.2 153.7 63.9 clipbox
269.164 63.9 m
278.692 63.9 l
278.692 255.089 l
269.164 255.089 l
cl
gsave
0.000 0.000 1.000 setrgbcolor
fill
grestore
stroke
grestore
gsave
952.8 511.2 153.7 63.9 clipbox
278.788 63.9 m
288.316 63.9 l
288.316 235.834 l
278.788 235.834 l
cl
gsave
0.000 0.000 1.000 setrgbcolor
fill
grestore
stroke
grestore
gsave
952.8 511.2 153.7 63.9 clipbox
288.412 63.9 m
297.94 63.9 l
297.94 220.753 l
288.412 220.753 l
cl
gsave
0.000 0.000 1.000 setrgbcolor
fill
grestore
stroke
grestore
gsave
952.8 511.2 153.7 63.9 clipbox
298.036 63.9 m
307.564 63.9 l
307.564 210.614 l
298.036 210.614 l
cl
gsave
0.000 0.000 1.000 setrgbcolor
fill
grestore
stroke
grestore
gsave
952.8 511.2 153.7 63.9 clipbox
307.66 63.9 m
317.188 63.9 l
317.188 192.382 l
307.66 192.382 l
cl
gsave
0.000 0.000 1.000 setrgbcolor
fill
grestore
stroke
grestore
gsave
952.8 511.2 153.7 63.9 clipbox
317.285 63.9 m
326.812 63.9 l
326.812 180.624 l
317.285 180.624 l
cl
gsave
0.000 0.000 1.000 setrgbcolor
fill
grestore
stroke
grestore
gsave
952.8 511.2 153.7 63.9 clipbox
326.909 63.9 m
336.436 63.9 l
336.436 173.041 l
326.909 173.041 l
cl
gsave
0.000 0.000 1.000 setrgbcolor
fill
grestore
stroke
grestore
gsave
952.8 511.2 153.7 63.9 clipbox
336.533 63.9 m
346.061 63.9 l
346.061 162.732 l
336.533 162.732 l
cl
gsave
0.000 0.000 1.000 setrgbcolor
fill
grestore
stroke
grestore
gsave
952.8 511.2 153.7 63.9 clipbox
346.157 63.9 m
355.685 63.9 l
355.685 153.019 l
346.157 153.019 l
cl
gsave
0.000 0.000 1.000 setrgbcolor
fill
grestore
stroke
grestore
gsave
952.8 511.2 153.7 63.9 clipbox
355.781 63.9 m
365.309 63.9 l
365.309 141.858 l
355.781 141.858 l
cl
gsave
0.000 0.000 1.000 setrgbcolor
fill
grestore
stroke
grestore
gsave
952.8 511.2 153.7 63.9 clipbox
365.405 63.9 m
374.933 63.9 l
374.933 127.374 l
365.405 127.374 l
cl
gsave
0.000 0.000 1.000 setrgbcolor
fill
grestore
stroke
grestore
gsave
952.8 511.2 153.7 63.9 clipbox
375.029 63.9 m
384.557 63.9 l
384.557 121.751 l
375.029 121.751 l
cl
gsave
0.000 0.000 1.000 setrgbcolor
fill
grestore
stroke
grestore
gsave
952.8 511.2 153.7 63.9 clipbox
384.653 63.9 m
394.181 63.9 l
394.181 117.746 l
384.653 117.746 l
cl
gsave
0.000 0.000 1.000 setrgbcolor
fill
grestore
stroke
grestore
gsave
952.8 511.2 153.7 63.9 clipbox
394.277 63.9 m
403.805 63.9 l
403.805 106.33 l
394.277 106.33 l
cl
gsave
0.000 0.000 1.000 setrgbcolor
fill
grestore
stroke
grestore
gsave
952.8 511.2 153.7 63.9 clipbox
403.901 63.9 m
413.429 63.9 l
413.429 99.0876 l
403.901 99.0876 l
cl
gsave
0.000 0.000 1.000 setrgbcolor
fill
grestore
stroke
grestore
gsave
952.8 511.2 153.7 63.9 clipbox
413.525 63.9 m
423.053 63.9 l
423.053 93.294 l
413.525 93.294 l
cl
gsave
0.000 0.000 1.000 setrgbcolor
fill
grestore
stroke
grestore
gsave
952.8 511.2 153.7 63.9 clipbox
423.15 63.9 m
432.677 63.9 l
432.677 88.8636 l
423.15 88.8636 l
cl
gsave
0.000 0.000 1.000 setrgbcolor
fill
grestore
stroke
grestore
gsave
952.8 511.2 153.7 63.9 clipbox
432.774 63.9 m
442.301 63.9 l
442.301 85.3704 l
432.774 85.3704 l
cl
gsave
0.000 0.000 1.000 setrgbcolor
fill
grestore
stroke
grestore
gsave
952.8 511.2 153.7 63.9 clipbox
442.398 63.9 m
451.926 63.9 l
451.926 79.0656 l
442.398 79.0656 l
cl
gsave
0.000 0.000 1.000 setrgbcolor
fill
grestore
stroke
grestore
gsave
952.8 511.2 153.7 63.9 clipbox
452.022 63.9 m
461.55 63.9 l
461.55 75.9132 l
452.022 75.9132 l
cl
gsave
0.000 0.000 1.000 setrgbcolor
fill
grestore
stroke
grestore
gsave
952.8 511.2 153.7 63.9 clipbox
461.646 63.9 m
471.174 63.9 l
471.174 72.7608 l
461.646 72.7608 l
cl
gsave
0.000 0.000 1.000 setrgbcolor
fill
grestore
stroke
grestore
gsave
952.8 511.2 153.7 63.9 clipbox
471.27 63.9 m
480.798 63.9 l
480.798 70.3752 l
471.27 70.3752 l
cl
gsave
0.000 0.000 1.000 setrgbcolor
fill
grestore
stroke
grestore
gsave
952.8 511.2 153.7 63.9 clipbox
480.894 63.9 m
490.422 63.9 l
490.422 68.586 l
480.894 68.586 l
cl
gsave
0.000 0.000 1.000 setrgbcolor
fill
grestore
stroke
grestore
gsave
952.8 511.2 153.7 63.9 clipbox
490.518 63.9 m
500.046 63.9 l
500.046 66.7116 l
490.518 66.7116 l
cl
gsave
0.000 0.000 1.000 setrgbcolor
fill
grestore
stroke
grestore
gsave
952.8 511.2 153.7 63.9 clipbox
500.142 63.9 m
509.67 63.9 l
509.67 65.0928 l
500.142 65.0928 l
cl
gsave
0.000 0.000 1.000 setrgbcolor
fill
grestore
stroke
grestore
gsave
952.8 511.2 153.7 63.9 clipbox
509.766 63.9 m
519.294 63.9 l
519.294 64.5816 l
509.766 64.5816 l
cl
gsave
0.000 0.000 1.000 setrgbcolor
fill
grestore
stroke
grestore
gsave
952.8 511.2 153.7 63.9 clipbox
519.39 63.9 m
528.918 63.9 l
528.918 64.1556 l
519.39 64.1556 l
cl
gsave
0.000 0.000 1.000 setrgbcolor
fill
grestore
stroke
grestore
gsave
952.8 511.2 153.7 63.9 clipbox
529.015 63.9 m
538.542 63.9 l
538.542 63.9 l
529.015 63.9 l
cl
gsave
0.000 0.000 1.000 setrgbcolor
fill
grestore
stroke
grestore
gsave
952.8 511.2 153.7 63.9 clipbox
538.639 63.9 m
548.166 63.9 l
548.166 63.9852 l
538.639 63.9852 l
cl
gsave
0.000 0.000 1.000 setrgbcolor
fill
grestore
stroke
grestore
gsave
952.8 511.2 153.7 63.9 clipbox
548.263 63.9 m
557.791 63.9 l
557.791 64.752 l
548.263 64.752 l
cl
gsave
0.000 0.000 1.000 setrgbcolor
fill
grestore
stroke
grestore
gsave
952.8 511.2 153.7 63.9 clipbox
557.887 63.9 m
567.415 63.9 l
567.415 65.5188 l
557.887 65.5188 l
cl
gsave
0.000 0.000 1.000 setrgbcolor
fill
grestore
stroke
grestore
gsave
952.8 511.2 153.7 63.9 clipbox
567.511 63.9 m
577.039 63.9 l
577.039 66.3708 l
567.511 66.3708 l
cl
gsave
0.000 0.000 1.000 setrgbcolor
fill
grestore
stroke
grestore
gsave
952.8 511.2 153.7 63.9 clipbox
577.135 63.9 m
586.663 63.9 l
586.663 68.4156 l
577.135 68.4156 l
cl
gsave
0.000 0.000 1.000 setrgbcolor
fill
grestore
stroke
grestore
gsave
952.8 511.2 153.7 63.9 clipbox
586.759 63.9 m
596.287 63.9 l
596.287 69.1824 l
586.759 69.1824 l
cl
gsave
0.000 0.000 1.000 setrgbcolor
fill
grestore
stroke
grestore
gsave
952.8 511.2 153.7 63.9 clipbox
596.383 63.9 m
605.911 63.9 l
605.911 72.9312 l
596.383 72.9312 l
cl
gsave
0.000 0.000 1.000 setrgbcolor
fill
grestore
stroke
grestore
gsave
952.8 511.2 153.7 63.9 clipbox
606.007 63.9 m
615.535 63.9 l
615.535 73.8684 l
606.007 73.8684 l
cl
gsave
0.000 0.000 1.000 setrgbcolor
fill
grestore
stroke
grestore
gsave
952.8 511.2 153.7 63.9 clipbox
615.631 63.9 m
625.159 63.9 l
625.159 74.7204 l
615.631 74.7204 l
cl
gsave
0.000 0.000 1.000 setrgbcolor
fill
grestore
stroke
grestore
gsave
952.8 511.2 153.7 63.9 clipbox
625.255 63.9 m
634.783 63.9 l
634.783 77.106 l
625.255 77.106 l
cl
gsave
0.000 0.000 1.000 setrgbcolor
fill
grestore
stroke
grestore
gsave
952.8 511.2 153.7 63.9 clipbox
634.88 63.9 m
644.407 63.9 l
644.407 83.07 l
634.88 83.07 l
cl
gsave
0.000 0.000 1.000 setrgbcolor
fill
grestore
stroke
grestore
gsave
952.8 511.2 153.7 63.9 clipbox
644.504 63.9 m
654.031 63.9 l
654.031 83.8368 l
644.504 83.8368 l
cl
gsave
0.000 0.000 1.000 setrgbcolor
fill
grestore
stroke
grestore
gsave
952.8 511.2 153.7 63.9 clipbox
654.128 63.9 m
663.656 63.9 l
663.656 88.9488 l
654.128 88.9488 l
cl
gsave
0.000 0.000 1.000 setrgbcolor
fill
grestore
stroke
grestore
gsave
952.8 511.2 153.7 63.9 clipbox
663.752 63.9 m
673.28 63.9 l
673.28 93.5496 l
663.752 93.5496 l
cl
gsave
0.000 0.000 1.000 setrgbcolor
fill
grestore
stroke
grestore
gsave
952.8 511.2 153.7 63.9 clipbox
673.376 63.9 m
682.904 63.9 l
682.904 91.9308 l
673.376 91.9308 l
cl
gsave
0.000 0.000 1.000 setrgbcolor
fill
grestore
stroke
grestore
gsave
952.8 511.2 153.7 63.9 clipbox
683 63.9 m
692.528 63.9 l
692.528 97.8948 l
683 97.8948 l
cl
gsave
0.000 0.000 1.000 setrgbcolor
fill
grestore
stroke
grestore
gsave
952.8 511.2 153.7 63.9 clipbox
692.624 63.9 m
702.152 63.9 l
702.152 99.4284 l
692.624 99.4284 l
cl
gsave
0.000 0.000 1.000 setrgbcolor
fill
grestore
stroke
grestore
gsave
952.8 511.2 153.7 63.9 clipbox
702.248 63.9 m
711.776 63.9 l
711.776 106.159 l
702.248 106.159 l
cl
gsave
0.000 0.000 1.000 setrgbcolor
fill
grestore
stroke
grestore
gsave
952.8 511.2 153.7 63.9 clipbox
711.872 63.9 m
721.4 63.9 l
721.4 106.67 l
711.872 106.67 l
cl
gsave
0.000 0.000 1.000 setrgbcolor
fill
grestore
stroke
grestore
gsave
952.8 511.2 153.7 63.9 clipbox
721.496 63.9 m
731.024 63.9 l
731.024 107.352 l
721.496 107.352 l
cl
gsave
0.000 0.000 1.000 setrgbcolor
fill
grestore
stroke
grestore
gsave
952.8 511.2 153.7 63.9 clipbox
731.12 63.9 m
740.648 63.9 l
740.648 110.504 l
731.12 110.504 l
cl
gsave
0.000 0.000 1.000 setrgbcolor
fill
grestore
stroke
grestore
gsave
952.8 511.2 153.7 63.9 clipbox
740.745 63.9 m
750.272 63.9 l
750.272 118.087 l
740.745 118.087 l
cl
gsave
0.000 0.000 1.000 setrgbcolor
fill
grestore
stroke
grestore
gsave
952.8 511.2 153.7 63.9 clipbox
750.369 63.9 m
759.896 63.9 l
759.896 119.876 l
750.369 119.876 l
cl
gsave
0.000 0.000 1.000 setrgbcolor
fill
grestore
stroke
grestore
gsave
952.8 511.2 153.7 63.9 clipbox
759.993 63.9 m
769.521 63.9 l
769.521 124.903 l
759.993 124.903 l
cl
gsave
0.000 0.000 1.000 setrgbcolor
fill
grestore
stroke
grestore
gsave
952.8 511.2 153.7 63.9 clipbox
769.617 63.9 m
779.145 63.9 l
779.145 128.396 l
769.617 128.396 l
cl
gsave
0.000 0.000 1.000 setrgbcolor
fill
grestore
stroke
grestore
gsave
952.8 511.2 153.7 63.9 clipbox
779.241 63.9 m
788.769 63.9 l
788.769 128.652 l
779.241 128.652 l
cl
gsave
0.000 0.000 1.000 setrgbcolor
fill
grestore
stroke
grestore
gsave
952.8 511.2 153.7 63.9 clipbox
788.865 63.9 m
798.393 63.9 l
798.393 132.827 l
788.865 132.827 l
cl
gsave
0.000 0.000 1.000 setrgbcolor
fill
grestore
stroke
grestore
gsave
952.8 511.2 153.7 63.9 clipbox
798.489 63.9 m
808.017 63.9 l
808.017 139.302 l
798.489 139.302 l
cl
gsave
0.000 0.000 1.000 setrgbcolor
fill
grestore
stroke
grestore
gsave
952.8 511.2 153.7 63.9 clipbox
808.113 63.9 m
817.641 63.9 l
817.641 141.602 l
808.113 141.602 l
cl
gsave
0.000 0.000 1.000 setrgbcolor
fill
grestore
stroke
grestore
gsave
952.8 511.2 153.7 63.9 clipbox
817.737 63.9 m
827.265 63.9 l
827.265 141.262 l
817.737 141.262 l
cl
gsave
0.000 0.000 1.000 setrgbcolor
fill
grestore
stroke
grestore
gsave
952.8 511.2 153.7 63.9 clipbox
827.361 63.9 m
836.889 63.9 l
836.889 146.97 l
827.361 146.97 l
cl
gsave
0.000 0.000 1.000 setrgbcolor
fill
grestore
stroke
grestore
gsave
952.8 511.2 153.7 63.9 clipbox
836.985 63.9 m
846.513 63.9 l
846.513 144.414 l
836.985 144.414 l
cl
gsave
0.000 0.000 1.000 setrgbcolor
fill
grestore
stroke
grestore
gsave
952.8 511.2 153.7 63.9 clipbox
846.61 63.9 m
856.137 63.9 l
856.137 146.118 l
846.61 146.118 l
cl
gsave
0.000 0.000 1.000 setrgbcolor
fill
grestore
stroke
grestore
gsave
952.8 511.2 153.7 63.9 clipbox
856.234 63.9 m
865.761 63.9 l
865.761 150.208 l
856.234 150.208 l
cl
gsave
0.000 0.000 1.000 setrgbcolor
fill
grestore
stroke
grestore
gsave
952.8 511.2 153.7 63.9 clipbox
865.858 63.9 m
875.386 63.9 l
875.386 146.8 l
865.858 146.8 l
cl
gsave
0.000 0.000 1.000 setrgbcolor
fill
grestore
stroke
grestore
gsave
952.8 511.2 153.7 63.9 clipbox
875.482 63.9 m
885.01 63.9 l
885.01 152.252 l
875.482 152.252 l
cl
gsave
0.000 0.000 1.000 setrgbcolor
fill
grestore
stroke
grestore
gsave
952.8 511.2 153.7 63.9 clipbox
885.106 63.9 m
894.634 63.9 l
894.634 157.194 l
885.106 157.194 l
cl
gsave
0.000 0.000 1.000 setrgbcolor
fill
grestore
stroke
grestore
gsave
952.8 511.2 153.7 63.9 clipbox
894.73 63.9 m
904.258 63.9 l
904.258 153.871 l
894.73 153.871 l
cl
gsave
0.000 0.000 1.000 setrgbcolor
fill
grestore
stroke
grestore
gsave
952.8 511.2 153.7 63.9 clipbox
904.354 63.9 m
913.882 63.9 l
913.882 153.36 l
904.354 153.36 l
cl
gsave
0.000 0.000 1.000 setrgbcolor
fill
grestore
stroke
grestore
gsave
952.8 511.2 153.7 63.9 clipbox
913.978 63.9 m
923.506 63.9 l
923.506 157.62 l
913.978 157.62 l
cl
gsave
0.000 0.000 1.000 setrgbcolor
fill
grestore
stroke
grestore
gsave
952.8 511.2 153.7 63.9 clipbox
923.602 63.9 m
933.13 63.9 l
933.13 153.36 l
923.602 153.36 l
cl
gsave
0.000 0.000 1.000 setrgbcolor
fill
grestore
stroke
grestore
gsave
952.8 511.2 153.7 63.9 clipbox
933.226 63.9 m
942.754 63.9 l
942.754 158.387 l
933.226 158.387 l
cl
gsave
0.000 0.000 1.000 setrgbcolor
fill
grestore
stroke
grestore
gsave
952.8 511.2 153.7 63.9 clipbox
942.85 63.9 m
952.378 63.9 l
952.378 158.557 l
942.85 158.557 l
cl
gsave
0.000 0.000 1.000 setrgbcolor
fill
grestore
stroke
grestore
gsave
952.8 511.2 153.7 63.9 clipbox
952.475 63.9 m
962.002 63.9 l
962.002 153.701 l
952.475 153.701 l
cl
gsave
0.000 0.000 1.000 setrgbcolor
fill
grestore
stroke
grestore
gsave
952.8 511.2 153.7 63.9 clipbox
962.099 63.9 m
971.626 63.9 l
971.626 153.19 l
962.099 153.19 l
cl
gsave
0.000 0.000 1.000 setrgbcolor
fill
grestore
stroke
grestore
gsave
952.8 511.2 153.7 63.9 clipbox
971.723 63.9 m
981.251 63.9 l
981.251 147.14 l
971.723 147.14 l
cl
gsave
0.000 0.000 1.000 setrgbcolor
fill
grestore
stroke
grestore
gsave
952.8 511.2 153.7 63.9 clipbox
981.347 63.9 m
990.875 63.9 l
990.875 146.544 l
981.347 146.544 l
cl
gsave
0.000 0.000 1.000 setrgbcolor
fill
grestore
stroke
grestore
gsave
952.8 511.2 153.7 63.9 clipbox
990.971 63.9 m
1000.5 63.9 l
1000.5 141.517 l
990.971 141.517 l
cl
gsave
0.000 0.000 1.000 setrgbcolor
fill
grestore
stroke
grestore
gsave
952.8 511.2 153.7 63.9 clipbox
1000.59 63.9 m
1010.12 63.9 l
1010.12 137.087 l
1000.59 137.087 l
cl
gsave
0.000 0.000 1.000 setrgbcolor
fill
grestore
stroke
grestore
gsave
952.8 511.2 153.7 63.9 clipbox
1010.22 63.9 m
1019.75 63.9 l
1019.75 134.02 l
1010.22 134.02 l
cl
gsave
0.000 0.000 1.000 setrgbcolor
fill
grestore
stroke
grestore
gsave
952.8 511.2 153.7 63.9 clipbox
1019.84 63.9 m
1029.37 63.9 l
1029.37 127.97 l
1019.84 127.97 l
cl
gsave
0.000 0.000 1.000 setrgbcolor
fill
grestore
stroke
grestore
gsave
952.8 511.2 153.7 63.9 clipbox
1029.47 63.9 m
1039 63.9 l
1039 123.966 l
1029.47 123.966 l
cl
gsave
0.000 0.000 1.000 setrgbcolor
fill
grestore
stroke
grestore
gsave
952.8 511.2 153.7 63.9 clipbox
1039.09 63.9 m
1048.62 63.9 l
1048.62 120.473 l
1039.09 120.473 l
cl
gsave
0.000 0.000 1.000 setrgbcolor
fill
grestore
stroke
grestore
gsave
952.8 511.2 153.7 63.9 clipbox
1048.72 63.9 m
1058.24 63.9 l
1058.24 110.93 l
1048.72 110.93 l
cl
gsave
0.000 0.000 1.000 setrgbcolor
fill
grestore
stroke
grestore
gsave
952.8 511.2 153.7 63.9 clipbox
1058.34 63.9 m
1067.87 63.9 l
1067.87 104.626 l
1058.34 104.626 l
cl
gsave
0.000 0.000 1.000 setrgbcolor
fill
grestore
stroke
grestore
gsave
952.8 511.2 153.7 63.9 clipbox
1067.96 63.9 m
1077.49 63.9 l
1077.49 93.9756 l
1067.96 93.9756 l
cl
gsave
0.000 0.000 1.000 setrgbcolor
fill
grestore
stroke
grestore
gsave
952.8 511.2 153.7 63.9 clipbox
1077.59 63.9 m
1087.12 63.9 l
1087.12 86.5632 l
1077.59 86.5632 l
cl
gsave
0.000 0.000 1.000 setrgbcolor
fill
grestore
stroke
grestore
gsave
952.8 511.2 153.7 63.9 clipbox
1087.21 63.9 m
1096.74 63.9 l
1096.74 79.3212 l
1087.21 79.3212 l
cl
gsave
0.000 0.000 1.000 setrgbcolor
fill
grestore
stroke
grestore
gsave
952.8 511.2 153.7 63.9 clipbox
1096.84 63.9 m
1106.36 63.9 l
1106.36 68.5008 l
1096.84 68.5008 l
cl
gsave
0.000 0.000 1.000 setrgbcolor
fill
grestore
stroke
grestore
5.000 setlinewidth
[6 6] 0 setdash
gsave
952.8 511.2 153.7 63.9 clipbox
153.675 522.89 m
163.299 495.596 l
172.923 469.338 l
182.547 444.099 l
192.171 419.86 l
201.795 396.604 l
211.42 374.312 l
221.044 352.968 l
230.668 332.554 l
240.292 313.051 l
249.916 294.442 l
259.54 276.71 l
269.164 259.836 l
278.788 243.803 l
288.412 228.593 l
298.036 214.189 l
307.66 200.572 l
317.285 187.725 l
326.909 175.63 l
336.533 164.27 l
346.157 153.626 l
355.781 143.681 l
365.405 134.417 l
375.029 125.817 l
384.653 117.862 l
394.277 110.535 l
403.901 103.819 l
413.525 97.6949 l
423.15 92.1457 l
432.774 87.1534 l
442.398 82.7005 l
452.022 78.7691 l
461.646 75.3414 l
471.27 72.3998 l
480.894 69.9265 l
490.518 67.9038 l
500.142 66.3139 l
509.766 65.1391 l
519.39 64.3617 l
529.015 63.9639 l
538.639 63.9279 l
548.263 64.2361 l
557.887 64.8707 l
567.511 65.8139 l
577.135 67.0481 l
586.759 68.5554 l
596.383 70.3182 l
606.007 72.3187 l
615.631 74.5391 l
625.255 76.9618 l
634.88 79.569 l
644.504 82.3429 l
654.128 85.2658 l
663.752 88.32 l
673.376 91.4877 l
683 94.7512 l
692.624 98.0927 l
702.248 101.495 l
711.872 104.939 l
721.496 108.408 l
731.12 111.885 l
740.745 115.35 l
750.369 118.788 l
759.993 122.179 l
769.617 125.506 l
779.241 128.752 l
788.865 131.899 l
798.489 134.928 l
808.113 137.822 l
817.737 140.564 l
827.361 143.136 l
836.985 145.52 l
846.61 147.698 l
856.234 149.652 l
865.858 151.365 l
875.482 152.819 l
885.106 153.997 l
894.73 154.879 l
904.354 155.45 l
913.978 155.691 l
923.602 155.584 l
933.226 155.112 l
942.85 154.256 l
952.475 153 l
962.099 151.325 l
971.723 149.213 l
981.347 146.648 l
990.971 143.61 l
1000.59 140.084 l
1010.22 136.049 l
1019.84 131.49 l
1029.47 126.388 l
1039.09 120.725 l
1048.72 114.484 l
1058.34 107.647 l
1067.96 100.196 l
1077.59 92.1135 l
1087.21 83.3819 l
1096.84 73.9833 l
1106.46 63.9 l
stroke
grestore
0.500 setlinewidth
[] 0 setdash
gsave
/o {
gsave
newpath
translate
0.5 setlinewidth
1 setlinejoin
0 setlinecap
0 0 m
0 4 l
gsave
0.000 setgray
fill
grestore
stroke
grestore
} bind def
153.675 63.9 o
grestore
gsave
/o {
gsave
newpath
translate
0.5 setlinewidth
1 setlinejoin
0 setlinecap
0 0 m
0 -4 l
gsave
0.000 setgray
fill
grestore
stroke
grestore
} bind def
153.675 575.1 o
grestore
/DejaVuSans findfont
20.000 scalefont
setfont
gsave
131.120312 44.696875 translate
0.000000 rotate
0.000000 0.000000 m /minus glyphshow
16.757812 0.000000 m /one glyphshow
29.482422 0.000000 m /period glyphshow
35.839844 0.000000 m /zero glyphshow
grestore
gsave
/o {
gsave
newpath
translate
0.5 setlinewidth
1 setlinejoin
0 setlinecap
0 0 m
0 4 l
gsave
0.000 setgray
fill
grestore
stroke
grestore
} bind def
312.472 63.9 o
grestore
gsave
/o {
gsave
newpath
translate
0.5 setlinewidth
1 setlinejoin
0 setlinecap
0 0 m
0 -4 l
gsave
0.000 setgray
fill
grestore
stroke
grestore
} bind def
312.472 575.1 o
grestore
gsave
290.120937 44.696875 translate
0.000000 rotate
0.000000 0.000000 m /minus glyphshow
16.757812 0.000000 m /zero glyphshow
29.482422 0.000000 m /period glyphshow
35.839844 0.000000 m /five glyphshow
grestore
gsave
/o {
gsave
newpath
translate
0.5 setlinewidth
1 setlinejoin
0 setlinecap
0 0 m
0 4 l
gsave
0.000 setgray
fill
grestore
stroke
grestore
} bind def
471.27 63.9 o
grestore
gsave
/o {
gsave
newpath
translate
0.5 setlinewidth
1 setlinejoin
0 setlinecap
0 0 m
0 -4 l
gsave
0.000 setgray
fill
grestore
stroke
grestore
} bind def
471.27 575.1 o
grestore
gsave
456.691875 44.696875 translate
0.000000 rotate
0.000000 0.000000 m /zero glyphshow
12.724609 0.000000 m /period glyphshow
19.082031 0.000000 m /zero glyphshow
grestore
gsave
/o {
gsave
newpath
translate
0.5 setlinewidth
1 setlinejoin
0 setlinecap
0 0 m
0 4 l
gsave
0.000 setgray
fill
grestore
stroke
grestore
} bind def
630.067 63.9 o
grestore
gsave
/o {
gsave
newpath
translate
0.5 setlinewidth
1 setlinejoin
0 setlinecap
0 0 m
0 -4 l
gsave
0.000 setgray
fill
grestore
stroke
grestore
} bind def
630.067 575.1 o
grestore
gsave
615.692500 44.696875 translate
0.000000 rotate
0.000000 0.000000 m /zero glyphshow
12.724609 0.000000 m /period glyphshow
19.082031 0.000000 m /five glyphshow
grestore
gsave
/o {
gsave
newpath
translate
0.5 setlinewidth
1 setlinejoin
0 setlinecap
0 0 m
0 4 l
gsave
0.000 setgray
fill
grestore
stroke
grestore
} bind def
788.865 63.9 o
grestore
gsave
/o {
gsave
newpath
translate
0.5 setlinewidth
1 setlinejoin
0 setlinecap
0 0 m
0 -4 l
gsave
0.000 setgray
fill
grestore
stroke
grestore
} bind def
788.865 575.1 o
grestore
gsave
774.732187 44.696875 translate
0.000000 rotate
0.000000 0.000000 m /one glyphshow
12.724609 0.000000 m /period glyphshow
19.082031 0.000000 m /zero glyphshow
grestore
gsave
/o {
gsave
newpath
translate
0.5 setlinewidth
1 setlinejoin
0 setlinecap
0 0 m
0 4 l
gsave
0.000 setgray
fill
grestore
stroke
grestore
} bind def
947.662 63.9 o
grestore
gsave
/o {
gsave
newpath
translate
0.5 setlinewidth
1 setlinejoin
0 setlinecap
0 0 m
0 -4 l
gsave
0.000 setgray
fill
grestore
stroke
grestore
} bind def
947.662 575.1 o
grestore
gsave
933.732812 44.696875 translate
0.000000 rotate
0.000000 0.000000 m /one glyphshow
12.724609 0.000000 m /period glyphshow
19.082031 0.000000 m /five glyphshow
grestore
gsave
/o {
gsave
newpath
translate
0.5 setlinewidth
1 setlinejoin
0 setlinecap
0 0 m
0 4 l
gsave
0.000 setgray
fill
grestore
stroke
grestore
} bind def
1106.46 63.9 o
grestore
gsave
/o {
gsave
newpath
translate
0.5 setlinewidth
1 setlinejoin
0 setlinecap
0 0 m
0 -4 l
gsave
0.000 setgray
fill
grestore
stroke
grestore
} bind def
1106.46 575.1 o
grestore
gsave
1091.960000 44.696875 translate
0.000000 rotate
0.000000 0.000000 m /two glyphshow
12.724609 0.000000 m /period glyphshow
19.082031 0.000000 m /zero glyphshow
grestore
gsave
624.762812 20.337500 translate
0.000000 rotate
0.000000 0.000000 m /x glyphshow
grestore
gsave
/o {
gsave
newpath
translate
0.5 setlinewidth
1 setlinejoin
0 setlinecap
0 0 m
4 0 l
gsave
0.000 setgray
fill
grestore
stroke
grestore
} bind def
153.675 63.9 o
grestore
gsave
/o {
gsave
newpath
translate
0.5 setlinewidth
1 setlinejoin
0 setlinecap
0 0 m
-4 0 l
gsave
0.000 setgray
fill
grestore
stroke
grestore
} bind def
1106.46 63.9 o
grestore
gsave
139.596875 58.376562 translate
0.000000 rotate
0.000000 0.000000 m /zero glyphshow
grestore
gsave
/o {
gsave
newpath
translate
0.5 setlinewidth
1 setlinejoin
0 setlinecap
0 0 m
4 0 l
gsave
0.000 setgray
fill
grestore
stroke
grestore
} bind def
153.675 149.1 o
grestore
gsave
/o {
gsave
newpath
translate
0.5 setlinewidth
1 setlinejoin
0 setlinecap
0 0 m
-4 0 l
gsave
0.000 setgray
fill
grestore
stroke
grestore
} bind def
1106.46 149.1 o
grestore
gsave
102.331250 143.576562 translate
0.000000 rotate
0.000000 0.000000 m /one glyphshow
12.724609 0.000000 m /zero glyphshow
25.449219 0.000000 m /zero glyphshow
38.173828 0.000000 m /zero glyphshow
grestore
gsave
/o {
gsave
newpath
translate
0.5 setlinewidth
1 setlinejoin
0 setlinecap
0 0 m
4 0 l
gsave
0.000 setgray
fill
grestore
stroke
grestore
} bind def
153.675 234.3 o
grestore
gsave
/o {
gsave
newpath
translate
0.5 setlinewidth
1 setlinejoin
0 setlinecap
0 0 m
-4 0 l
gsave
0.000 setgray
fill
grestore
stroke
grestore
} bind def
1106.46 234.3 o
grestore
gsave
101.596875 228.776562 translate
0.000000 rotate
0.000000 0.000000 m /two glyphshow
12.724609 0.000000 m /zero glyphshow
25.449219 0.000000 m /zero glyphshow
38.173828 0.000000 m /zero glyphshow
grestore
gsave
/o {
gsave
newpath
translate
0.5 setlinewidth
1 setlinejoin
0 setlinecap
0 0 m
4 0 l
gsave
0.000 setgray
fill
grestore
stroke
grestore
} bind def
153.675 319.5 o
grestore
gsave
/o {
gsave
newpath
translate
0.5 setlinewidth
1 setlinejoin
0 setlinecap
0 0 m
-4 0 l
gsave
0.000 setgray
fill
grestore
stroke
grestore
} bind def
1106.46 319.5 o
grestore
gsave
101.659375 313.976562 translate
0.000000 rotate
0.000000 0.000000 m /three glyphshow
12.724609 0.000000 m /zero glyphshow
25.449219 0.000000 m /zero glyphshow
38.173828 0.000000 m /zero glyphshow
grestore
gsave
/o {
gsave
newpath
translate
0.5 setlinewidth
1 setlinejoin
0 setlinecap
0 0 m
4 0 l
gsave
0.000 setgray
fill
grestore
stroke
grestore
} bind def
153.675 404.7 o
grestore
gsave
/o {
gsave
newpath
translate
0.5 setlinewidth
1 setlinejoin
0 setlinecap
0 0 m
-4 0 l
gsave
0.000 setgray
fill
grestore
stroke
grestore
} bind def
1106.46 404.7 o
grestore
gsave
101.112500 399.176562 translate
0.000000 rotate
0.000000 0.000000 m /four glyphshow
12.724609 0.000000 m /zero glyphshow
25.449219 0.000000 m /zero glyphshow
38.173828 0.000000 m /zero glyphshow
grestore
gsave
/o {
gsave
newpath
translate
0.5 setlinewidth
1 setlinejoin
0 setlinecap
0 0 m
4 0 l
gsave
0.000 setgray
fill
grestore
stroke
grestore
} bind def
153.675 489.9 o
grestore
gsave
/o {
gsave
newpath
translate
0.5 setlinewidth
1 setlinejoin
0 setlinecap
0 0 m
-4 0 l
gsave
0.000 setgray
fill
grestore
stroke
grestore
} bind def
1106.46 489.9 o
grestore
gsave
101.675000 484.376562 translate
0.000000 rotate
0.000000 0.000000 m /five glyphshow
12.724609 0.000000 m /zero glyphshow
25.449219 0.000000 m /zero glyphshow
38.173828 0.000000 m /zero glyphshow
grestore
gsave
/o {
gsave
newpath
translate
0.5 setlinewidth
1 setlinejoin
0 setlinecap
0 0 m
4 0 l
gsave
0.000 setgray
fill
grestore
stroke
grestore
} bind def
153.675 575.1 o
grestore
gsave
/o {
gsave
newpath
translate
0.5 setlinewidth
1 setlinejoin
0 setlinecap
0 0 m
-4 0 l
gsave
0.000 setgray
fill
grestore
stroke
grestore
} bind def
1106.46 575.1 o
grestore
gsave
101.518750 569.576563 translate
0.000000 rotate
0.000000 0.000000 m /six glyphshow
12.724609 0.000000 m /zero glyphshow
25.449219 0.000000 m /zero glyphshow
38.173828 0.000000 m /zero glyphshow
grestore
gsave
91.956250 271.914062 translate
90.000000 rotate
0.000000 0.000000 m /N glyphshow
14.960938 0.000000 m /s glyphshow
25.380859 0.000000 m /a glyphshow
37.636719 0.000000 m /m glyphshow
57.119141 0.000000 m /p glyphshow
69.814453 0.000000 m /l glyphshow
75.371094 0.000000 m /e glyphshow
87.675781 0.000000 m /s glyphshow
grestore
1.000 setlinewidth
gsave
153.675 575.1 m
1106.46 575.1 l
stroke
grestore
gsave
1106.46 63.9 m
1106.46 575.1 l
stroke
grestore
gsave
153.675 63.9 m
1106.46 63.9 l
stroke
grestore
gsave
153.675 63.9 m
153.675 575.1 l
stroke
grestore

end
showpage
