%!PS-Adobe-3.0 EPSF-3.0
%%Title: /home/martin/RhoE_log.eps
%%Creator: matplotlib version 1.3.1, http://matplotlib.org/
%%CreationDate: Mon Oct 26 21:59:54 2015
%%Orientation: portrait
%%BoundingBox: 13 175 598 616
%%EndComments
%%BeginProlog
/mpldict 8 dict def
mpldict begin
/m { moveto } bind def
/l { lineto } bind def
/r { rlineto } bind def
/c { curveto } bind def
/cl { closepath } bind def
/box {
m
1 index 0 r
0 exch r
neg 0 r
cl
} bind def
/clipbox {
box
clip
newpath
} bind def
%!PS-Adobe-3.0 Resource-Font
%%Title: DejaVu Sans
%%Copyright: Copyright (c) 2003 by Bitstream, Inc. All Rights Reserved. Copyright (c) 2006 by Tavmjong Bah. All Rights Reserved. DejaVu changes are in public domain 
%%Creator: Converted from TrueType to type 3 by PPR
25 dict begin
/_d{bind def}bind def
/_m{moveto}_d
/_l{lineto}_d
/_cl{closepath eofill}_d
/_c{curveto}_d
/_sc{7 -1 roll{setcachedevice}{pop pop pop pop pop pop}ifelse}_d
/_e{exec}_d
/FontName /DejaVuSans def
/PaintType 0 def
/FontMatrix[.001 0 0 .001 0 0]def
/FontBBox[-1021 -415 1681 1167]def
/FontType 3 def
/Encoding [ /space /comma /hyphen /zero /one /two /three /four /five /A /D /E /U /d /e /g /h /i /n /o /p /r /s /t /y ] def
/FontInfo 10 dict dup begin
/FamilyName (DejaVu Sans) def
/FullName (DejaVu Sans) def
/Notice (Copyright (c) 2003 by Bitstream, Inc. All Rights Reserved. Copyright (c) 2006 by Tavmjong Bah. All Rights Reserved. DejaVu changes are in public domain ) def
/Weight (Book) def
/Version (Version 2.34) def
/ItalicAngle 0.0 def
/isFixedPitch false def
/UnderlinePosition -130 def
/UnderlineThickness 90 def
end readonly def
/CharStrings 25 dict dup begin
/space{318 0 0 0 0 0 _sc
}_d
/comma{318 0 77 -115 220 124 _sc
117 124 _m
220 124 _l
220 40 _l
140 -115 _l
77 -115 _l
117 40 _l
117 124 _l
_cl}_d
/hyphen{361 0 49 234 312 314 _sc
49 314 _m
312 314 _l
312 234 _l
49 234 _l
49 314 _l
_cl}_d
/zero{636 0 66 -13 570 742 _sc
318 664 _m
267 664 229 639 203 589 _c
177 539 165 464 165 364 _c
165 264 177 189 203 139 _c
229 89 267 64 318 64 _c
369 64 407 89 433 139 _c
458 189 471 264 471 364 _c
471 464 458 539 433 589 _c
407 639 369 664 318 664 _c
318 742 _m
399 742 461 709 505 645 _c
548 580 570 486 570 364 _c
570 241 548 147 505 83 _c
461 19 399 -13 318 -13 _c
236 -13 173 19 130 83 _c
87 147 66 241 66 364 _c
66 486 87 580 130 645 _c
173 709 236 742 318 742 _c
_cl}_d
/one{636 0 110 0 544 729 _sc
124 83 _m
285 83 _l
285 639 _l
110 604 _l
110 694 _l
284 729 _l
383 729 _l
383 83 _l
544 83 _l
544 0 _l
124 0 _l
124 83 _l
_cl}_d
/two{{636 0 73 0 536 742 _sc
192 83 _m
536 83 _l
536 0 _l
73 0 _l
73 83 _l
110 121 161 173 226 239 _c
290 304 331 346 348 365 _c
380 400 402 430 414 455 _c
426 479 433 504 433 528 _c
433 566 419 598 392 622 _c
365 646 330 659 286 659 _c
255 659 222 653 188 643 _c
154 632 117 616 78 594 _c
78 694 _l
118 710 155 722 189 730 _c
223 738 255 742 284 742 _c
}_e{359 742 419 723 464 685 _c
509 647 532 597 532 534 _c
532 504 526 475 515 449 _c
504 422 484 390 454 354 _c
446 344 420 317 376 272 _c
332 227 271 164 192 83 _c
_cl}_e}_d
/three{{636 0 76 -13 556 742 _sc
406 393 _m
453 383 490 362 516 330 _c
542 298 556 258 556 212 _c
556 140 531 84 482 45 _c
432 6 362 -13 271 -13 _c
240 -13 208 -10 176 -4 _c
144 1 110 10 76 22 _c
76 117 _l
103 101 133 89 166 81 _c
198 73 232 69 268 69 _c
330 69 377 81 409 105 _c
441 129 458 165 458 212 _c
458 254 443 288 413 312 _c
383 336 341 349 287 349 _c
}_e{202 349 _l
202 430 _l
291 430 _l
339 430 376 439 402 459 _c
428 478 441 506 441 543 _c
441 580 427 609 401 629 _c
374 649 336 659 287 659 _c
260 659 231 656 200 650 _c
169 644 135 635 98 623 _c
98 711 _l
135 721 170 729 203 734 _c
235 739 266 742 296 742 _c
370 742 429 725 473 691 _c
517 657 539 611 539 553 _c
539 513 527 479 504 451 _c
481 423 448 403 406 393 _c
_cl}_e}_d
/four{636 0 49 0 580 729 _sc
378 643 _m
129 254 _l
378 254 _l
378 643 _l
352 729 _m
476 729 _l
476 254 _l
580 254 _l
580 172 _l
476 172 _l
476 0 _l
378 0 _l
378 172 _l
49 172 _l
49 267 _l
352 729 _l
_cl}_d
/five{{636 0 77 -13 549 729 _sc
108 729 _m
495 729 _l
495 646 _l
198 646 _l
198 467 _l
212 472 227 476 241 478 _c
255 480 270 482 284 482 _c
365 482 429 459 477 415 _c
525 370 549 310 549 234 _c
549 155 524 94 475 51 _c
426 8 357 -13 269 -13 _c
238 -13 207 -10 175 -6 _c
143 -1 111 6 77 17 _c
77 116 _l
106 100 136 88 168 80 _c
199 72 232 69 267 69 _c
}_e{323 69 368 83 401 113 _c
433 143 450 183 450 234 _c
450 284 433 324 401 354 _c
368 384 323 399 267 399 _c
241 399 214 396 188 390 _c
162 384 135 375 108 363 _c
108 729 _l
_cl}_e}_d
/A{684 0 8 0 676 729 _sc
342 632 _m
208 269 _l
476 269 _l
342 632 _l
286 729 _m
398 729 _l
676 0 _l
573 0 _l
507 187 _l
178 187 _l
112 0 _l
8 0 _l
286 729 _l
_cl}_d
/D{770 0 98 0 711 729 _sc
197 648 _m
197 81 _l
316 81 _l
416 81 490 103 537 149 _c
583 195 607 267 607 365 _c
607 463 583 534 537 580 _c
490 625 416 648 316 648 _c
197 648 _l
98 729 _m
301 729 _l
442 729 546 699 612 641 _c
678 582 711 490 711 365 _c
711 239 677 147 611 88 _c
545 29 441 0 301 0 _c
98 0 _l
98 729 _l
_cl}_d
/E{632 0 98 0 568 729 _sc
98 729 _m
559 729 _l
559 646 _l
197 646 _l
197 430 _l
544 430 _l
544 347 _l
197 347 _l
197 83 _l
568 83 _l
568 0 _l
98 0 _l
98 729 _l
_cl}_d
/U{732 0 87 -13 645 729 _sc
87 729 _m
186 729 _l
186 286 _l
186 208 200 151 228 117 _c
256 83 302 66 366 66 _c
429 66 475 83 503 117 _c
531 151 546 208 546 286 _c
546 729 _l
645 729 _l
645 274 _l
645 178 621 107 574 59 _c
527 11 458 -13 366 -13 _c
274 -13 204 11 157 59 _c
110 107 87 178 87 274 _c
87 729 _l
_cl}_d
/d{{635 0 55 -13 544 760 _sc
454 464 _m
454 760 _l
544 760 _l
544 0 _l
454 0 _l
454 82 _l
435 49 411 25 382 10 _c
353 -5 319 -13 279 -13 _c
213 -13 159 13 117 65 _c
75 117 55 187 55 273 _c
55 359 75 428 117 481 _c
159 533 213 560 279 560 _c
319 560 353 552 382 536 _c
411 520 435 496 454 464 _c
148 273 _m
148 207 161 155 188 117 _c
215 79 253 61 301 61 _c
}_e{348 61 385 79 413 117 _c
440 155 454 207 454 273 _c
454 339 440 390 413 428 _c
385 466 348 485 301 485 _c
253 485 215 466 188 428 _c
161 390 148 339 148 273 _c
_cl}_e}_d
/e{{615 0 55 -13 562 560 _sc
562 296 _m
562 252 _l
149 252 _l
153 190 171 142 205 110 _c
238 78 284 62 344 62 _c
378 62 412 66 444 74 _c
476 82 509 95 541 113 _c
541 28 _l
509 14 476 3 442 -3 _c
408 -9 373 -13 339 -13 _c
251 -13 182 12 131 62 _c
80 112 55 181 55 268 _c
55 357 79 428 127 481 _c
175 533 241 560 323 560 _c
397 560 455 536 498 489 _c
}_e{540 441 562 377 562 296 _c
472 322 _m
471 371 457 410 431 440 _c
404 469 368 484 324 484 _c
274 484 234 469 204 441 _c
174 413 156 373 152 322 _c
472 322 _l
_cl}_e}_d
/g{{635 0 55 -207 544 560 _sc
454 280 _m
454 344 440 395 414 431 _c
387 467 349 485 301 485 _c
253 485 215 467 188 431 _c
161 395 148 344 148 280 _c
148 215 161 165 188 129 _c
215 93 253 75 301 75 _c
349 75 387 93 414 129 _c
440 165 454 215 454 280 _c
544 68 _m
544 -24 523 -93 482 -139 _c
440 -184 377 -207 292 -207 _c
260 -207 231 -204 203 -200 _c
175 -195 147 -188 121 -178 _c
}_e{121 -91 _l
147 -105 173 -115 199 -122 _c
225 -129 251 -133 278 -133 _c
336 -133 380 -117 410 -87 _c
439 -56 454 -10 454 52 _c
454 96 _l
435 64 411 40 382 24 _c
353 8 319 0 279 0 _c
211 0 157 25 116 76 _c
75 127 55 195 55 280 _c
55 364 75 432 116 483 _c
157 534 211 560 279 560 _c
319 560 353 552 382 536 _c
411 520 435 496 454 464 _c
454 547 _l
544 547 _l
}_e{544 68 _l
_cl}_e}_d
/h{634 0 91 0 549 760 _sc
549 330 _m
549 0 _l
459 0 _l
459 327 _l
459 379 448 417 428 443 _c
408 469 378 482 338 482 _c
289 482 251 466 223 435 _c
195 404 181 362 181 309 _c
181 0 _l
91 0 _l
91 760 _l
181 760 _l
181 462 _l
202 494 227 519 257 535 _c
286 551 320 560 358 560 _c
420 560 468 540 500 501 _c
532 462 549 405 549 330 _c
_cl}_d
/i{278 0 94 0 184 760 _sc
94 547 _m
184 547 _l
184 0 _l
94 0 _l
94 547 _l
94 760 _m
184 760 _l
184 646 _l
94 646 _l
94 760 _l
_cl}_d
/n{634 0 91 0 549 560 _sc
549 330 _m
549 0 _l
459 0 _l
459 327 _l
459 379 448 417 428 443 _c
408 469 378 482 338 482 _c
289 482 251 466 223 435 _c
195 404 181 362 181 309 _c
181 0 _l
91 0 _l
91 547 _l
181 547 _l
181 462 _l
202 494 227 519 257 535 _c
286 551 320 560 358 560 _c
420 560 468 540 500 501 _c
532 462 549 405 549 330 _c
_cl}_d
/o{612 0 55 -13 557 560 _sc
306 484 _m
258 484 220 465 192 427 _c
164 389 150 338 150 273 _c
150 207 163 156 191 118 _c
219 80 257 62 306 62 _c
354 62 392 80 420 118 _c
448 156 462 207 462 273 _c
462 337 448 389 420 427 _c
392 465 354 484 306 484 _c
306 560 _m
384 560 445 534 490 484 _c
534 433 557 363 557 273 _c
557 183 534 113 490 63 _c
445 12 384 -13 306 -13 _c
227 -13 165 12 121 63 _c
77 113 55 183 55 273 _c
55 363 77 433 121 484 _c
165 534 227 560 306 560 _c
_cl}_d
/p{{635 0 91 -207 580 560 _sc
181 82 _m
181 -207 _l
91 -207 _l
91 547 _l
181 547 _l
181 464 _l
199 496 223 520 252 536 _c
281 552 316 560 356 560 _c
422 560 476 533 518 481 _c
559 428 580 359 580 273 _c
580 187 559 117 518 65 _c
476 13 422 -13 356 -13 _c
316 -13 281 -5 252 10 _c
223 25 199 49 181 82 _c
487 273 _m
487 339 473 390 446 428 _c
418 466 381 485 334 485 _c
}_e{286 485 249 466 222 428 _c
194 390 181 339 181 273 _c
181 207 194 155 222 117 _c
249 79 286 61 334 61 _c
381 61 418 79 446 117 _c
473 155 487 207 487 273 _c
_cl}_e}_d
/r{411 0 91 0 411 560 _sc
411 463 _m
401 469 390 473 378 476 _c
366 478 353 480 339 480 _c
288 480 249 463 222 430 _c
194 397 181 350 181 288 _c
181 0 _l
91 0 _l
91 547 _l
181 547 _l
181 462 _l
199 495 224 520 254 536 _c
284 552 321 560 365 560 _c
371 560 378 559 386 559 _c
393 558 401 557 411 555 _c
411 463 _l
_cl}_d
/s{{521 0 54 -13 472 560 _sc
443 531 _m
443 446 _l
417 458 391 468 364 475 _c
336 481 308 485 279 485 _c
234 485 200 478 178 464 _c
156 450 145 430 145 403 _c
145 382 153 366 169 354 _c
185 342 217 330 265 320 _c
296 313 _l
360 299 405 279 432 255 _c
458 230 472 195 472 151 _c
472 100 452 60 412 31 _c
372 1 316 -13 246 -13 _c
216 -13 186 -10 154 -5 _c
}_e{122 0 89 8 54 20 _c
54 113 _l
87 95 120 82 152 74 _c
184 65 216 61 248 61 _c
290 61 323 68 346 82 _c
368 96 380 117 380 144 _c
380 168 371 187 355 200 _c
339 213 303 226 247 238 _c
216 245 _l
160 257 119 275 95 299 _c
70 323 58 356 58 399 _c
58 450 76 490 112 518 _c
148 546 200 560 268 560 _c
301 560 332 557 362 552 _c
391 547 418 540 443 531 _c
}_e{_cl}_e}_d
/t{392 0 27 0 368 702 _sc
183 702 _m
183 547 _l
368 547 _l
368 477 _l
183 477 _l
183 180 _l
183 135 189 106 201 94 _c
213 81 238 75 276 75 _c
368 75 _l
368 0 _l
276 0 _l
206 0 158 13 132 39 _c
106 65 93 112 93 180 _c
93 477 _l
27 477 _l
27 547 _l
93 547 _l
93 702 _l
183 702 _l
_cl}_d
/y{592 0 30 -207 562 547 _sc
322 -50 _m
296 -114 271 -157 247 -177 _c
223 -197 191 -207 151 -207 _c
79 -207 _l
79 -132 _l
132 -132 _l
156 -132 175 -126 189 -114 _c
203 -102 218 -75 235 -31 _c
251 9 _l
30 547 _l
125 547 _l
296 119 _l
467 547 _l
562 547 _l
322 -50 _l
_cl}_d
end readonly def

/BuildGlyph
 {exch begin
 CharStrings exch
 2 copy known not{pop /.notdef}if
 true 3 1 roll get exec
 end}_d

/BuildChar {
 1 index /Encoding get exch get
 1 index /BuildGlyph get exec
}_d

FontName currentdict end definefont pop
end
%%EndProlog
mpldict begin
13.5 175.5 translate
585 441 0 0 clipbox
gsave
0 0 m
585 0 l
585 441 l
0 441 l
cl
1.000 setgray
fill
grestore
gsave
73.125 44.1 m
526.5 44.1 l
526.5 396.9 l
73.125 396.9 l
cl
1.000 setgray
fill
grestore
1.000 setlinewidth
1 setlinejoin
2 setlinecap
[] 0 setdash
0.000 0.000 1.000 setrgbcolor
gsave
453.4 352.8 73.12 44.1 clipbox
73.125 348.679 m
74.0318 349.32 l
74.9385 341.186 l
75.8452 342.447 l
76.752 346.205 l
77.6587 342.724 l
78.5655 344.916 l
79.4723 342.999 l
81.2858 344.762 l
82.1925 344.169 l
83.0992 344.475 l
84.006 343.703 l
84.9128 345.196 l
85.8195 345.003 l
86.7262 344.675 l
87.633 345.016 l
88.5397 344.54 l
90.3533 344.779 l
91.26 345.466 l
92.1668 345.056 l
93.0735 345.328 l
93.9802 345.089 l
94.887 345.334 l
95.7938 345.026 l
96.7005 345.896 l
97.6072 345.288 l
98.514 345.555 l
99.4207 345.301 l
100.328 345.643 l
101.234 345.308 l
102.141 345.377 l
103.048 346.343 l
104.861 346.308 l
106.675 346.663 l
107.582 346.461 l
108.488 346.051 l
109.395 346.896 l
112.115 346.849 l
113.022 347.068 l
113.929 346.846 l
114.835 347.353 l
115.742 347.199 l
116.649 347.688 l
117.556 347.889 l
118.463 346.949 l
119.369 347.791 l
120.276 347.313 l
121.183 348.082 l
124.81 347.87 l
125.716 348.361 l
126.623 348.346 l
127.53 348.617 l
128.437 348.486 l
130.25 349.07 l
131.157 348.608 l
132.064 348.812 l
132.971 349.55 l
133.877 349.625 l
134.784 349.524 l
135.691 349.582 l
136.597 350.038 l
138.411 349.305 l
139.318 350.196 l
140.225 350.314 l
141.131 350.224 l
142.038 350.598 l
142.945 350.131 l
143.851 350.907 l
144.758 350.492 l
145.665 351.165 l
146.572 351.241 l
147.478 351.2 l
148.385 351.9 l
150.199 352.033 l
151.106 351.493 l
152.012 351.841 l
152.919 351.734 l
153.826 352.482 l
154.733 352.602 l
155.639 352.488 l
157.453 352.594 l
158.36 353.018 l
159.266 353.256 l
161.08 353.161 l
161.987 353.383 l
162.893 354.042 l
163.8 353.696 l
164.707 353.911 l
166.52 353.861 l
167.427 354.5 l
169.24 354.574 l
170.147 354.79 l
171.054 354.564 l
171.961 354.159 l
172.868 355.339 l
174.681 354.746 l
175.588 355.065 l
176.495 355.002 l
177.401 355.378 l
178.308 355.565 l
179.215 355.165 l
180.122 355.804 l
182.842 355.387 l
183.749 355.249 l
184.655 355.477 l
186.469 355.647 l
187.375 355.077 l
188.282 355.299 l
190.096 355.299 l
191.002 354.688 l
191.909 354.899 l
192.816 354.99 l
193.723 354.727 l
194.63 354.901 l
196.443 354.203 l
198.257 354.449 l
200.977 353.474 l
201.883 353.383 l
203.697 353.577 l
204.604 352.701 l
205.511 352.652 l
206.417 352.987 l
207.324 352.186 l
208.231 352.352 l
209.138 351.619 l
210.044 352.123 l
210.951 351.358 l
211.858 351.167 l
212.764 350.77 l
213.671 351.447 l
214.578 350.204 l
215.485 349.992 l
216.392 350.021 l
217.298 349.163 l
218.205 349.285 l
219.112 348.988 l
220.019 348.088 l
222.739 347.587 l
223.645 347.115 l
224.552 345.793 l
225.459 346.324 l
226.366 344.739 l
227.273 344.833 l
228.179 344.638 l
229.086 344.315 l
229.993 342.946 l
230.9 342.889 l
231.806 343.07 l
232.713 341.806 l
233.62 342.17 l
234.526 341.291 l
235.433 340.791 l
236.34 340.905 l
237.247 340.071 l
238.154 339.076 l
239.967 338.723 l
240.874 337.406 l
241.781 337.145 l
242.687 336.089 l
243.594 335.919 l
245.407 334.436 l
247.221 333.475 l
248.128 332.222 l
249.035 332.343 l
249.941 330.925 l
250.848 331.167 l
251.755 329.649 l
253.568 328.42 l
254.475 327.678 l
255.382 326.28 l
256.288 326.525 l
257.195 324.885 l
258.102 324.19 l
259.009 324.924 l
259.916 323.058 l
260.822 322.743 l
261.729 321.419 l
262.636 321.274 l
263.543 320.506 l
264.449 318.735 l
265.356 319.187 l
266.263 317.907 l
267.169 317.263 l
268.076 315.768 l
268.983 316.94 l
269.89 314.041 l
270.797 312.675 l
271.703 313.055 l
272.61 311.404 l
273.517 312.231 l
275.33 308.463 l
276.237 308.997 l
277.144 308.309 l
278.05 306.851 l
278.957 306.125 l
279.864 304.767 l
280.771 303.989 l
281.678 302.995 l
283.491 300.292 l
284.398 299.004 l
285.305 297.043 l
286.211 296.48 l
287.118 296.641 l
288.025 296.153 l
289.838 293.461 l
290.745 294.082 l
291.652 291.077 l
292.558 291.557 l
293.465 287.809 l
294.372 288.237 l
295.279 287.397 l
296.186 286.103 l
297.092 286.533 l
298.906 283.662 l
299.812 283.513 l
300.719 282.014 l
301.626 279.745 l
302.533 277.807 l
303.44 278.045 l
304.346 277.295 l
305.253 275.929 l
306.16 275.254 l
307.067 273.033 l
307.973 268.971 l
308.88 272.327 l
309.787 269.407 l
310.694 267.544 l
311.6 266.352 l
312.507 264.931 l
313.414 263.772 l
314.321 264.565 l
315.227 263.249 l
316.134 259.198 l
317.041 259.849 l
317.947 260.009 l
318.854 258.308 l
319.761 255.595 l
320.668 256.566 l
321.575 254.273 l
322.481 255.41 l
324.295 251.158 l
325.202 247.046 l
326.108 248.245 l
327.015 247.127 l
327.922 245.025 l
328.829 244.85 l
329.735 243.416 l
330.642 240.228 l
331.549 241.131 l
332.456 241.622 l
333.362 240.833 l
334.269 238.447 l
335.176 234.417 l
336.083 233.032 l
336.989 233.543 l
338.803 233.795 l
339.709 230.342 l
340.616 229.342 l
341.523 225.642 l
342.43 227.701 l
343.337 223.434 l
344.243 222.901 l
345.15 225.642 l
346.057 222.721 l
346.964 223.609 l
347.87 216.772 l
348.777 220.283 l
349.684 208.534 l
350.591 214.735 l
351.497 212.554 l
352.404 207.663 l
353.311 212.048 l
354.218 209.381 l
356.031 206.153 l
356.938 209.381 l
357.845 208.819 l
358.751 202.543 l
359.658 199.623 l
360.565 198.051 l
361.471 181.303 l
362.378 189.235 l
363.285 179.877 l
364.192 189.768 l
365.099 190.807 l
366.005 186.422 l
366.912 175.993 l
367.819 177.606 l
368.726 178.382 l
369.632 173.402 l
370.539 177.606 l
371.446 180.598 l
372.353 176.81 l
373.259 176.81 l
374.166 172.487 l
375.073 165.181 l
375.98 176.81 l
376.886 169.566 l
377.793 167.452 l
378.7 167.452 l
379.607 163.979 l
380.513 162.728 l
381.42 160.062 l
382.327 168.527 l
383.233 162.728 l
384.14 155.57 l
385.047 155.57 l
385.954 158.636 l
386.861 150.303 l
387.767 152.161 l
388.674 152.161 l
389.581 129.063 l
390.488 141.488 l
391.394 146.211 l
392.301 143.941 l
393.208 124.971 l
395.021 132.672 l
395.928 143.941 l
396.835 146.211 l
397.742 141.488 l
398.648 120.247 l
399.555 132.672 l
400.462 107.822 l
401.369 107.822 l
402.275 114.66 l
403.182 124.971 l
404.089 107.822 l
404.995 124.971 l
405.902 86.5814 l
406.809 114.66 l
407.716 99.0064 l
408.623 86.5814 l
409.529 129.063 l
411.343 86.5814 l
412.25 107.822 l
413.156 114.66 l
414.063 86.5814 l
414.97 99.0064 l
415.877 65.3407 l
416.783 99.0064 l
420.41 99.0064 m
421.317 114.66 l
422.224 107.822 l
423.131 99.0064 l
424.037 86.5814 l
424.944 86.5814 l
425.851 65.3407 l
426.758 86.5814 l
427.664 86.5814 l
428.571 65.3407 l
429.478 65.3407 l
432.198 65.3407 m
433.105 99.0064 l
434.012 99.0064 l
434.918 65.3407 l
473.002 86.5814 m
473.909 86.5814 l
478.442 65.3407 m
stroke
grestore
0.000 0.500 0.000 setrgbcolor
gsave
453.4 352.8 73.12 44.1 clipbox
73.125 348.679 m
74.0318 349.32 l
74.9385 341.186 l
75.8452 342.447 l
76.752 346.205 l
77.6587 342.724 l
78.5655 344.916 l
79.4723 342.999 l
81.2858 344.762 l
82.1925 344.169 l
83.0992 344.475 l
84.006 343.703 l
84.9128 345.196 l
85.8195 345.003 l
86.7262 344.675 l
87.633 345.016 l
88.5397 344.54 l
90.3533 344.779 l
91.26 345.466 l
92.1668 345.056 l
93.0735 345.328 l
93.9802 345.089 l
94.887 345.334 l
95.7938 345.026 l
96.7005 345.896 l
97.6072 345.288 l
98.514 345.555 l
99.4207 345.301 l
100.328 345.643 l
101.234 345.308 l
102.141 345.377 l
103.048 346.343 l
104.861 346.308 l
106.675 346.663 l
107.582 346.461 l
108.488 346.051 l
109.395 346.896 l
112.115 346.849 l
113.022 347.068 l
113.929 346.846 l
114.835 347.353 l
115.742 347.199 l
116.649 347.688 l
117.556 347.889 l
118.463 346.949 l
119.369 347.791 l
120.276 347.313 l
121.183 348.082 l
124.81 347.87 l
125.716 348.361 l
126.623 348.346 l
127.53 348.617 l
128.437 348.486 l
130.25 349.07 l
131.157 348.608 l
132.064 348.812 l
132.971 349.55 l
133.877 349.625 l
134.784 349.524 l
135.691 349.582 l
136.597 350.038 l
138.411 349.305 l
139.318 350.196 l
140.225 350.314 l
141.131 350.224 l
142.038 350.598 l
142.945 350.131 l
143.851 350.907 l
144.758 350.492 l
145.665 351.165 l
146.572 351.241 l
147.478 351.2 l
148.385 351.9 l
150.199 352.033 l
151.106 351.493 l
152.012 351.841 l
152.919 351.734 l
153.826 352.482 l
154.733 352.602 l
155.639 352.488 l
157.453 352.594 l
158.36 353.018 l
159.266 353.256 l
161.08 353.161 l
161.987 353.383 l
162.893 354.042 l
163.8 353.696 l
164.707 353.911 l
166.52 353.861 l
167.427 354.5 l
169.24 354.574 l
170.147 354.79 l
171.054 354.564 l
171.961 354.159 l
172.868 355.339 l
174.681 354.746 l
175.588 355.065 l
176.495 355.002 l
177.401 355.378 l
178.308 355.565 l
179.215 355.165 l
180.122 355.804 l
182.842 355.387 l
183.749 355.249 l
184.655 355.477 l
186.469 355.647 l
187.375 355.077 l
188.282 355.299 l
190.096 355.299 l
191.002 354.688 l
191.909 354.899 l
192.816 354.99 l
193.723 354.727 l
194.63 354.901 l
196.443 354.203 l
198.257 354.449 l
200.977 353.474 l
201.883 353.383 l
203.697 353.577 l
204.604 352.701 l
205.511 352.652 l
206.417 352.987 l
207.324 352.186 l
208.231 352.352 l
209.138 351.619 l
210.044 352.123 l
210.951 351.358 l
211.858 351.167 l
212.764 350.77 l
213.671 351.447 l
214.578 350.204 l
215.485 349.992 l
216.392 350.021 l
217.298 349.163 l
218.205 349.285 l
219.112 348.988 l
220.019 348.088 l
222.739 347.587 l
223.645 347.115 l
224.552 345.793 l
225.459 346.324 l
226.366 344.739 l
227.273 344.833 l
228.179 344.638 l
229.086 344.315 l
229.993 342.946 l
230.9 342.889 l
231.806 343.07 l
232.713 341.806 l
233.62 342.17 l
234.526 341.291 l
235.433 340.791 l
236.34 340.905 l
237.247 340.071 l
238.154 339.076 l
239.967 338.723 l
240.874 337.406 l
241.781 337.145 l
242.687 336.089 l
243.594 335.919 l
245.407 334.436 l
247.221 333.475 l
248.128 332.222 l
249.035 332.343 l
249.941 330.925 l
250.848 331.167 l
251.755 329.649 l
253.568 328.42 l
254.475 327.678 l
255.382 326.28 l
256.288 326.525 l
257.195 324.885 l
258.102 324.19 l
259.009 324.924 l
259.916 323.058 l
260.822 322.743 l
261.729 321.419 l
262.636 321.274 l
263.543 320.506 l
264.449 318.735 l
265.356 319.187 l
266.263 317.907 l
267.169 317.263 l
268.076 315.768 l
268.983 316.94 l
269.89 314.041 l
270.797 312.675 l
271.703 313.055 l
272.61 311.404 l
273.517 312.231 l
275.33 308.463 l
276.237 308.997 l
277.144 308.309 l
278.05 306.851 l
278.957 306.125 l
279.864 304.767 l
280.771 303.989 l
281.678 302.995 l
283.491 300.292 l
284.398 299.004 l
285.305 297.043 l
286.211 296.48 l
287.118 296.641 l
288.025 296.153 l
289.838 293.461 l
290.745 294.082 l
291.652 291.077 l
292.558 291.557 l
293.465 287.809 l
294.372 288.237 l
295.279 287.397 l
296.186 286.103 l
297.092 286.533 l
298.906 283.662 l
299.812 283.513 l
300.719 282.014 l
301.626 279.745 l
302.533 277.807 l
303.44 278.045 l
304.346 277.295 l
305.253 275.929 l
306.16 275.254 l
307.067 273.033 l
307.973 268.971 l
308.88 272.327 l
309.787 269.407 l
310.694 267.544 l
311.6 266.352 l
312.507 264.931 l
313.414 263.772 l
314.321 264.565 l
315.227 263.249 l
316.134 259.198 l
317.041 259.849 l
317.947 260.009 l
318.854 258.308 l
319.761 255.595 l
320.668 256.566 l
321.575 254.273 l
322.481 255.41 l
324.295 251.158 l
325.202 247.046 l
326.108 248.245 l
327.015 247.127 l
327.922 245.025 l
328.829 244.85 l
329.735 243.416 l
330.642 240.228 l
331.549 241.131 l
332.456 241.622 l
333.362 240.833 l
334.269 238.447 l
335.176 234.417 l
336.083 233.032 l
336.989 233.543 l
338.803 233.795 l
339.709 230.342 l
340.616 229.342 l
341.523 225.642 l
342.43 227.701 l
343.337 223.434 l
344.243 222.901 l
345.15 225.642 l
346.057 222.721 l
346.964 223.609 l
347.87 216.772 l
348.777 220.283 l
349.684 208.534 l
350.591 214.735 l
351.497 212.554 l
352.404 207.663 l
353.311 212.048 l
354.218 209.381 l
356.031 206.153 l
356.938 209.381 l
357.845 208.819 l
358.751 202.543 l
359.658 199.623 l
360.565 198.051 l
361.471 181.303 l
362.378 189.235 l
363.285 179.877 l
364.192 189.768 l
365.099 190.807 l
366.005 186.422 l
366.912 175.993 l
367.819 177.606 l
368.726 178.382 l
369.632 173.402 l
370.539 177.606 l
371.446 180.598 l
372.353 176.81 l
373.259 176.81 l
374.166 172.487 l
375.073 165.181 l
375.98 176.81 l
376.886 169.566 l
377.793 167.452 l
378.7 167.452 l
379.607 163.979 l
380.513 162.728 l
381.42 160.062 l
382.327 168.527 l
383.233 162.728 l
384.14 155.57 l
385.047 155.57 l
385.954 158.636 l
386.861 150.303 l
387.767 152.161 l
388.674 152.161 l
389.581 129.063 l
390.488 141.488 l
391.394 146.211 l
392.301 143.941 l
393.208 124.971 l
395.021 132.672 l
395.928 143.941 l
396.835 146.211 l
397.742 141.488 l
398.648 120.247 l
399.555 132.672 l
400.462 107.822 l
401.369 107.822 l
402.275 114.66 l
403.182 124.971 l
404.089 107.822 l
404.995 124.971 l
405.902 86.5814 l
406.809 114.66 l
407.716 99.0064 l
408.623 86.5814 l
409.529 129.063 l
411.343 86.5814 l
412.25 107.822 l
413.156 114.66 l
414.063 86.5814 l
414.97 99.0064 l
415.877 65.3407 l
416.783 99.0064 l
420.41 99.0064 m
421.317 114.66 l
422.224 107.822 l
423.131 99.0064 l
424.037 86.5814 l
424.944 86.5814 l
425.851 65.3407 l
426.758 86.5814 l
427.664 86.5814 l
428.571 65.3407 l
429.478 65.3407 l
432.198 65.3407 m
433.105 99.0064 l
434.012 99.0064 l
434.918 65.3407 l
473.002 86.5814 m
473.909 86.5814 l
478.442 65.3407 m
stroke
grestore
0.500 setlinewidth
0 setlinecap
[1 3] 0 setdash
0.000 setgray
gsave
453.4 352.8 73.12 44.1 clipbox
73.125 44.1 m
73.125 396.9 l
stroke
grestore
[] 0 setdash
gsave
/o {
gsave
newpath
translate
0.5 setlinewidth
1 setlinejoin
0 setlinecap
0 0 m
0 4 l
gsave
0.000 setgray
fill
grestore
stroke
grestore
} bind def
73.125 44.1 o
grestore
gsave
/o {
gsave
newpath
translate
0.5 setlinewidth
1 setlinejoin
0 setlinecap
0 0 m
0 -4 l
gsave
0.000 setgray
fill
grestore
stroke
grestore
} bind def
73.125 396.9 o
grestore
/DejaVuSans findfont
12.000 scalefont
setfont
gsave
70.101562 30.975000 translate
0.000000 rotate
0.000000 0.000000 m /zero glyphshow
grestore
[1 3] 0 setdash
gsave
453.4 352.8 73.12 44.1 clipbox
163.8 44.1 m
163.8 396.9 l
stroke
grestore
[] 0 setdash
gsave
/o {
gsave
newpath
translate
0.5 setlinewidth
1 setlinejoin
0 setlinecap
0 0 m
0 4 l
gsave
0.000 setgray
fill
grestore
stroke
grestore
} bind def
163.8 44.1 o
grestore
gsave
/o {
gsave
newpath
translate
0.5 setlinewidth
1 setlinejoin
0 setlinecap
0 0 m
0 -4 l
gsave
0.000 setgray
fill
grestore
stroke
grestore
} bind def
163.8 396.9 o
grestore
gsave
153.198438 30.975000 translate
0.000000 rotate
0.000000 0.000000 m /five glyphshow
7.634766 0.000000 m /zero glyphshow
15.269531 0.000000 m /zero glyphshow
grestore
[1 3] 0 setdash
gsave
453.4 352.8 73.12 44.1 clipbox
254.475 44.1 m
254.475 396.9 l
stroke
grestore
[] 0 setdash
gsave
/o {
gsave
newpath
translate
0.5 setlinewidth
1 setlinejoin
0 setlinecap
0 0 m
0 4 l
gsave
0.000 setgray
fill
grestore
stroke
grestore
} bind def
254.475 44.1 o
grestore
gsave
/o {
gsave
newpath
translate
0.5 setlinewidth
1 setlinejoin
0 setlinecap
0 0 m
0 -4 l
gsave
0.000 setgray
fill
grestore
stroke
grestore
} bind def
254.475 396.9 o
grestore
gsave
240.248438 30.975000 translate
0.000000 rotate
0.000000 0.000000 m /one glyphshow
7.634766 0.000000 m /zero glyphshow
15.269531 0.000000 m /zero glyphshow
22.904297 0.000000 m /zero glyphshow
grestore
[1 3] 0 setdash
gsave
453.4 352.8 73.12 44.1 clipbox
345.15 44.1 m
345.15 396.9 l
stroke
grestore
[] 0 setdash
gsave
/o {
gsave
newpath
translate
0.5 setlinewidth
1 setlinejoin
0 setlinecap
0 0 m
0 4 l
gsave
0.000 setgray
fill
grestore
stroke
grestore
} bind def
345.15 44.1 o
grestore
gsave
/o {
gsave
newpath
translate
0.5 setlinewidth
1 setlinejoin
0 setlinecap
0 0 m
0 -4 l
gsave
0.000 setgray
fill
grestore
stroke
grestore
} bind def
345.15 396.9 o
grestore
gsave
330.923438 30.975000 translate
0.000000 rotate
0.000000 0.000000 m /one glyphshow
7.634766 0.000000 m /five glyphshow
15.269531 0.000000 m /zero glyphshow
22.904297 0.000000 m /zero glyphshow
grestore
[1 3] 0 setdash
gsave
453.4 352.8 73.12 44.1 clipbox
435.825 44.1 m
435.825 396.9 l
stroke
grestore
[] 0 setdash
gsave
/o {
gsave
newpath
translate
0.5 setlinewidth
1 setlinejoin
0 setlinecap
0 0 m
0 4 l
gsave
0.000 setgray
fill
grestore
stroke
grestore
} bind def
435.825 44.1 o
grestore
gsave
/o {
gsave
newpath
translate
0.5 setlinewidth
1 setlinejoin
0 setlinecap
0 0 m
0 -4 l
gsave
0.000 setgray
fill
grestore
stroke
grestore
} bind def
435.825 396.9 o
grestore
gsave
421.379688 30.975000 translate
0.000000 rotate
0.000000 0.000000 m /two glyphshow
7.634766 0.000000 m /zero glyphshow
15.269531 0.000000 m /zero glyphshow
22.904297 0.000000 m /zero glyphshow
grestore
[1 3] 0 setdash
gsave
453.4 352.8 73.12 44.1 clipbox
526.5 44.1 m
526.5 396.9 l
stroke
grestore
[] 0 setdash
gsave
/o {
gsave
newpath
translate
0.5 setlinewidth
1 setlinejoin
0 setlinecap
0 0 m
0 4 l
gsave
0.000 setgray
fill
grestore
stroke
grestore
} bind def
526.5 44.1 o
grestore
gsave
/o {
gsave
newpath
translate
0.5 setlinewidth
1 setlinejoin
0 setlinecap
0 0 m
0 -4 l
gsave
0.000 setgray
fill
grestore
stroke
grestore
} bind def
526.5 396.9 o
grestore
gsave
512.054688 30.975000 translate
0.000000 rotate
0.000000 0.000000 m /two glyphshow
7.634766 0.000000 m /five glyphshow
15.269531 0.000000 m /zero glyphshow
22.904297 0.000000 m /zero glyphshow
grestore
gsave
269.750000 14.350000 translate
0.000000 rotate
0.000000 0.000000 m /D glyphshow
9.240234 0.000000 m /e glyphshow
16.623047 0.000000 m /p glyphshow
24.240234 0.000000 m /t glyphshow
28.945312 0.000000 m /h glyphshow
36.550781 0.000000 m /comma glyphshow
40.365234 0.000000 m /space glyphshow
44.179688 0.000000 m /A glyphshow
52.388672 0.000000 m /U glyphshow
grestore
[1 3] 0 setdash
gsave
453.4 352.8 73.12 44.1 clipbox
73.125 44.1 m
526.5 44.1 l
stroke
grestore
[] 0 setdash
gsave
/o {
gsave
newpath
translate
0.5 setlinewidth
1 setlinejoin
0 setlinecap
0 0 m
4 0 l
gsave
0.000 setgray
fill
grestore
stroke
grestore
} bind def
73.125 44.1 o
grestore
gsave
/o {
gsave
newpath
translate
0.5 setlinewidth
1 setlinejoin
0 setlinecap
0 0 m
-4 0 l
gsave
0.000 setgray
fill
grestore
stroke
grestore
} bind def
526.5 44.1 o
grestore
gsave
44.125000 39.100000 translate
0.000000 rotate
/DejaVuSans findfont
12.0 scalefont
setfont
0.000000 0.937500 moveto
/one glyphshow

7.634766 0.937500 moveto
/zero glyphshow

/DejaVuSans findfont
8.4 scalefont
setfont
15.269531 7.875000 moveto
/hyphen glyphshow

18.300586 7.875000 moveto
/one glyphshow


grestore
[1 3] 0 setdash
gsave
453.4 352.8 73.12 44.1 clipbox
73.125 114.66 m
526.5 114.66 l
stroke
grestore
[] 0 setdash
gsave
/o {
gsave
newpath
translate
0.5 setlinewidth
1 setlinejoin
0 setlinecap
0 0 m
4 0 l
gsave
0.000 setgray
fill
grestore
stroke
grestore
} bind def
73.125 114.66 o
grestore
gsave
/o {
gsave
newpath
translate
0.5 setlinewidth
1 setlinejoin
0 setlinecap
0 0 m
-4 0 l
gsave
0.000 setgray
fill
grestore
stroke
grestore
} bind def
526.5 114.66 o
grestore
gsave
47.125000 109.660000 translate
0.000000 rotate
/DejaVuSans findfont
12.0 scalefont
setfont
0.000000 0.828125 moveto
/one glyphshow

7.634766 0.828125 moveto
/zero glyphshow

/DejaVuSans findfont
8.4 scalefont
setfont
15.269531 7.765625 moveto
/zero glyphshow


grestore
[1 3] 0 setdash
gsave
453.4 352.8 73.12 44.1 clipbox
73.125 185.22 m
526.5 185.22 l
stroke
grestore
[] 0 setdash
gsave
/o {
gsave
newpath
translate
0.5 setlinewidth
1 setlinejoin
0 setlinecap
0 0 m
4 0 l
gsave
0.000 setgray
fill
grestore
stroke
grestore
} bind def
73.125 185.22 o
grestore
gsave
/o {
gsave
newpath
translate
0.5 setlinewidth
1 setlinejoin
0 setlinecap
0 0 m
-4 0 l
gsave
0.000 setgray
fill
grestore
stroke
grestore
} bind def
526.5 185.22 o
grestore
gsave
47.125000 180.220000 translate
0.000000 rotate
/DejaVuSans findfont
12.0 scalefont
setfont
0.000000 0.937500 moveto
/one glyphshow

7.634766 0.937500 moveto
/zero glyphshow

/DejaVuSans findfont
8.4 scalefont
setfont
15.269531 7.875000 moveto
/one glyphshow


grestore
[1 3] 0 setdash
gsave
453.4 352.8 73.12 44.1 clipbox
73.125 255.78 m
526.5 255.78 l
stroke
grestore
[] 0 setdash
gsave
/o {
gsave
newpath
translate
0.5 setlinewidth
1 setlinejoin
0 setlinecap
0 0 m
4 0 l
gsave
0.000 setgray
fill
grestore
stroke
grestore
} bind def
73.125 255.78 o
grestore
gsave
/o {
gsave
newpath
translate
0.5 setlinewidth
1 setlinejoin
0 setlinecap
0 0 m
-4 0 l
gsave
0.000 setgray
fill
grestore
stroke
grestore
} bind def
526.5 255.78 o
grestore
gsave
47.125000 250.780000 translate
0.000000 rotate
/DejaVuSans findfont
12.0 scalefont
setfont
0.000000 0.828125 moveto
/one glyphshow

7.634766 0.828125 moveto
/zero glyphshow

/DejaVuSans findfont
8.4 scalefont
setfont
15.269531 7.765625 moveto
/two glyphshow


grestore
[1 3] 0 setdash
gsave
453.4 352.8 73.12 44.1 clipbox
73.125 326.34 m
526.5 326.34 l
stroke
grestore
[] 0 setdash
gsave
/o {
gsave
newpath
translate
0.5 setlinewidth
1 setlinejoin
0 setlinecap
0 0 m
4 0 l
gsave
0.000 setgray
fill
grestore
stroke
grestore
} bind def
73.125 326.34 o
grestore
gsave
/o {
gsave
newpath
translate
0.5 setlinewidth
1 setlinejoin
0 setlinecap
0 0 m
-4 0 l
gsave
0.000 setgray
fill
grestore
stroke
grestore
} bind def
526.5 326.34 o
grestore
gsave
47.125000 321.340000 translate
0.000000 rotate
/DejaVuSans findfont
12.0 scalefont
setfont
0.000000 0.828125 moveto
/one glyphshow

7.634766 0.828125 moveto
/zero glyphshow

/DejaVuSans findfont
8.4 scalefont
setfont
15.269531 7.765625 moveto
/three glyphshow


grestore
[1 3] 0 setdash
gsave
453.4 352.8 73.12 44.1 clipbox
73.125 396.9 m
526.5 396.9 l
stroke
grestore
[] 0 setdash
gsave
/o {
gsave
newpath
translate
0.5 setlinewidth
1 setlinejoin
0 setlinecap
0 0 m
4 0 l
gsave
0.000 setgray
fill
grestore
stroke
grestore
} bind def
73.125 396.9 o
grestore
gsave
/o {
gsave
newpath
translate
0.5 setlinewidth
1 setlinejoin
0 setlinecap
0 0 m
-4 0 l
gsave
0.000 setgray
fill
grestore
stroke
grestore
} bind def
526.5 396.9 o
grestore
gsave
47.125000 391.900000 translate
0.000000 rotate
/DejaVuSans findfont
12.0 scalefont
setfont
0.000000 0.937500 moveto
/one glyphshow

7.634766 0.937500 moveto
/zero glyphshow

/DejaVuSans findfont
8.4 scalefont
setfont
15.269531 7.875000 moveto
/four glyphshow


grestore
gsave
/o {
gsave
newpath
translate
0.5 setlinewidth
1 setlinejoin
0 setlinecap
0 0 m
2 0 l
gsave
0.000 setgray
fill
grestore
stroke
grestore
} bind def
73.125 65.3407 o
grestore
gsave
/o {
gsave
newpath
translate
0.5 setlinewidth
1 setlinejoin
0 setlinecap
0 0 m
-2 0 l
gsave
0.000 setgray
fill
grestore
stroke
grestore
} bind def
526.5 65.3407 o
grestore
gsave
/o {
gsave
newpath
translate
0.5 setlinewidth
1 setlinejoin
0 setlinecap
0 0 m
2 0 l
gsave
0.000 setgray
fill
grestore
stroke
grestore
} bind def
73.125 77.7657 o
grestore
gsave
/o {
gsave
newpath
translate
0.5 setlinewidth
1 setlinejoin
0 setlinecap
0 0 m
-2 0 l
gsave
0.000 setgray
fill
grestore
stroke
grestore
} bind def
526.5 77.7657 o
grestore
gsave
/o {
gsave
newpath
translate
0.5 setlinewidth
1 setlinejoin
0 setlinecap
0 0 m
2 0 l
gsave
0.000 setgray
fill
grestore
stroke
grestore
} bind def
73.125 86.5814 o
grestore
gsave
/o {
gsave
newpath
translate
0.5 setlinewidth
1 setlinejoin
0 setlinecap
0 0 m
-2 0 l
gsave
0.000 setgray
fill
grestore
stroke
grestore
} bind def
526.5 86.5814 o
grestore
gsave
/o {
gsave
newpath
translate
0.5 setlinewidth
1 setlinejoin
0 setlinecap
0 0 m
2 0 l
gsave
0.000 setgray
fill
grestore
stroke
grestore
} bind def
73.125 93.4193 o
grestore
gsave
/o {
gsave
newpath
translate
0.5 setlinewidth
1 setlinejoin
0 setlinecap
0 0 m
-2 0 l
gsave
0.000 setgray
fill
grestore
stroke
grestore
} bind def
526.5 93.4193 o
grestore
gsave
/o {
gsave
newpath
translate
0.5 setlinewidth
1 setlinejoin
0 setlinecap
0 0 m
2 0 l
gsave
0.000 setgray
fill
grestore
stroke
grestore
} bind def
73.125 99.0064 o
grestore
gsave
/o {
gsave
newpath
translate
0.5 setlinewidth
1 setlinejoin
0 setlinecap
0 0 m
-2 0 l
gsave
0.000 setgray
fill
grestore
stroke
grestore
} bind def
526.5 99.0064 o
grestore
gsave
/o {
gsave
newpath
translate
0.5 setlinewidth
1 setlinejoin
0 setlinecap
0 0 m
2 0 l
gsave
0.000 setgray
fill
grestore
stroke
grestore
} bind def
73.125 103.73 o
grestore
gsave
/o {
gsave
newpath
translate
0.5 setlinewidth
1 setlinejoin
0 setlinecap
0 0 m
-2 0 l
gsave
0.000 setgray
fill
grestore
stroke
grestore
} bind def
526.5 103.73 o
grestore
gsave
/o {
gsave
newpath
translate
0.5 setlinewidth
1 setlinejoin
0 setlinecap
0 0 m
2 0 l
gsave
0.000 setgray
fill
grestore
stroke
grestore
} bind def
73.125 107.822 o
grestore
gsave
/o {
gsave
newpath
translate
0.5 setlinewidth
1 setlinejoin
0 setlinecap
0 0 m
-2 0 l
gsave
0.000 setgray
fill
grestore
stroke
grestore
} bind def
526.5 107.822 o
grestore
gsave
/o {
gsave
newpath
translate
0.5 setlinewidth
1 setlinejoin
0 setlinecap
0 0 m
2 0 l
gsave
0.000 setgray
fill
grestore
stroke
grestore
} bind def
73.125 111.431 o
grestore
gsave
/o {
gsave
newpath
translate
0.5 setlinewidth
1 setlinejoin
0 setlinecap
0 0 m
-2 0 l
gsave
0.000 setgray
fill
grestore
stroke
grestore
} bind def
526.5 111.431 o
grestore
gsave
/o {
gsave
newpath
translate
0.5 setlinewidth
1 setlinejoin
0 setlinecap
0 0 m
2 0 l
gsave
0.000 setgray
fill
grestore
stroke
grestore
} bind def
73.125 135.901 o
grestore
gsave
/o {
gsave
newpath
translate
0.5 setlinewidth
1 setlinejoin
0 setlinecap
0 0 m
-2 0 l
gsave
0.000 setgray
fill
grestore
stroke
grestore
} bind def
526.5 135.901 o
grestore
gsave
/o {
gsave
newpath
translate
0.5 setlinewidth
1 setlinejoin
0 setlinecap
0 0 m
2 0 l
gsave
0.000 setgray
fill
grestore
stroke
grestore
} bind def
73.125 148.326 o
grestore
gsave
/o {
gsave
newpath
translate
0.5 setlinewidth
1 setlinejoin
0 setlinecap
0 0 m
-2 0 l
gsave
0.000 setgray
fill
grestore
stroke
grestore
} bind def
526.5 148.326 o
grestore
gsave
/o {
gsave
newpath
translate
0.5 setlinewidth
1 setlinejoin
0 setlinecap
0 0 m
2 0 l
gsave
0.000 setgray
fill
grestore
stroke
grestore
} bind def
73.125 157.141 o
grestore
gsave
/o {
gsave
newpath
translate
0.5 setlinewidth
1 setlinejoin
0 setlinecap
0 0 m
-2 0 l
gsave
0.000 setgray
fill
grestore
stroke
grestore
} bind def
526.5 157.141 o
grestore
gsave
/o {
gsave
newpath
translate
0.5 setlinewidth
1 setlinejoin
0 setlinecap
0 0 m
2 0 l
gsave
0.000 setgray
fill
grestore
stroke
grestore
} bind def
73.125 163.979 o
grestore
gsave
/o {
gsave
newpath
translate
0.5 setlinewidth
1 setlinejoin
0 setlinecap
0 0 m
-2 0 l
gsave
0.000 setgray
fill
grestore
stroke
grestore
} bind def
526.5 163.979 o
grestore
gsave
/o {
gsave
newpath
translate
0.5 setlinewidth
1 setlinejoin
0 setlinecap
0 0 m
2 0 l
gsave
0.000 setgray
fill
grestore
stroke
grestore
} bind def
73.125 169.566 o
grestore
gsave
/o {
gsave
newpath
translate
0.5 setlinewidth
1 setlinejoin
0 setlinecap
0 0 m
-2 0 l
gsave
0.000 setgray
fill
grestore
stroke
grestore
} bind def
526.5 169.566 o
grestore
gsave
/o {
gsave
newpath
translate
0.5 setlinewidth
1 setlinejoin
0 setlinecap
0 0 m
2 0 l
gsave
0.000 setgray
fill
grestore
stroke
grestore
} bind def
73.125 174.29 o
grestore
gsave
/o {
gsave
newpath
translate
0.5 setlinewidth
1 setlinejoin
0 setlinecap
0 0 m
-2 0 l
gsave
0.000 setgray
fill
grestore
stroke
grestore
} bind def
526.5 174.29 o
grestore
gsave
/o {
gsave
newpath
translate
0.5 setlinewidth
1 setlinejoin
0 setlinecap
0 0 m
2 0 l
gsave
0.000 setgray
fill
grestore
stroke
grestore
} bind def
73.125 178.382 o
grestore
gsave
/o {
gsave
newpath
translate
0.5 setlinewidth
1 setlinejoin
0 setlinecap
0 0 m
-2 0 l
gsave
0.000 setgray
fill
grestore
stroke
grestore
} bind def
526.5 178.382 o
grestore
gsave
/o {
gsave
newpath
translate
0.5 setlinewidth
1 setlinejoin
0 setlinecap
0 0 m
2 0 l
gsave
0.000 setgray
fill
grestore
stroke
grestore
} bind def
73.125 181.991 o
grestore
gsave
/o {
gsave
newpath
translate
0.5 setlinewidth
1 setlinejoin
0 setlinecap
0 0 m
-2 0 l
gsave
0.000 setgray
fill
grestore
stroke
grestore
} bind def
526.5 181.991 o
grestore
gsave
/o {
gsave
newpath
translate
0.5 setlinewidth
1 setlinejoin
0 setlinecap
0 0 m
2 0 l
gsave
0.000 setgray
fill
grestore
stroke
grestore
} bind def
73.125 206.461 o
grestore
gsave
/o {
gsave
newpath
translate
0.5 setlinewidth
1 setlinejoin
0 setlinecap
0 0 m
-2 0 l
gsave
0.000 setgray
fill
grestore
stroke
grestore
} bind def
526.5 206.461 o
grestore
gsave
/o {
gsave
newpath
translate
0.5 setlinewidth
1 setlinejoin
0 setlinecap
0 0 m
2 0 l
gsave
0.000 setgray
fill
grestore
stroke
grestore
} bind def
73.125 218.886 o
grestore
gsave
/o {
gsave
newpath
translate
0.5 setlinewidth
1 setlinejoin
0 setlinecap
0 0 m
-2 0 l
gsave
0.000 setgray
fill
grestore
stroke
grestore
} bind def
526.5 218.886 o
grestore
gsave
/o {
gsave
newpath
translate
0.5 setlinewidth
1 setlinejoin
0 setlinecap
0 0 m
2 0 l
gsave
0.000 setgray
fill
grestore
stroke
grestore
} bind def
73.125 227.701 o
grestore
gsave
/o {
gsave
newpath
translate
0.5 setlinewidth
1 setlinejoin
0 setlinecap
0 0 m
-2 0 l
gsave
0.000 setgray
fill
grestore
stroke
grestore
} bind def
526.5 227.701 o
grestore
gsave
/o {
gsave
newpath
translate
0.5 setlinewidth
1 setlinejoin
0 setlinecap
0 0 m
2 0 l
gsave
0.000 setgray
fill
grestore
stroke
grestore
} bind def
73.125 234.539 o
grestore
gsave
/o {
gsave
newpath
translate
0.5 setlinewidth
1 setlinejoin
0 setlinecap
0 0 m
-2 0 l
gsave
0.000 setgray
fill
grestore
stroke
grestore
} bind def
526.5 234.539 o
grestore
gsave
/o {
gsave
newpath
translate
0.5 setlinewidth
1 setlinejoin
0 setlinecap
0 0 m
2 0 l
gsave
0.000 setgray
fill
grestore
stroke
grestore
} bind def
73.125 240.126 o
grestore
gsave
/o {
gsave
newpath
translate
0.5 setlinewidth
1 setlinejoin
0 setlinecap
0 0 m
-2 0 l
gsave
0.000 setgray
fill
grestore
stroke
grestore
} bind def
526.5 240.126 o
grestore
gsave
/o {
gsave
newpath
translate
0.5 setlinewidth
1 setlinejoin
0 setlinecap
0 0 m
2 0 l
gsave
0.000 setgray
fill
grestore
stroke
grestore
} bind def
73.125 244.85 o
grestore
gsave
/o {
gsave
newpath
translate
0.5 setlinewidth
1 setlinejoin
0 setlinecap
0 0 m
-2 0 l
gsave
0.000 setgray
fill
grestore
stroke
grestore
} bind def
526.5 244.85 o
grestore
gsave
/o {
gsave
newpath
translate
0.5 setlinewidth
1 setlinejoin
0 setlinecap
0 0 m
2 0 l
gsave
0.000 setgray
fill
grestore
stroke
grestore
} bind def
73.125 248.942 o
grestore
gsave
/o {
gsave
newpath
translate
0.5 setlinewidth
1 setlinejoin
0 setlinecap
0 0 m
-2 0 l
gsave
0.000 setgray
fill
grestore
stroke
grestore
} bind def
526.5 248.942 o
grestore
gsave
/o {
gsave
newpath
translate
0.5 setlinewidth
1 setlinejoin
0 setlinecap
0 0 m
2 0 l
gsave
0.000 setgray
fill
grestore
stroke
grestore
} bind def
73.125 252.551 o
grestore
gsave
/o {
gsave
newpath
translate
0.5 setlinewidth
1 setlinejoin
0 setlinecap
0 0 m
-2 0 l
gsave
0.000 setgray
fill
grestore
stroke
grestore
} bind def
526.5 252.551 o
grestore
gsave
/o {
gsave
newpath
translate
0.5 setlinewidth
1 setlinejoin
0 setlinecap
0 0 m
2 0 l
gsave
0.000 setgray
fill
grestore
stroke
grestore
} bind def
73.125 277.021 o
grestore
gsave
/o {
gsave
newpath
translate
0.5 setlinewidth
1 setlinejoin
0 setlinecap
0 0 m
-2 0 l
gsave
0.000 setgray
fill
grestore
stroke
grestore
} bind def
526.5 277.021 o
grestore
gsave
/o {
gsave
newpath
translate
0.5 setlinewidth
1 setlinejoin
0 setlinecap
0 0 m
2 0 l
gsave
0.000 setgray
fill
grestore
stroke
grestore
} bind def
73.125 289.446 o
grestore
gsave
/o {
gsave
newpath
translate
0.5 setlinewidth
1 setlinejoin
0 setlinecap
0 0 m
-2 0 l
gsave
0.000 setgray
fill
grestore
stroke
grestore
} bind def
526.5 289.446 o
grestore
gsave
/o {
gsave
newpath
translate
0.5 setlinewidth
1 setlinejoin
0 setlinecap
0 0 m
2 0 l
gsave
0.000 setgray
fill
grestore
stroke
grestore
} bind def
73.125 298.261 o
grestore
gsave
/o {
gsave
newpath
translate
0.5 setlinewidth
1 setlinejoin
0 setlinecap
0 0 m
-2 0 l
gsave
0.000 setgray
fill
grestore
stroke
grestore
} bind def
526.5 298.261 o
grestore
gsave
/o {
gsave
newpath
translate
0.5 setlinewidth
1 setlinejoin
0 setlinecap
0 0 m
2 0 l
gsave
0.000 setgray
fill
grestore
stroke
grestore
} bind def
73.125 305.099 o
grestore
gsave
/o {
gsave
newpath
translate
0.5 setlinewidth
1 setlinejoin
0 setlinecap
0 0 m
-2 0 l
gsave
0.000 setgray
fill
grestore
stroke
grestore
} bind def
526.5 305.099 o
grestore
gsave
/o {
gsave
newpath
translate
0.5 setlinewidth
1 setlinejoin
0 setlinecap
0 0 m
2 0 l
gsave
0.000 setgray
fill
grestore
stroke
grestore
} bind def
73.125 310.686 o
grestore
gsave
/o {
gsave
newpath
translate
0.5 setlinewidth
1 setlinejoin
0 setlinecap
0 0 m
-2 0 l
gsave
0.000 setgray
fill
grestore
stroke
grestore
} bind def
526.5 310.686 o
grestore
gsave
/o {
gsave
newpath
translate
0.5 setlinewidth
1 setlinejoin
0 setlinecap
0 0 m
2 0 l
gsave
0.000 setgray
fill
grestore
stroke
grestore
} bind def
73.125 315.41 o
grestore
gsave
/o {
gsave
newpath
translate
0.5 setlinewidth
1 setlinejoin
0 setlinecap
0 0 m
-2 0 l
gsave
0.000 setgray
fill
grestore
stroke
grestore
} bind def
526.5 315.41 o
grestore
gsave
/o {
gsave
newpath
translate
0.5 setlinewidth
1 setlinejoin
0 setlinecap
0 0 m
2 0 l
gsave
0.000 setgray
fill
grestore
stroke
grestore
} bind def
73.125 319.502 o
grestore
gsave
/o {
gsave
newpath
translate
0.5 setlinewidth
1 setlinejoin
0 setlinecap
0 0 m
-2 0 l
gsave
0.000 setgray
fill
grestore
stroke
grestore
} bind def
526.5 319.502 o
grestore
gsave
/o {
gsave
newpath
translate
0.5 setlinewidth
1 setlinejoin
0 setlinecap
0 0 m
2 0 l
gsave
0.000 setgray
fill
grestore
stroke
grestore
} bind def
73.125 323.111 o
grestore
gsave
/o {
gsave
newpath
translate
0.5 setlinewidth
1 setlinejoin
0 setlinecap
0 0 m
-2 0 l
gsave
0.000 setgray
fill
grestore
stroke
grestore
} bind def
526.5 323.111 o
grestore
gsave
/o {
gsave
newpath
translate
0.5 setlinewidth
1 setlinejoin
0 setlinecap
0 0 m
2 0 l
gsave
0.000 setgray
fill
grestore
stroke
grestore
} bind def
73.125 347.581 o
grestore
gsave
/o {
gsave
newpath
translate
0.5 setlinewidth
1 setlinejoin
0 setlinecap
0 0 m
-2 0 l
gsave
0.000 setgray
fill
grestore
stroke
grestore
} bind def
526.5 347.581 o
grestore
gsave
/o {
gsave
newpath
translate
0.5 setlinewidth
1 setlinejoin
0 setlinecap
0 0 m
2 0 l
gsave
0.000 setgray
fill
grestore
stroke
grestore
} bind def
73.125 360.006 o
grestore
gsave
/o {
gsave
newpath
translate
0.5 setlinewidth
1 setlinejoin
0 setlinecap
0 0 m
-2 0 l
gsave
0.000 setgray
fill
grestore
stroke
grestore
} bind def
526.5 360.006 o
grestore
gsave
/o {
gsave
newpath
translate
0.5 setlinewidth
1 setlinejoin
0 setlinecap
0 0 m
2 0 l
gsave
0.000 setgray
fill
grestore
stroke
grestore
} bind def
73.125 368.821 o
grestore
gsave
/o {
gsave
newpath
translate
0.5 setlinewidth
1 setlinejoin
0 setlinecap
0 0 m
-2 0 l
gsave
0.000 setgray
fill
grestore
stroke
grestore
} bind def
526.5 368.821 o
grestore
gsave
/o {
gsave
newpath
translate
0.5 setlinewidth
1 setlinejoin
0 setlinecap
0 0 m
2 0 l
gsave
0.000 setgray
fill
grestore
stroke
grestore
} bind def
73.125 375.659 o
grestore
gsave
/o {
gsave
newpath
translate
0.5 setlinewidth
1 setlinejoin
0 setlinecap
0 0 m
-2 0 l
gsave
0.000 setgray
fill
grestore
stroke
grestore
} bind def
526.5 375.659 o
grestore
gsave
/o {
gsave
newpath
translate
0.5 setlinewidth
1 setlinejoin
0 setlinecap
0 0 m
2 0 l
gsave
0.000 setgray
fill
grestore
stroke
grestore
} bind def
73.125 381.246 o
grestore
gsave
/o {
gsave
newpath
translate
0.5 setlinewidth
1 setlinejoin
0 setlinecap
0 0 m
-2 0 l
gsave
0.000 setgray
fill
grestore
stroke
grestore
} bind def
526.5 381.246 o
grestore
gsave
/o {
gsave
newpath
translate
0.5 setlinewidth
1 setlinejoin
0 setlinecap
0 0 m
2 0 l
gsave
0.000 setgray
fill
grestore
stroke
grestore
} bind def
73.125 385.97 o
grestore
gsave
/o {
gsave
newpath
translate
0.5 setlinewidth
1 setlinejoin
0 setlinecap
0 0 m
-2 0 l
gsave
0.000 setgray
fill
grestore
stroke
grestore
} bind def
526.5 385.97 o
grestore
gsave
/o {
gsave
newpath
translate
0.5 setlinewidth
1 setlinejoin
0 setlinecap
0 0 m
2 0 l
gsave
0.000 setgray
fill
grestore
stroke
grestore
} bind def
73.125 390.062 o
grestore
gsave
/o {
gsave
newpath
translate
0.5 setlinewidth
1 setlinejoin
0 setlinecap
0 0 m
-2 0 l
gsave
0.000 setgray
fill
grestore
stroke
grestore
} bind def
526.5 390.062 o
grestore
gsave
/o {
gsave
newpath
translate
0.5 setlinewidth
1 setlinejoin
0 setlinecap
0 0 m
2 0 l
gsave
0.000 setgray
fill
grestore
stroke
grestore
} bind def
73.125 393.671 o
grestore
gsave
/o {
gsave
newpath
translate
0.5 setlinewidth
1 setlinejoin
0 setlinecap
0 0 m
-2 0 l
gsave
0.000 setgray
fill
grestore
stroke
grestore
} bind def
526.5 393.671 o
grestore
gsave
36.625000 155.367188 translate
90.000000 rotate
0.000000 0.000000 m /E glyphshow
7.582031 0.000000 m /n glyphshow
15.187500 0.000000 m /e glyphshow
22.570312 0.000000 m /r glyphshow
27.253906 0.000000 m /g glyphshow
34.871094 0.000000 m /y glyphshow
41.972656 0.000000 m /space glyphshow
45.787109 0.000000 m /D glyphshow
55.027344 0.000000 m /e glyphshow
62.410156 0.000000 m /p glyphshow
70.027344 0.000000 m /o glyphshow
77.369141 0.000000 m /s glyphshow
83.621094 0.000000 m /i glyphshow
86.955078 0.000000 m /t glyphshow
91.660156 0.000000 m /e glyphshow
99.042969 0.000000 m /d glyphshow
106.660156 0.000000 m /comma glyphshow
110.474609 0.000000 m /space glyphshow
114.289062 0.000000 m /A glyphshow
122.498047 0.000000 m /U glyphshow
grestore
1.000 setlinewidth
gsave
73.125 396.9 m
526.5 396.9 l
stroke
grestore
gsave
526.5 44.1 m
526.5 396.9 l
stroke
grestore
gsave
73.125 44.1 m
526.5 44.1 l
stroke
grestore
gsave
73.125 44.1 m
73.125 396.9 l
stroke
grestore

end
showpage
