%!PS-Adobe-3.0 EPSF-3.0
%%Title: /home/martin/git-repos/hendricks-course/assignments/assignment-2/latex/plots/MSDxyz_overlap.eps
%%Creator: matplotlib version 1.3.1, http://matplotlib.org/
%%CreationDate: Sun Oct  4 00:33:12 2015
%%Orientation: portrait
%%BoundingBox: -1 89 613 702
%%EndComments
%%BeginProlog
/mpldict 11 dict def
mpldict begin
/m { moveto } bind def
/l { lineto } bind def
/r { rlineto } bind def
/c { curveto } bind def
/cl { closepath } bind def
/box {
m
1 index 0 r
0 exch r
neg 0 r
cl
} bind def
/clipbox {
box
clip
newpath
} bind def
%!PS-Adobe-3.0 Resource-Font
%%Title: cmr10
%%Copyright: Copyright (C) 1994, Basil K. Malyshev. All Rights Reserved.012BaKoMa Fonts Collection, Level-B.
%%Creator: Converted from TrueType to type 3 by PPR
25 dict begin
/_d{bind def}bind def
/_m{moveto}_d
/_l{lineto}_d
/_cl{closepath eofill}_d
/_c{curveto}_d
/_sc{7 -1 roll{setcachedevice}{pop pop pop pop pop pop}ifelse}_d
/_e{exec}_d
/FontName /Cmr10 def
/PaintType 0 def
/FontMatrix[.001 0 0 .001 0 0]def
/FontBBox[-44 -250 1009 750]def
/FontType 3 def
/Encoding [ /nine /zero /four /one /three ] def
/FontInfo 10 dict dup begin
/FamilyName (cmr10) def
/FullName (cmr10) def
/Notice (Copyright (C) 1994, Basil K. Malyshev. All Rights Reserved.012BaKoMa Fonts Collection, Level-B. ) def
/Weight (Regular) def
/Version (1.1/12-Nov-94) def
/ItalicAngle 0.0 def
/isFixedPitch false def
/UnderlinePosition -133 def
/UnderlineThickness 20 def
end readonly def
/CharStrings 5 dict dup begin
/nine{{500 0 42 -21 457 666 _sc
113 42 _m
131 20 162 10 208 10 _c
233 10 257 18 279 36 _c
301 53 318 74 330 99 _c
344 127 353 158 357 190 _c
361 222 363 261 363 309 _c
351 282 335 260 314 243 _c
292 225 268 217 240 217 _c
201 217 166 227 136 248 _c
106 269 82 297 66 331 _c
50 365 42 402 42 441 _c
42 481 51 518 69 553 _c
87 587 113 615 145 635 _c
}_e{177 655 213 666 255 666 _c
295 666 328 655 356 633 _c
383 611 404 582 418 548 _c
432 513 442 476 448 438 _c
454 399 457 361 457 323 _c
457 271 447 219 428 165 _c
409 111 381 67 344 32 _c
306 -3 261 -21 208 -21 _c
168 -21 135 -12 108 6 _c
80 24 67 52 67 90 _c
67 103 71 114 81 124 _c
90 133 101 138 115 138 _c
128 138 139 133 149 124 _c
}_e{158 114 163 103 163 90 _c
163 76 158 65 149 56 _c
139 46 128 42 115 42 _c
113 42 _l
244 243 _m
271 243 293 252 311 270 _c
328 288 341 311 349 339 _c
357 366 361 393 361 421 _c
361 440 _l
361 444 _l
361 494 353 538 339 578 _c
324 617 296 637 255 637 _c
228 637 206 631 190 620 _c
174 608 162 593 154 574 _c
146 554 141 534 139 512 _c
137 490 136 466 136 441 _c
}_e{136 403 137 370 141 344 _c
145 317 155 293 171 273 _c
187 253 211 243 244 243 _c
_cl}_e}_d
/zero{{500 0 39 -21 460 666 _sc
250 -21 _m
168 -21 112 12 83 79 _c
53 146 39 226 39 319 _c
39 377 44 431 55 482 _c
65 533 86 576 118 612 _c
149 648 193 666 250 666 _c
294 666 330 655 358 634 _c
386 612 407 585 422 551 _c
436 517 446 480 452 441 _c
457 402 460 361 460 319 _c
460 261 454 208 444 158 _c
433 108 412 65 381 31 _c
350 -3 306 -21 250 -21 _c
250 4 _m
}_e{287 4 315 23 333 61 _c
351 99 362 141 366 187 _c
370 233 373 283 373 335 _c
373 385 370 431 366 473 _c
362 515 351 554 333 588 _c
315 622 287 640 250 640 _c
212 640 184 622 166 588 _c
148 554 136 515 132 473 _c
128 431 126 385 126 335 _c
126 297 126 262 128 230 _c
130 197 135 163 143 128 _c
151 93 163 64 181 40 _c
198 16 221 4 250 4 _c
_cl}_e}_d
/four{{500 0 28 0 471 666 _sc
28 165 _m
28 200 _l
337 661 _l
339 664 342 666 347 666 _c
362 666 _l
369 666 373 662 373 655 _c
373 200 _l
471 200 _l
471 165 _l
373 165 _l
373 67 _l
373 53 382 44 402 40 _c
422 36 444 35 470 35 _c
470 0 _l
195 0 _l
195 35 _l
220 35 242 36 262 40 _c
282 44 292 53 292 67 _c
292 165 _l
28 165 _l
61 200 _m
298 200 _l
}_e{298 554 _l
61 200 _l
_cl}_e}_d
/one{500 0 87 0 421 666 _sc
93 0 _m
93 35 _l
176 35 218 45 218 67 _c
218 592 _l
183 575 139 567 87 567 _c
87 602 _l
168 602 230 623 272 666 _c
286 666 _l
288 666 291 665 293 663 _c
295 661 296 659 296 657 _c
296 67 _l
296 45 337 35 421 35 _c
421 0 _l
93 0 _l
_cl}_d
/three{{500 0 42 -21 457 666 _sc
95 77 _m
111 54 132 37 158 26 _c
184 15 213 10 243 10 _c
281 10 309 26 325 59 _c
341 92 350 130 350 172 _c
350 190 348 209 345 228 _c
341 247 335 265 327 281 _c
319 297 308 310 294 320 _c
280 330 262 335 242 335 _c
176 335 _l
170 335 167 338 167 344 _c
167 353 _l
167 358 170 361 176 361 _c
231 365 _l
254 365 273 373 289 391 _c
}_e{305 409 316 430 323 456 _c
330 481 334 505 334 528 _c
334 560 326 586 311 606 _c
296 626 273 637 243 637 _c
217 637 193 632 170 622 _c
147 612 129 598 115 579 _c
116 579 117 580 118 580 _c
119 580 120 580 122 580 _c
137 580 150 574 160 564 _c
170 554 175 541 175 527 _c
175 512 170 499 160 489 _c
150 479 137 474 122 474 _c
107 474 94 479 84 489 _c
}_e{74 499 69 512 69 527 _c
69 555 77 580 95 601 _c
112 622 134 638 161 649 _c
188 660 215 666 243 666 _c
263 666 284 663 307 657 _c
329 651 350 642 368 631 _c
386 619 401 605 413 588 _c
424 570 430 550 430 528 _c
430 500 423 474 411 450 _c
399 426 382 406 360 389 _c
338 371 314 358 288 350 _c
317 344 345 333 371 317 _c
397 301 417 280 433 255 _c
}_e{449 229 457 202 457 173 _c
457 136 446 103 426 73 _c
406 43 379 19 347 3 _c
314 -13 279 -21 243 -21 _c
211 -21 180 -15 149 -3 _c
117 8 92 25 72 49 _c
52 73 42 101 42 135 _c
42 151 47 165 58 176 _c
69 187 83 193 100 193 _c
110 193 120 190 129 185 _c
138 180 145 173 150 164 _c
155 154 158 145 158 135 _c
158 118 152 104 141 93 _c
}_e{129 82 116 77 100 77 _c
95 77 _l
_cl}_e}_d
end readonly def

/BuildGlyph
 {exch begin
 CharStrings exch
 2 copy known not{pop /.notdef}if
 true 3 1 roll get exec
 end}_d

/BuildChar {
 1 index /Encoding get exch get
 1 index /BuildGlyph get exec
}_d

FontName currentdict end definefont pop
%!PS-Adobe-3.0 Resource-Font
%%Title: cmsy10
%%Copyright: Copyright (C) 1994, Basil K. Malyshev. All Rights Reserved.012BaKoMa Fonts Collection, Level-B.
%%Creator: Converted from TrueType to type 3 by PPR
25 dict begin
/_d{bind def}bind def
/_m{moveto}_d
/_l{lineto}_d
/_cl{closepath eofill}_d
/_c{curveto}_d
/_sc{7 -1 roll{setcachedevice}{pop pop pop pop pop pop}ifelse}_d
/_e{exec}_d
/FontName /Cmsy10 def
/PaintType 0 def
/FontMatrix[.001 0 0 .001 0 0]def
/FontBBox[-29 -960 1123 779]def
/FontType 3 def
/Encoding [ /approxequal ] def
/FontInfo 10 dict dup begin
/FamilyName (cmsy10) def
/FullName (cmsy10) def
/Notice (Copyright (C) 1994, Basil K. Malyshev. All Rights Reserved.012BaKoMa Fonts Collection, Level-B. ) def
/Weight (Regular) def
/Version (1.1/12-Nov-94) def
/ItalicAngle 0.0 def
/isFixedPitch false def
/UnderlinePosition -133 def
/UnderlineThickness 20 def
end readonly def
/CharStrings 1 dict dup begin
/approxequal{{777 0 56 56 721 483 _sc
70 56 _m
62 56 58 64 56 81 _c
56 87 _l
56 117 63 144 78 170 _c
93 195 113 215 139 229 _c
165 243 192 250 222 250 _c
258 250 295 238 333 215 _c
371 192 408 169 446 146 _c
483 123 519 112 555 112 _c
589 112 620 122 649 143 _c
678 164 693 191 693 225 _c
695 241 699 250 707 250 _c
714 250 719 241 721 225 _c
721 219 _l
}_e{721 189 713 161 698 136 _c
683 111 663 91 638 77 _c
612 63 585 56 555 56 _c
527 56 500 61 476 73 _c
451 85 422 102 389 124 _c
356 146 327 164 302 176 _c
277 188 250 194 222 194 _c
200 194 179 189 157 180 _c
135 170 118 157 104 140 _c
90 122 84 103 84 81 _c
82 64 77 56 70 56 _c
70 289 _m
62 289 58 297 56 314 _c
56 320 _l
56 350 63 377 78 402 _c
}_e{93 427 113 447 139 461 _c
165 475 192 483 222 483 _c
258 483 295 471 333 448 _c
371 425 408 402 446 379 _c
483 356 519 345 555 345 _c
589 345 620 355 649 377 _c
678 398 693 425 693 458 _c
695 474 699 483 707 483 _c
714 483 719 474 721 458 _c
721 452 _l
721 422 713 394 698 369 _c
683 344 663 324 638 310 _c
612 296 585 289 555 289 _c
527 289 500 294 476 306 _c
}_e{451 318 422 335 389 357 _c
356 379 327 397 302 409 _c
277 421 250 427 222 427 _c
200 427 179 422 157 412 _c
135 402 118 389 104 372 _c
90 355 84 336 84 314 _c
82 297 77 289 70 289 _c
_cl}_e}_d
end readonly def

/BuildGlyph
 {exch begin
 CharStrings exch
 2 copy known not{pop /.notdef}if
 true 3 1 roll get exec
 end}_d

/BuildChar {
 1 index /Encoding get exch get
 1 index /BuildGlyph get exec
}_d

FontName currentdict end definefont pop
%!PS-Adobe-3.0 Resource-Font
%%Title: cmmi10
%%Copyright: Copyright (C) 1994, Basil K. Malyshev. All Rights Reserved.012BaKoMa Fonts Collection, Level-B.
%%Creator: Converted from TrueType to type 3 by PPR
25 dict begin
/_d{bind def}bind def
/_m{moveto}_d
/_l{lineto}_d
/_cl{closepath eofill}_d
/_c{curveto}_d
/_sc{7 -1 roll{setcachedevice}{pop pop pop pop pop pop}ifelse}_d
/_e{exec}_d
/FontName /Cmmi10 def
/PaintType 0 def
/FontMatrix[.001 0 0 .001 0 0]def
/FontBBox[-34 -250 1048 750]def
/FontType 3 def
/Encoding [ /period /D /x /z /y ] def
/FontInfo 10 dict dup begin
/FamilyName (cmmi10) def
/FullName (cmmi10) def
/Notice (Copyright (C) 1994, Basil K. Malyshev. All Rights Reserved.012BaKoMa Fonts Collection, Level-B. ) def
/Weight (Regular) def
/Version (1.1/12-Nov-94) def
/ItalicAngle 0.0 def
/isFixedPitch false def
/UnderlinePosition -133 def
/UnderlineThickness 20 def
end readonly def
/CharStrings 5 dict dup begin
/period{277 0 84 0 194 110 _sc
84 55 _m
84 70 89 83 100 94 _c
111 104 124 110 139 110 _c
148 110 157 107 166 102 _c
174 97 181 90 186 82 _c
191 73 194 64 194 55 _c
194 40 188 27 178 16 _c
167 5 154 0 139 0 _c
124 0 111 5 100 16 _c
89 27 84 40 84 55 _c
_cl}_d
/D{{827 0 39 0 803 683 _sc
49 0 _m
42 0 39 4 39 13 _c
39 15 40 18 41 22 _c
41 26 43 29 45 31 _c
47 33 49 35 52 35 _c
92 35 121 37 137 42 _c
145 44 152 53 156 69 _c
293 618 _l
294 624 295 629 295 632 _c
295 639 291 643 283 644 _c
270 646 246 648 211 648 _c
204 648 201 652 201 661 _c
201 663 202 666 203 670 _c
204 674 205 677 207 679 _c
}_e{209 681 211 683 214 683 _c
573 683 _l
619 683 660 671 695 649 _c
730 626 757 595 775 557 _c
793 519 803 477 803 431 _c
803 379 792 328 771 277 _c
750 226 720 179 682 137 _c
644 95 600 61 552 37 _c
503 12 453 0 402 0 _c
49 0 _l
236 43 _m
236 37 247 35 270 35 _c
386 35 _l
423 35 459 42 493 58 _c
527 73 558 94 586 121 _c
611 146 633 179 652 220 _c
}_e{671 260 686 303 697 347 _c
707 391 713 432 713 469 _c
713 496 709 520 701 542 _c
693 564 681 582 667 598 _c
653 614 635 626 613 635 _c
591 643 566 648 539 648 _c
429 648 _l
411 648 399 646 393 643 _c
387 640 381 630 377 614 _c
240 65 _l
237 57 236 49 236 43 _c
_cl}_e}_d
/x{{571 0 31 -10 526 442 _sc
78 29 _m
90 19 106 15 128 15 _c
148 15 167 25 183 45 _c
199 65 210 87 216 111 _c
261 288 _l
268 320 272 342 272 354 _c
272 370 267 385 258 397 _c
248 409 235 416 219 416 _c
198 416 178 409 160 396 _c
141 382 125 365 113 345 _c
100 325 91 304 86 284 _c
84 280 82 278 78 278 _c
66 278 _l
60 278 58 281 58 287 _c
58 290 _l
}_e{64 314 75 338 91 362 _c
107 386 126 405 149 420 _c
171 434 195 442 221 442 _c
245 442 267 435 287 422 _c
307 409 321 391 329 369 _c
340 389 354 407 372 421 _c
390 435 409 442 431 442 _c
445 442 460 439 475 434 _c
490 429 502 421 512 411 _c
521 401 526 388 526 372 _c
526 355 520 340 509 328 _c
498 316 484 310 468 310 _c
457 310 448 313 441 320 _c
}_e{433 327 430 336 430 346 _c
430 360 434 372 444 383 _c
454 393 465 400 479 402 _c
467 411 450 416 429 416 _c
407 416 389 406 373 386 _c
357 366 346 344 340 320 _c
296 143 _l
288 116 285 94 285 77 _c
285 60 289 45 299 33 _c
309 21 322 15 338 15 _c
369 15 397 28 421 56 _c
445 84 462 114 470 147 _c
471 151 474 153 478 153 _c
490 153 _l
492 153 494 152 496 150 _c
}_e{498 148 499 146 499 144 _c
499 143 498 142 498 141 _c
488 101 468 66 438 36 _c
408 5 374 -10 336 -10 _c
311 -10 289 -3 269 9 _c
249 21 236 39 228 62 _c
217 42 202 25 184 11 _c
166 -3 146 -10 126 -10 _c
111 -10 96 -7 81 -3 _c
66 1 54 9 45 19 _c
35 29 31 43 31 59 _c
31 75 36 89 47 102 _c
57 114 71 121 88 121 _c
}_e{98 121 107 117 115 111 _c
123 104 127 95 127 85 _c
127 71 122 58 113 48 _c
103 38 92 31 78 29 _c
_cl}_e}_d
/z{{465 0 41 -10 468 442 _sc
49 -10 _m
43 -10 41 -7 41 -1 _c
41 1 41 3 43 5 _c
61 35 82 65 108 93 _c
133 121 162 150 194 179 _c
226 207 258 236 290 265 _c
322 294 349 320 369 343 _c
365 343 _l
350 343 328 347 300 357 _c
272 366 250 371 234 371 _c
216 371 199 367 183 359 _c
166 351 155 340 151 324 _c
149 319 147 317 143 317 _c
131 317 _l
}_e{125 317 123 320 123 327 _c
123 330 _l
128 349 137 367 149 384 _c
161 401 175 415 193 426 _c
210 436 228 442 247 442 _c
260 442 271 439 280 433 _c
288 427 299 417 311 405 _c
323 392 332 383 340 377 _c
347 371 356 369 367 369 _c
381 369 394 375 406 389 _c
418 402 429 419 441 439 _c
443 441 445 442 448 442 _c
460 442 _l
462 442 463 441 465 439 _c
467 437 468 435 468 433 _c
}_e{468 431 467 429 466 427 _c
448 395 427 366 403 340 _c
379 313 347 282 309 248 _c
270 213 237 184 211 160 _c
185 136 160 111 137 86 _c
142 87 149 88 158 88 _c
174 88 197 83 225 74 _c
253 64 274 60 290 60 _c
306 60 323 63 340 71 _c
357 78 372 88 384 101 _c
396 114 405 129 409 146 _c
411 150 413 153 417 153 _c
429 153 _l
431 153 433 151 435 149 _c
}_e{437 147 438 145 438 143 _c
438 142 437 141 437 140 _c
431 114 420 90 405 67 _c
389 44 370 25 348 11 _c
326 -3 302 -10 277 -10 _c
264 -10 253 -7 244 -2 _c
235 3 225 12 213 25 _c
201 38 192 47 184 53 _c
176 59 167 62 157 62 _c
123 62 94 39 68 -7 _c
65 -9 63 -10 61 -10 _c
49 -10 _l
_cl}_e}_d
/y{{490 0 27 -204 492 442 _sc
84 -142 _m
98 -166 122 -178 157 -178 _c
189 -178 216 -167 239 -145 _c
262 -123 281 -96 295 -65 _c
309 -33 320 -1 328 31 _c
298 3 266 -10 232 -10 _c
205 -10 182 -5 164 3 _c
146 11 131 25 121 43 _c
111 61 106 83 106 109 _c
106 131 109 153 115 176 _c
121 198 129 224 139 252 _c
149 280 159 305 167 326 _c
175 350 180 370 180 386 _c
}_e{180 406 172 416 158 416 _c
132 416 110 402 93 375 _c
75 347 63 317 55 284 _c
53 280 51 278 47 278 _c
35 278 _l
29 278 27 281 27 287 _c
27 290 _l
37 330 54 365 76 396 _c
98 426 126 442 160 442 _c
184 442 204 434 220 418 _c
236 402 245 383 245 359 _c
245 346 242 333 237 320 _c
233 312 226 294 216 267 _c
206 239 198 217 193 199 _c
187 181 183 163 179 146 _c
}_e{175 128 174 111 174 94 _c
174 72 178 53 188 38 _c
197 22 212 15 233 15 _c
274 15 311 40 344 91 _c
420 399 _l
422 407 427 415 435 421 _c
443 427 452 431 462 431 _c
470 431 477 428 483 423 _c
489 418 492 411 492 403 _c
492 399 491 396 491 395 _c
392 -2 _l
383 -36 367 -68 344 -100 _c
320 -131 292 -156 259 -175 _c
225 -194 191 -204 156 -204 _c
138 -204 121 -200 104 -194 _c
}_e{87 -187 73 -177 63 -164 _c
53 -150 48 -135 48 -117 _c
48 -99 53 -83 64 -70 _c
74 -56 89 -50 107 -50 _c
117 -50 126 -53 134 -60 _c
141 -66 145 -75 145 -86 _c
145 -101 139 -114 128 -126 _c
116 -137 103 -143 88 -143 _c
87 -143 86 -142 86 -142 _c
85 -142 84 -142 84 -142 _c
_cl}_e}_d
end readonly def

/BuildGlyph
 {exch begin
 CharStrings exch
 2 copy known not{pop /.notdef}if
 true 3 1 roll get exec
 end}_d

/BuildChar {
 1 index /Encoding get exch get
 1 index /BuildGlyph get exec
}_d

FontName currentdict end definefont pop
%!PS-Adobe-3.0 Resource-Font
%%Title: DejaVu Sans
%%Copyright: Copyright (c) 2003 by Bitstream, Inc. All Rights Reserved. Copyright (c) 2006 by Tavmjong Bah. All Rights Reserved. DejaVu changes are in public domain 
%%Creator: Converted from TrueType to type 3 by PPR
25 dict begin
/_d{bind def}bind def
/_m{moveto}_d
/_l{lineto}_d
/_cl{closepath eofill}_d
/_c{curveto}_d
/_sc{7 -1 roll{setcachedevice}{pop pop pop pop pop pop}ifelse}_d
/_e{exec}_d
/FontName /DejaVuSans def
/PaintType 0 def
/FontMatrix[.001 0 0 .001 0 0]def
/FontBBox[-1021 -415 1681 1167]def
/FontType 3 def
/Encoding [ /space /hyphen /zero /one /two /three /four /five /six /seven /eight /B /C /D /E /M /S /T /U /W /a /c /d /e /f /g /h /i /l /m /n /o /p /r /s /t /u /v /w /x /asciitilde ] def
/FontInfo 10 dict dup begin
/FamilyName (DejaVu Sans) def
/FullName (DejaVu Sans) def
/Notice (Copyright (c) 2003 by Bitstream, Inc. All Rights Reserved. Copyright (c) 2006 by Tavmjong Bah. All Rights Reserved. DejaVu changes are in public domain ) def
/Weight (Book) def
/Version (Version 2.34) def
/ItalicAngle 0.0 def
/isFixedPitch false def
/UnderlinePosition -130 def
/UnderlineThickness 90 def
end readonly def
/CharStrings 41 dict dup begin
/space{318 0 0 0 0 0 _sc
}_d
/hyphen{361 0 49 234 312 314 _sc
49 314 _m
312 314 _l
312 234 _l
49 234 _l
49 314 _l
_cl}_d
/zero{636 0 66 -13 570 742 _sc
318 664 _m
267 664 229 639 203 589 _c
177 539 165 464 165 364 _c
165 264 177 189 203 139 _c
229 89 267 64 318 64 _c
369 64 407 89 433 139 _c
458 189 471 264 471 364 _c
471 464 458 539 433 589 _c
407 639 369 664 318 664 _c
318 742 _m
399 742 461 709 505 645 _c
548 580 570 486 570 364 _c
570 241 548 147 505 83 _c
461 19 399 -13 318 -13 _c
236 -13 173 19 130 83 _c
87 147 66 241 66 364 _c
66 486 87 580 130 645 _c
173 709 236 742 318 742 _c
_cl}_d
/one{636 0 110 0 544 729 _sc
124 83 _m
285 83 _l
285 639 _l
110 604 _l
110 694 _l
284 729 _l
383 729 _l
383 83 _l
544 83 _l
544 0 _l
124 0 _l
124 83 _l
_cl}_d
/two{{636 0 73 0 536 742 _sc
192 83 _m
536 83 _l
536 0 _l
73 0 _l
73 83 _l
110 121 161 173 226 239 _c
290 304 331 346 348 365 _c
380 400 402 430 414 455 _c
426 479 433 504 433 528 _c
433 566 419 598 392 622 _c
365 646 330 659 286 659 _c
255 659 222 653 188 643 _c
154 632 117 616 78 594 _c
78 694 _l
118 710 155 722 189 730 _c
223 738 255 742 284 742 _c
}_e{359 742 419 723 464 685 _c
509 647 532 597 532 534 _c
532 504 526 475 515 449 _c
504 422 484 390 454 354 _c
446 344 420 317 376 272 _c
332 227 271 164 192 83 _c
_cl}_e}_d
/three{{636 0 76 -13 556 742 _sc
406 393 _m
453 383 490 362 516 330 _c
542 298 556 258 556 212 _c
556 140 531 84 482 45 _c
432 6 362 -13 271 -13 _c
240 -13 208 -10 176 -4 _c
144 1 110 10 76 22 _c
76 117 _l
103 101 133 89 166 81 _c
198 73 232 69 268 69 _c
330 69 377 81 409 105 _c
441 129 458 165 458 212 _c
458 254 443 288 413 312 _c
383 336 341 349 287 349 _c
}_e{202 349 _l
202 430 _l
291 430 _l
339 430 376 439 402 459 _c
428 478 441 506 441 543 _c
441 580 427 609 401 629 _c
374 649 336 659 287 659 _c
260 659 231 656 200 650 _c
169 644 135 635 98 623 _c
98 711 _l
135 721 170 729 203 734 _c
235 739 266 742 296 742 _c
370 742 429 725 473 691 _c
517 657 539 611 539 553 _c
539 513 527 479 504 451 _c
481 423 448 403 406 393 _c
_cl}_e}_d
/four{636 0 49 0 580 729 _sc
378 643 _m
129 254 _l
378 254 _l
378 643 _l
352 729 _m
476 729 _l
476 254 _l
580 254 _l
580 172 _l
476 172 _l
476 0 _l
378 0 _l
378 172 _l
49 172 _l
49 267 _l
352 729 _l
_cl}_d
/five{{636 0 77 -13 549 729 _sc
108 729 _m
495 729 _l
495 646 _l
198 646 _l
198 467 _l
212 472 227 476 241 478 _c
255 480 270 482 284 482 _c
365 482 429 459 477 415 _c
525 370 549 310 549 234 _c
549 155 524 94 475 51 _c
426 8 357 -13 269 -13 _c
238 -13 207 -10 175 -6 _c
143 -1 111 6 77 17 _c
77 116 _l
106 100 136 88 168 80 _c
199 72 232 69 267 69 _c
}_e{323 69 368 83 401 113 _c
433 143 450 183 450 234 _c
450 284 433 324 401 354 _c
368 384 323 399 267 399 _c
241 399 214 396 188 390 _c
162 384 135 375 108 363 _c
108 729 _l
_cl}_e}_d
/six{{636 0 70 -13 573 742 _sc
330 404 _m
286 404 251 388 225 358 _c
199 328 186 286 186 234 _c
186 181 199 139 225 109 _c
251 79 286 64 330 64 _c
374 64 409 79 435 109 _c
461 139 474 181 474 234 _c
474 286 461 328 435 358 _c
409 388 374 404 330 404 _c
526 713 _m
526 623 _l
501 635 476 644 451 650 _c
425 656 400 659 376 659 _c
310 659 260 637 226 593 _c
}_e{192 549 172 482 168 394 _c
187 422 211 444 240 459 _c
269 474 301 482 336 482 _c
409 482 467 459 509 415 _c
551 371 573 310 573 234 _c
573 159 550 99 506 54 _c
462 9 403 -13 330 -13 _c
246 -13 181 19 137 83 _c
92 147 70 241 70 364 _c
70 479 97 571 152 639 _c
206 707 280 742 372 742 _c
396 742 421 739 447 735 _c
472 730 498 723 526 713 _c
_cl}_e}_d
/seven{636 0 82 0 551 729 _sc
82 729 _m
551 729 _l
551 687 _l
286 0 _l
183 0 _l
432 646 _l
82 646 _l
82 729 _l
_cl}_d
/eight{{636 0 68 -13 568 742 _sc
318 346 _m
271 346 234 333 207 308 _c
180 283 167 249 167 205 _c
167 161 180 126 207 101 _c
234 76 271 64 318 64 _c
364 64 401 76 428 102 _c
455 127 469 161 469 205 _c
469 249 455 283 429 308 _c
402 333 365 346 318 346 _c
219 388 _m
177 398 144 418 120 447 _c
96 476 85 511 85 553 _c
85 611 105 657 147 691 _c
188 725 245 742 318 742 _c
}_e{390 742 447 725 489 691 _c
530 657 551 611 551 553 _c
551 511 539 476 515 447 _c
491 418 459 398 417 388 _c
464 377 501 355 528 323 _c
554 291 568 251 568 205 _c
568 134 546 80 503 43 _c
459 5 398 -13 318 -13 _c
237 -13 175 5 132 43 _c
89 80 68 134 68 205 _c
68 251 81 291 108 323 _c
134 355 171 377 219 388 _c
183 544 _m
183 506 194 476 218 455 _c
}_e{242 434 275 424 318 424 _c
360 424 393 434 417 455 _c
441 476 453 506 453 544 _c
453 582 441 611 417 632 _c
393 653 360 664 318 664 _c
275 664 242 653 218 632 _c
194 611 183 582 183 544 _c
_cl}_e}_d
/B{{686 0 98 0 615 729 _sc
197 348 _m
197 81 _l
355 81 _l
408 81 447 92 473 114 _c
498 136 511 169 511 215 _c
511 260 498 293 473 315 _c
447 337 408 348 355 348 _c
197 348 _l
197 648 _m
197 428 _l
343 428 _l
391 428 426 437 450 455 _c
474 473 486 500 486 538 _c
486 574 474 602 450 620 _c
426 638 391 648 343 648 _c
197 648 _l
98 729 _m
350 729 _l
}_e{425 729 483 713 524 682 _c
564 650 585 606 585 549 _c
585 504 574 468 553 442 _c
532 416 502 399 462 393 _c
510 382 548 360 575 327 _c
601 294 615 253 615 204 _c
615 138 592 88 548 53 _c
504 17 441 0 360 0 _c
98 0 _l
98 729 _l
_cl}_e}_d
/C{{698 0 56 -13 644 742 _sc
644 673 _m
644 569 _l
610 599 575 622 537 638 _c
499 653 460 661 418 661 _c
334 661 270 635 226 584 _c
182 533 160 460 160 364 _c
160 268 182 194 226 143 _c
270 92 334 67 418 67 _c
460 67 499 74 537 90 _c
575 105 610 128 644 159 _c
644 56 _l
609 32 572 15 534 4 _c
496 -7 455 -13 412 -13 _c
302 -13 215 20 151 87 _c
}_e{87 154 56 246 56 364 _c
56 481 87 573 151 641 _c
215 708 302 742 412 742 _c
456 742 497 736 535 725 _c
573 713 610 696 644 673 _c
_cl}_e}_d
/D{770 0 98 0 711 729 _sc
197 648 _m
197 81 _l
316 81 _l
416 81 490 103 537 149 _c
583 195 607 267 607 365 _c
607 463 583 534 537 580 _c
490 625 416 648 316 648 _c
197 648 _l
98 729 _m
301 729 _l
442 729 546 699 612 641 _c
678 582 711 490 711 365 _c
711 239 677 147 611 88 _c
545 29 441 0 301 0 _c
98 0 _l
98 729 _l
_cl}_d
/E{632 0 98 0 568 729 _sc
98 729 _m
559 729 _l
559 646 _l
197 646 _l
197 430 _l
544 430 _l
544 347 _l
197 347 _l
197 83 _l
568 83 _l
568 0 _l
98 0 _l
98 729 _l
_cl}_d
/M{863 0 98 0 765 729 _sc
98 729 _m
245 729 _l
431 233 _l
618 729 _l
765 729 _l
765 0 _l
669 0 _l
669 640 _l
481 140 _l
382 140 _l
194 640 _l
194 0 _l
98 0 _l
98 729 _l
_cl}_d
/S{{635 0 66 -13 579 742 _sc
535 705 _m
535 609 _l
497 627 462 640 429 649 _c
395 657 363 662 333 662 _c
279 662 237 651 208 631 _c
179 610 165 580 165 542 _c
165 510 174 485 194 469 _c
213 452 250 439 304 429 _c
364 417 _l
437 403 491 378 526 343 _c
561 307 579 260 579 201 _c
579 130 555 77 508 41 _c
460 5 391 -13 300 -13 _c
265 -13 228 -9 189 -2 _c
}_e{150 5 110 16 69 32 _c
69 134 _l
109 111 148 94 186 83 _c
224 71 262 66 300 66 _c
356 66 399 77 430 99 _c
460 121 476 152 476 194 _c
476 230 465 258 443 278 _c
421 298 385 313 335 323 _c
275 335 _l
201 349 148 372 115 404 _c
82 435 66 478 66 534 _c
66 598 88 649 134 686 _c
179 723 242 742 322 742 _c
356 742 390 739 426 733 _c
461 727 497 717 535 705 _c
}_e{_cl}_e}_d
/T{611 0 -2 0 614 729 _sc
-2 729 _m
614 729 _l
614 646 _l
355 646 _l
355 0 _l
256 0 _l
256 646 _l
-2 646 _l
-2 729 _l
_cl}_d
/U{732 0 87 -13 645 729 _sc
87 729 _m
186 729 _l
186 286 _l
186 208 200 151 228 117 _c
256 83 302 66 366 66 _c
429 66 475 83 503 117 _c
531 151 546 208 546 286 _c
546 729 _l
645 729 _l
645 274 _l
645 178 621 107 574 59 _c
527 11 458 -13 366 -13 _c
274 -13 204 11 157 59 _c
110 107 87 178 87 274 _c
87 729 _l
_cl}_d
/W{989 0 33 0 956 729 _sc
33 729 _m
133 729 _l
286 113 _l
439 729 _l
550 729 _l
703 113 _l
856 729 _l
956 729 _l
773 0 _l
649 0 _l
495 633 _l
340 0 _l
216 0 _l
33 729 _l
_cl}_d
/a{{613 0 60 -13 522 560 _sc
343 275 _m
270 275 220 266 192 250 _c
164 233 150 205 150 165 _c
150 133 160 107 181 89 _c
202 70 231 61 267 61 _c
317 61 357 78 387 114 _c
417 149 432 196 432 255 _c
432 275 _l
343 275 _l
522 312 _m
522 0 _l
432 0 _l
432 83 _l
411 49 385 25 355 10 _c
325 -5 287 -13 243 -13 _c
187 -13 142 2 109 33 _c
76 64 60 106 60 159 _c
}_e{60 220 80 266 122 298 _c
163 329 224 345 306 345 _c
432 345 _l
432 354 _l
432 395 418 427 391 450 _c
364 472 326 484 277 484 _c
245 484 215 480 185 472 _c
155 464 127 453 100 439 _c
100 522 _l
132 534 164 544 195 550 _c
226 556 256 560 286 560 _c
365 560 424 539 463 498 _c
502 457 522 395 522 312 _c
_cl}_e}_d
/c{{550 0 55 -13 488 560 _sc
488 526 _m
488 442 _l
462 456 437 466 411 473 _c
385 480 360 484 334 484 _c
276 484 230 465 198 428 _c
166 391 150 339 150 273 _c
150 206 166 154 198 117 _c
230 80 276 62 334 62 _c
360 62 385 65 411 72 _c
437 79 462 90 488 104 _c
488 21 _l
462 9 436 0 410 -5 _c
383 -10 354 -13 324 -13 _c
242 -13 176 12 128 64 _c
}_e{79 115 55 185 55 273 _c
55 362 79 432 128 483 _c
177 534 244 560 330 560 _c
358 560 385 557 411 551 _c
437 545 463 537 488 526 _c
_cl}_e}_d
/d{{635 0 55 -13 544 760 _sc
454 464 _m
454 760 _l
544 760 _l
544 0 _l
454 0 _l
454 82 _l
435 49 411 25 382 10 _c
353 -5 319 -13 279 -13 _c
213 -13 159 13 117 65 _c
75 117 55 187 55 273 _c
55 359 75 428 117 481 _c
159 533 213 560 279 560 _c
319 560 353 552 382 536 _c
411 520 435 496 454 464 _c
148 273 _m
148 207 161 155 188 117 _c
215 79 253 61 301 61 _c
}_e{348 61 385 79 413 117 _c
440 155 454 207 454 273 _c
454 339 440 390 413 428 _c
385 466 348 485 301 485 _c
253 485 215 466 188 428 _c
161 390 148 339 148 273 _c
_cl}_e}_d
/e{{615 0 55 -13 562 560 _sc
562 296 _m
562 252 _l
149 252 _l
153 190 171 142 205 110 _c
238 78 284 62 344 62 _c
378 62 412 66 444 74 _c
476 82 509 95 541 113 _c
541 28 _l
509 14 476 3 442 -3 _c
408 -9 373 -13 339 -13 _c
251 -13 182 12 131 62 _c
80 112 55 181 55 268 _c
55 357 79 428 127 481 _c
175 533 241 560 323 560 _c
397 560 455 536 498 489 _c
}_e{540 441 562 377 562 296 _c
472 322 _m
471 371 457 410 431 440 _c
404 469 368 484 324 484 _c
274 484 234 469 204 441 _c
174 413 156 373 152 322 _c
472 322 _l
_cl}_e}_d
/f{352 0 23 0 371 760 _sc
371 760 _m
371 685 _l
285 685 _l
253 685 230 678 218 665 _c
205 652 199 629 199 595 _c
199 547 _l
347 547 _l
347 477 _l
199 477 _l
199 0 _l
109 0 _l
109 477 _l
23 477 _l
23 547 _l
109 547 _l
109 585 _l
109 645 123 690 151 718 _c
179 746 224 760 286 760 _c
371 760 _l
_cl}_d
/g{{635 0 55 -207 544 560 _sc
454 280 _m
454 344 440 395 414 431 _c
387 467 349 485 301 485 _c
253 485 215 467 188 431 _c
161 395 148 344 148 280 _c
148 215 161 165 188 129 _c
215 93 253 75 301 75 _c
349 75 387 93 414 129 _c
440 165 454 215 454 280 _c
544 68 _m
544 -24 523 -93 482 -139 _c
440 -184 377 -207 292 -207 _c
260 -207 231 -204 203 -200 _c
175 -195 147 -188 121 -178 _c
}_e{121 -91 _l
147 -105 173 -115 199 -122 _c
225 -129 251 -133 278 -133 _c
336 -133 380 -117 410 -87 _c
439 -56 454 -10 454 52 _c
454 96 _l
435 64 411 40 382 24 _c
353 8 319 0 279 0 _c
211 0 157 25 116 76 _c
75 127 55 195 55 280 _c
55 364 75 432 116 483 _c
157 534 211 560 279 560 _c
319 560 353 552 382 536 _c
411 520 435 496 454 464 _c
454 547 _l
544 547 _l
}_e{544 68 _l
_cl}_e}_d
/h{634 0 91 0 549 760 _sc
549 330 _m
549 0 _l
459 0 _l
459 327 _l
459 379 448 417 428 443 _c
408 469 378 482 338 482 _c
289 482 251 466 223 435 _c
195 404 181 362 181 309 _c
181 0 _l
91 0 _l
91 760 _l
181 760 _l
181 462 _l
202 494 227 519 257 535 _c
286 551 320 560 358 560 _c
420 560 468 540 500 501 _c
532 462 549 405 549 330 _c
_cl}_d
/i{278 0 94 0 184 760 _sc
94 547 _m
184 547 _l
184 0 _l
94 0 _l
94 547 _l
94 760 _m
184 760 _l
184 646 _l
94 646 _l
94 760 _l
_cl}_d
/l{278 0 94 0 184 760 _sc
94 760 _m
184 760 _l
184 0 _l
94 0 _l
94 760 _l
_cl}_d
/m{{974 0 91 0 889 560 _sc
520 442 _m
542 482 569 511 600 531 _c
631 550 668 560 711 560 _c
767 560 811 540 842 500 _c
873 460 889 403 889 330 _c
889 0 _l
799 0 _l
799 327 _l
799 379 789 418 771 444 _c
752 469 724 482 686 482 _c
639 482 602 466 575 435 _c
548 404 535 362 535 309 _c
535 0 _l
445 0 _l
445 327 _l
445 379 435 418 417 444 _c
398 469 369 482 331 482 _c
}_e{285 482 248 466 221 435 _c
194 404 181 362 181 309 _c
181 0 _l
91 0 _l
91 547 _l
181 547 _l
181 462 _l
201 495 226 520 255 536 _c
283 552 317 560 357 560 _c
397 560 430 550 458 530 _c
486 510 506 480 520 442 _c
_cl}_e}_d
/n{634 0 91 0 549 560 _sc
549 330 _m
549 0 _l
459 0 _l
459 327 _l
459 379 448 417 428 443 _c
408 469 378 482 338 482 _c
289 482 251 466 223 435 _c
195 404 181 362 181 309 _c
181 0 _l
91 0 _l
91 547 _l
181 547 _l
181 462 _l
202 494 227 519 257 535 _c
286 551 320 560 358 560 _c
420 560 468 540 500 501 _c
532 462 549 405 549 330 _c
_cl}_d
/o{612 0 55 -13 557 560 _sc
306 484 _m
258 484 220 465 192 427 _c
164 389 150 338 150 273 _c
150 207 163 156 191 118 _c
219 80 257 62 306 62 _c
354 62 392 80 420 118 _c
448 156 462 207 462 273 _c
462 337 448 389 420 427 _c
392 465 354 484 306 484 _c
306 560 _m
384 560 445 534 490 484 _c
534 433 557 363 557 273 _c
557 183 534 113 490 63 _c
445 12 384 -13 306 -13 _c
227 -13 165 12 121 63 _c
77 113 55 183 55 273 _c
55 363 77 433 121 484 _c
165 534 227 560 306 560 _c
_cl}_d
/p{{635 0 91 -207 580 560 _sc
181 82 _m
181 -207 _l
91 -207 _l
91 547 _l
181 547 _l
181 464 _l
199 496 223 520 252 536 _c
281 552 316 560 356 560 _c
422 560 476 533 518 481 _c
559 428 580 359 580 273 _c
580 187 559 117 518 65 _c
476 13 422 -13 356 -13 _c
316 -13 281 -5 252 10 _c
223 25 199 49 181 82 _c
487 273 _m
487 339 473 390 446 428 _c
418 466 381 485 334 485 _c
}_e{286 485 249 466 222 428 _c
194 390 181 339 181 273 _c
181 207 194 155 222 117 _c
249 79 286 61 334 61 _c
381 61 418 79 446 117 _c
473 155 487 207 487 273 _c
_cl}_e}_d
/r{411 0 91 0 411 560 _sc
411 463 _m
401 469 390 473 378 476 _c
366 478 353 480 339 480 _c
288 480 249 463 222 430 _c
194 397 181 350 181 288 _c
181 0 _l
91 0 _l
91 547 _l
181 547 _l
181 462 _l
199 495 224 520 254 536 _c
284 552 321 560 365 560 _c
371 560 378 559 386 559 _c
393 558 401 557 411 555 _c
411 463 _l
_cl}_d
/s{{521 0 54 -13 472 560 _sc
443 531 _m
443 446 _l
417 458 391 468 364 475 _c
336 481 308 485 279 485 _c
234 485 200 478 178 464 _c
156 450 145 430 145 403 _c
145 382 153 366 169 354 _c
185 342 217 330 265 320 _c
296 313 _l
360 299 405 279 432 255 _c
458 230 472 195 472 151 _c
472 100 452 60 412 31 _c
372 1 316 -13 246 -13 _c
216 -13 186 -10 154 -5 _c
}_e{122 0 89 8 54 20 _c
54 113 _l
87 95 120 82 152 74 _c
184 65 216 61 248 61 _c
290 61 323 68 346 82 _c
368 96 380 117 380 144 _c
380 168 371 187 355 200 _c
339 213 303 226 247 238 _c
216 245 _l
160 257 119 275 95 299 _c
70 323 58 356 58 399 _c
58 450 76 490 112 518 _c
148 546 200 560 268 560 _c
301 560 332 557 362 552 _c
391 547 418 540 443 531 _c
}_e{_cl}_e}_d
/t{392 0 27 0 368 702 _sc
183 702 _m
183 547 _l
368 547 _l
368 477 _l
183 477 _l
183 180 _l
183 135 189 106 201 94 _c
213 81 238 75 276 75 _c
368 75 _l
368 0 _l
276 0 _l
206 0 158 13 132 39 _c
106 65 93 112 93 180 _c
93 477 _l
27 477 _l
27 547 _l
93 547 _l
93 702 _l
183 702 _l
_cl}_d
/u{634 0 85 -13 543 560 _sc
85 216 _m
85 547 _l
175 547 _l
175 219 _l
175 167 185 129 205 103 _c
225 77 255 64 296 64 _c
344 64 383 79 411 110 _c
439 141 453 183 453 237 _c
453 547 _l
543 547 _l
543 0 _l
453 0 _l
453 84 _l
431 50 405 26 377 10 _c
348 -5 315 -13 277 -13 _c
214 -13 166 6 134 45 _c
101 83 85 140 85 216 _c
311 560 _m
311 560 _l
_cl}_d
/v{592 0 30 0 562 547 _sc
30 547 _m
125 547 _l
296 88 _l
467 547 _l
562 547 _l
357 0 _l
235 0 _l
30 547 _l
_cl}_d
/w{818 0 42 0 776 547 _sc
42 547 _m
132 547 _l
244 120 _l
356 547 _l
462 547 _l
574 120 _l
686 547 _l
776 547 _l
633 0 _l
527 0 _l
409 448 _l
291 0 _l
185 0 _l
42 547 _l
_cl}_d
/x{592 0 29 0 559 547 _sc
549 547 _m
351 281 _l
559 0 _l
453 0 _l
294 215 _l
135 0 _l
29 0 _l
241 286 _l
47 547 _l
153 547 _l
298 352 _l
443 547 _l
549 547 _l
_cl}_d
/asciitilde{{838 0 106 228 732 399 _sc
732 399 _m
732 312 _l
698 286 666 267 637 256 _c
607 245 577 240 546 240 _c
510 240 468 249 421 269 _c
417 270 415 271 413 272 _c
411 272 407 274 402 276 _c
352 296 311 306 281 306 _c
252 306 224 299 196 287 _c
168 275 138 255 106 228 _c
106 315 _l
140 341 171 359 201 370 _c
230 381 260 387 292 387 _c
328 387 369 377 417 358 _c
}_e{420 356 423 355 425 355 _c
427 354 431 353 436 351 _c
486 331 526 321 557 321 _c
585 321 612 327 640 339 _c
668 351 698 371 732 399 _c
_cl}_e}_d
end readonly def

/BuildGlyph
 {exch begin
 CharStrings exch
 2 copy known not{pop /.notdef}if
 true 3 1 roll get exec
 end}_d

/BuildChar {
 1 index /Encoding get exch get
 1 index /BuildGlyph get exec
}_d

FontName currentdict end definefont pop
end
%%EndProlog
mpldict begin
-1.35 89.1 translate
614.7 613.8 0 0 clipbox
gsave
0 0 m
614.7 0 l
614.7 613.8 l
0 613.8 l
cl
1.000 setgray
fill
grestore
gsave
76.8375 329.22 m
553.23 329.22 l
553.23 552.42 l
76.8375 552.42 l
cl
1.000 setgray
fill
grestore
1.000 setlinewidth
1 setlinejoin
2 setlinecap
[] 0 setdash
1.000 0.000 0.000 setrgbcolor
gsave
476.4 223.2 76.84 329.2 clipbox
76.8851 329.22 m
78.6954 329.339 l
80.9345 329.723 l
83.7928 330.45 l
87.8898 331.74 l
94.9404 334.226 l
127.621 345.966 l
167.495 359.788 l
181.787 364.928 l
191.124 368.321 l
211.561 375.758 l
221.566 379.515 l
231.617 383.412 l
243.575 388.098 l
262.773 395.645 l
275.97 400.826 l
286.45 405.026 l
289.737 406.377 l
293.93 408.066 l
315.224 416.79 l
366.437 439.033 l
371.058 441.111 l
373.725 442.313 l
381.205 445.71 l
385.54 447.697 l
388.875 449.2 l
409.693 458.403 l
464.954 482.311 l
467.003 483.191 l
479.008 488.426 l
480.437 489.063 l
484.725 490.991 l
490.823 493.703 l
493.776 495.037 l
517.596 505.738 l
524.218 508.671 l
527.886 510.246 l
533.126 512.501 l
553.182 520.841 l
553.182 520.841 l
stroke
grestore
0.000 0.500 0.000 setrgbcolor
gsave
476.4 223.2 76.84 329.2 clipbox
76.8851 329.22 m
78.6954 329.341 l
80.8868 329.721 l
83.7452 330.458 l
87.6516 331.712 l
93.6065 333.877 l
111.948 340.876 l
147.391 354.539 l
173.879 365.003 l
198.746 374.983 l
240.574 392.351 l
247.148 395.029 l
252.483 397.188 l
272.635 405.132 l
285.783 410.339 l
299.265 415.715 l
302.457 416.997 l
309.269 419.687 l
317.702 423.014 l
320.655 424.161 l
326.372 426.334 l
338.377 430.783 l
345.952 433.57 l
353.955 436.526 l
393.067 450.864 l
397.64 452.564 l
400.117 453.469 l
406.739 455.833 l
415.934 459.076 l
420.793 460.823 l
434.084 465.562 l
446.518 470.13 l
479.675 482.254 l
511.831 493.285 l
516.31 494.727 l
522.122 496.629 l
553.182 506.604 l
553.182 506.604 l
stroke
grestore
0.000 0.000 1.000 setrgbcolor
gsave
476.4 223.2 76.84 329.2 clipbox
76.8851 329.22 m
78.6478 329.336 l
80.8392 329.714 l
83.6499 330.44 l
87.4134 331.649 l
93.1778 333.754 l
103.706 337.843 l
126.001 346.596 l
146.105 354.737 l
201.557 378.042 l
233.856 392.188 l
276.446 411.008 l
282.258 413.555 l
306.554 424.42 l
312.461 427.142 l
322.704 431.909 l
329.373 435.061 l
333.28 436.896 l
338.806 439.492 l
344.475 442.173 l
360.91 450.058 l
369.819 454.408 l
412.694 475.825 l
440.516 490.078 l
442.707 491.197 l
445.041 492.389 l
455.617 497.834 l
459.905 500.069 l
465.812 503.144 l
471.576 506.119 l
487.583 514.187 l
490.966 515.853 l
493.205 516.944 l
499.588 520.098 l
549.228 544.501 l
552.039 545.882 l
553.182 546.433 l
553.182 546.433 l
stroke
grestore
3.000 setlinewidth
0 setlinecap
[6 6] 0 setdash
0.000 setgray
gsave
476.4 223.2 76.84 329.2 clipbox
76.8851 329.238 m
553.182 507.762 l
553.182 507.762 l
stroke
grestore
1.000 setlinewidth
1.000 0.000 0.000 setrgbcolor
gsave
476.4 223.2 76.84 329.2 clipbox
76.8851 328.274 m
553.182 493.821 l
553.182 493.821 l
stroke
grestore
0.000 0.500 0.000 setrgbcolor
gsave
476.4 223.2 76.84 329.2 clipbox
76.8851 327.097 m
553.182 512.922 l
553.182 512.922 l
stroke
grestore
0.000 0.000 1.000 setrgbcolor
gsave
476.4 223.2 76.84 329.2 clipbox
76.8851 326.528 m
553.182 521.381 l
553.182 521.381 l
stroke
grestore
0.500 setlinewidth
[] 0 setdash
0.000 setgray
gsave
/o {
gsave
newpath
translate
0.5 setlinewidth
1 setlinejoin
0 setlinecap
0 0 m
0 4 l
gsave
0.000 setgray
fill
grestore
stroke
grestore
} bind def
76.8375 329.22 o
grestore
gsave
/o {
gsave
newpath
translate
0.5 setlinewidth
1 setlinejoin
0 setlinecap
0 0 m
0 -4 l
gsave
0.000 setgray
fill
grestore
stroke
grestore
} bind def
76.8375 552.42 o
grestore
/DejaVuSans findfont
12.000 scalefont
setfont
gsave
73.814062 316.095000 translate
0.000000 rotate
0.000000 0.000000 m /zero glyphshow
grestore
gsave
/o {
gsave
newpath
translate
0.5 setlinewidth
1 setlinejoin
0 setlinecap
0 0 m
0 4 l
gsave
0.000 setgray
fill
grestore
stroke
grestore
} bind def
172.116 329.22 o
grestore
gsave
/o {
gsave
newpath
translate
0.5 setlinewidth
1 setlinejoin
0 setlinecap
0 0 m
0 -4 l
gsave
0.000 setgray
fill
grestore
stroke
grestore
} bind def
172.116 552.42 o
grestore
gsave
165.311312 316.095000 translate
0.000000 rotate
0.000000 0.000000 m /two glyphshow
7.634766 0.000000 m /zero glyphshow
grestore
gsave
/o {
gsave
newpath
translate
0.5 setlinewidth
1 setlinejoin
0 setlinecap
0 0 m
0 4 l
gsave
0.000 setgray
fill
grestore
stroke
grestore
} bind def
267.394 329.22 o
grestore
gsave
/o {
gsave
newpath
translate
0.5 setlinewidth
1 setlinejoin
0 setlinecap
0 0 m
0 -4 l
gsave
0.000 setgray
fill
grestore
stroke
grestore
} bind def
267.394 552.42 o
grestore
gsave
260.449187 316.095000 translate
0.000000 rotate
0.000000 0.000000 m /four glyphshow
7.634766 0.000000 m /zero glyphshow
grestore
gsave
/o {
gsave
newpath
translate
0.5 setlinewidth
1 setlinejoin
0 setlinecap
0 0 m
0 4 l
gsave
0.000 setgray
fill
grestore
stroke
grestore
} bind def
362.673 329.22 o
grestore
gsave
/o {
gsave
newpath
translate
0.5 setlinewidth
1 setlinejoin
0 setlinecap
0 0 m
0 -4 l
gsave
0.000 setgray
fill
grestore
stroke
grestore
} bind def
362.673 552.42 o
grestore
gsave
355.852687 316.095000 translate
0.000000 rotate
0.000000 0.000000 m /six glyphshow
7.634766 0.000000 m /zero glyphshow
grestore
gsave
/o {
gsave
newpath
translate
0.5 setlinewidth
1 setlinejoin
0 setlinecap
0 0 m
0 4 l
gsave
0.000 setgray
fill
grestore
stroke
grestore
} bind def
457.951 329.22 o
grestore
gsave
/o {
gsave
newpath
translate
0.5 setlinewidth
1 setlinejoin
0 setlinecap
0 0 m
0 -4 l
gsave
0.000 setgray
fill
grestore
stroke
grestore
} bind def
457.951 552.42 o
grestore
gsave
451.115562 316.095000 translate
0.000000 rotate
0.000000 0.000000 m /eight glyphshow
7.634766 0.000000 m /zero glyphshow
grestore
gsave
/o {
gsave
newpath
translate
0.5 setlinewidth
1 setlinejoin
0 setlinecap
0 0 m
0 4 l
gsave
0.000 setgray
fill
grestore
stroke
grestore
} bind def
553.23 329.22 o
grestore
gsave
/o {
gsave
newpath
translate
0.5 setlinewidth
1 setlinejoin
0 setlinecap
0 0 m
0 -4 l
gsave
0.000 setgray
fill
grestore
stroke
grestore
} bind def
553.23 552.42 o
grestore
gsave
542.823750 316.095000 translate
0.000000 rotate
0.000000 0.000000 m /one glyphshow
7.634766 0.000000 m /zero glyphshow
15.269531 0.000000 m /zero glyphshow
grestore
gsave
223.455625 299.470000 translate
0.000000 rotate
0.000000 0.000000 m /W glyphshow
11.615234 0.000000 m /i glyphshow
14.949219 0.000000 m /n glyphshow
22.554688 0.000000 m /d glyphshow
30.171875 0.000000 m /o glyphshow
37.513672 0.000000 m /w glyphshow
47.328125 0.000000 m /space glyphshow
51.142578 0.000000 m /W glyphshow
62.757812 0.000000 m /i glyphshow
66.091797 0.000000 m /d glyphshow
73.708984 0.000000 m /t glyphshow
78.414062 0.000000 m /h glyphshow
86.019531 0.000000 m /space glyphshow
89.833984 0.000000 m /i glyphshow
93.167969 0.000000 m /n glyphshow
100.773438 0.000000 m /space glyphshow
104.587891 0.000000 m /U glyphshow
113.371094 0.000000 m /n glyphshow
120.976562 0.000000 m /i glyphshow
124.310547 0.000000 m /t glyphshow
129.015625 0.000000 m /s glyphshow
135.267578 0.000000 m /space glyphshow
139.082031 0.000000 m /o glyphshow
146.423828 0.000000 m /f glyphshow
150.648438 0.000000 m /space glyphshow
154.462891 0.000000 m /T glyphshow
161.417969 0.000000 m /i glyphshow
164.751953 0.000000 m /m glyphshow
176.441406 0.000000 m /e glyphshow
grestore
gsave
/o {
gsave
newpath
translate
0.5 setlinewidth
1 setlinejoin
0 setlinecap
0 0 m
4 0 l
gsave
0.000 setgray
fill
grestore
stroke
grestore
} bind def
76.8375 329.22 o
grestore
gsave
/o {
gsave
newpath
translate
0.5 setlinewidth
1 setlinejoin
0 setlinecap
0 0 m
-4 0 l
gsave
0.000 setgray
fill
grestore
stroke
grestore
} bind def
553.23 329.22 o
grestore
gsave
66.790625 325.907500 translate
0.000000 rotate
0.000000 0.000000 m /zero glyphshow
grestore
gsave
/o {
gsave
newpath
translate
0.5 setlinewidth
1 setlinejoin
0 setlinecap
0 0 m
4 0 l
gsave
0.000 setgray
fill
grestore
stroke
grestore
} bind def
76.8375 373.86 o
grestore
gsave
/o {
gsave
newpath
translate
0.5 setlinewidth
1 setlinejoin
0 setlinecap
0 0 m
-4 0 l
gsave
0.000 setgray
fill
grestore
stroke
grestore
} bind def
553.23 373.86 o
grestore
gsave
59.275000 370.547500 translate
0.000000 rotate
0.000000 0.000000 m /five glyphshow
7.634766 0.000000 m /zero glyphshow
grestore
gsave
/o {
gsave
newpath
translate
0.5 setlinewidth
1 setlinejoin
0 setlinecap
0 0 m
4 0 l
gsave
0.000 setgray
fill
grestore
stroke
grestore
} bind def
76.8375 418.5 o
grestore
gsave
/o {
gsave
newpath
translate
0.5 setlinewidth
1 setlinejoin
0 setlinecap
0 0 m
-4 0 l
gsave
0.000 setgray
fill
grestore
stroke
grestore
} bind def
553.23 418.5 o
grestore
gsave
52.025000 415.187500 translate
0.000000 rotate
0.000000 0.000000 m /one glyphshow
7.634766 0.000000 m /zero glyphshow
15.269531 0.000000 m /zero glyphshow
grestore
gsave
/o {
gsave
newpath
translate
0.5 setlinewidth
1 setlinejoin
0 setlinecap
0 0 m
4 0 l
gsave
0.000 setgray
fill
grestore
stroke
grestore
} bind def
76.8375 463.14 o
grestore
gsave
/o {
gsave
newpath
translate
0.5 setlinewidth
1 setlinejoin
0 setlinecap
0 0 m
-4 0 l
gsave
0.000 setgray
fill
grestore
stroke
grestore
} bind def
553.23 463.14 o
grestore
gsave
52.025000 459.827500 translate
0.000000 rotate
0.000000 0.000000 m /one glyphshow
7.634766 0.000000 m /five glyphshow
15.269531 0.000000 m /zero glyphshow
grestore
gsave
/o {
gsave
newpath
translate
0.5 setlinewidth
1 setlinejoin
0 setlinecap
0 0 m
4 0 l
gsave
0.000 setgray
fill
grestore
stroke
grestore
} bind def
76.8375 507.78 o
grestore
gsave
/o {
gsave
newpath
translate
0.5 setlinewidth
1 setlinejoin
0 setlinecap
0 0 m
-4 0 l
gsave
0.000 setgray
fill
grestore
stroke
grestore
} bind def
553.23 507.78 o
grestore
gsave
51.587500 504.467500 translate
0.000000 rotate
0.000000 0.000000 m /two glyphshow
7.634766 0.000000 m /zero glyphshow
15.269531 0.000000 m /zero glyphshow
grestore
gsave
/o {
gsave
newpath
translate
0.5 setlinewidth
1 setlinejoin
0 setlinecap
0 0 m
4 0 l
gsave
0.000 setgray
fill
grestore
stroke
grestore
} bind def
76.8375 552.42 o
grestore
gsave
/o {
gsave
newpath
translate
0.5 setlinewidth
1 setlinejoin
0 setlinecap
0 0 m
-4 0 l
gsave
0.000 setgray
fill
grestore
stroke
grestore
} bind def
553.23 552.42 o
grestore
gsave
51.587500 549.107500 translate
0.000000 rotate
0.000000 0.000000 m /two glyphshow
7.634766 0.000000 m /five glyphshow
15.269531 0.000000 m /zero glyphshow
grestore
gsave
44.087500 428.148125 translate
90.000000 rotate
0.000000 0.000000 m /M glyphshow
10.353516 0.000000 m /S glyphshow
17.970703 0.000000 m /D glyphshow
grestore
1.000 setlinewidth
gsave
76.8375 552.42 m
553.23 552.42 l
stroke
grestore
gsave
553.23 329.22 m
553.23 552.42 l
stroke
grestore
gsave
76.8375 329.22 m
553.23 329.22 l
stroke
grestore
gsave
76.8375 329.22 m
76.8375 552.42 l
stroke
grestore
1.000 0.000 0.000 setrgbcolor
gsave
457.951500 418.500000 translate
0.000000 rotate
/DejaVuSans findfont
20.0 scalefont
setfont
0.000000 0.156250 moveto
/M glyphshow

17.255859 0.156250 moveto
/S glyphshow

29.951172 0.156250 moveto
/D glyphshow

/Cmmi10 findfont
14.0 scalefont
setfont
45.351562 -4.945625 moveto
/x glyphshow


grestore
0.000 0.500 0.000 setrgbcolor
gsave
457.951500 391.716000 translate
0.000000 rotate
/DejaVuSans findfont
20.0 scalefont
setfont
0.000000 0.156250 moveto
/M glyphshow

17.255859 0.156250 moveto
/S glyphshow

29.951172 0.156250 moveto
/D glyphshow

/Cmmi10 findfont
14.0 scalefont
setfont
45.351562 -4.945625 moveto
/y glyphshow


grestore
0.000 0.000 1.000 setrgbcolor
gsave
457.951500 364.932000 translate
0.000000 rotate
/DejaVuSans findfont
20.0 scalefont
setfont
0.000000 0.156250 moveto
/M glyphshow

17.255859 0.156250 moveto
/S glyphshow

29.951172 0.156250 moveto
/D glyphshow

/Cmmi10 findfont
14.0 scalefont
setfont
45.351562 -4.945625 moveto
/z glyphshow


grestore
0.000 setgray
/DejaVuSans findfont
20.000 scalefont
setfont
gsave
267.394500 364.932000 translate
0.000000 rotate
0.000000 0.000000 m /E glyphshow
12.636719 0.000000 m /x glyphshow
24.472656 0.000000 m /p glyphshow
37.167969 0.000000 m /e glyphshow
49.472656 0.000000 m /c glyphshow
60.468750 0.000000 m /t glyphshow
68.310547 0.000000 m /e glyphshow
80.615234 0.000000 m /d glyphshow
93.310547 0.000000 m /space glyphshow
99.667969 0.000000 m /M glyphshow
116.923828 0.000000 m /S glyphshow
129.619141 0.000000 m /D glyphshow
grestore
gsave
172.116000 507.780000 translate
0.000000 rotate
/Cmmi10 findfont
20.0 scalefont
setfont
0.000000 0.343750 moveto
/D glyphshow

/Cmmi10 findfont
14.0 scalefont
setfont
16.542969 -4.758125 moveto
/x glyphshow

/Cmsy10 findfont
20.0 scalefont
setfont
31.470703 0.343750 moveto
/approxequal glyphshow

/Cmr10 findfont
20.0 scalefont
setfont
48.279297 0.343750 moveto
/zero glyphshow

/Cmmi10 findfont
20.0 scalefont
setfont
58.279297 0.343750 moveto
/period glyphshow

/Cmr10 findfont
20.0 scalefont
setfont
63.978516 0.343750 moveto
/nine glyphshow

73.978516 0.343750 moveto
/three glyphshow


grestore
gsave
172.116000 480.996000 translate
0.000000 rotate
/Cmmi10 findfont
20.0 scalefont
setfont
0.000000 0.343750 moveto
/D glyphshow

/Cmmi10 findfont
14.0 scalefont
setfont
16.542969 -4.758125 moveto
/y glyphshow

/Cmsy10 findfont
20.0 scalefont
setfont
29.859375 0.343750 moveto
/approxequal glyphshow

/Cmr10 findfont
20.0 scalefont
setfont
46.667969 0.343750 moveto
/one glyphshow

/Cmmi10 findfont
20.0 scalefont
setfont
56.667969 0.343750 moveto
/period glyphshow

/Cmr10 findfont
20.0 scalefont
setfont
62.367188 0.343750 moveto
/zero glyphshow

72.367188 0.343750 moveto
/four glyphshow


grestore
gsave
172.116000 454.212000 translate
0.000000 rotate
/Cmmi10 findfont
20.0 scalefont
setfont
0.000000 0.343750 moveto
/D glyphshow

/Cmmi10 findfont
14.0 scalefont
setfont
16.542969 -4.758125 moveto
/z glyphshow

/Cmsy10 findfont
20.0 scalefont
setfont
29.351562 0.343750 moveto
/approxequal glyphshow

/Cmr10 findfont
20.0 scalefont
setfont
46.160156 0.343750 moveto
/one glyphshow

/Cmmi10 findfont
20.0 scalefont
setfont
56.160156 0.343750 moveto
/period glyphshow

/Cmr10 findfont
20.0 scalefont
setfont
61.859375 0.343750 moveto
/zero glyphshow

71.859375 0.343750 moveto
/nine glyphshow


grestore
gsave
76.8375 61.38 m
553.23 61.38 l
553.23 284.58 l
76.8375 284.58 l
cl
1.000 setgray
fill
grestore
3.000 setlinewidth
[6 6] 0 setdash
gsave
476.4 223.2 76.84 61.38 clipbox
76.8375 153.479 m
553.225 265.078 l
553.225 265.078 l
stroke
grestore
1.000 setlinewidth
2 setlinecap
[] 0 setdash
1.000 0.000 0.000 setrgbcolor
gsave
476.4 223.2 76.84 61.38 clipbox
76.8375 89.2525 m
177.487 136.131 l
220.246 155.801 l
251.006 169.703 l
274.869 180.232 l
293.542 188.239 l
309.584 194.9 l
324.464 200.853 l
338.365 206.182 l
352.415 211.304 l
365.05 215.661 l
377.873 219.836 l
392.484 224.295 l
404.966 227.877 l
417.783 231.371 l
435.56 235.936 l
450.754 239.62 l
491.505 249.7 l
525.991 258.778 l
532.992 260.707 l
543.81 263.517 l
553.225 265.934 l
553.225 265.934 l
stroke
grestore
0.000 0.500 0.000 setrgbcolor
gsave
476.4 223.2 76.84 61.38 clipbox
76.8375 89.3956 m
177.487 136.277 l
220.246 155.952 l
251.006 169.86 l
274.869 180.4 l
294.32 188.751 l
310.721 195.56 l
325.741 201.558 l
339.344 206.762 l
353.9 212.069 l
367.545 216.783 l
380.419 220.986 l
392.715 224.769 l
406.046 228.62 l
417.854 231.877 l
437.535 237.071 l
466.866 244.582 l
487.24 249.735 l
503.671 253.87 l
513.054 256.108 l
524.697 258.794 l
551.183 264.594 l
553.225 264.999 l
553.225 264.999 l
stroke
grestore
0.000 0.000 1.000 setrgbcolor
gsave
476.4 223.2 76.84 61.38 clipbox
76.8375 89.4773 m
177.487 136.361 l
220.246 156.037 l
249.191 169.133 l
273.732 179.99 l
293.542 188.506 l
310.156 195.414 l
324.893 201.316 l
338.693 206.613 l
351.91 211.457 l
365.05 216.04 l
377.411 220.128 l
390.117 224.103 l
403.584 228.093 l
418.558 232.27 l
443.173 238.787 l
456.9 242.401 l
484.909 249.623 l
543.135 264.865 l
547.821 266.082 l
553.225 267.453 l
553.225 267.453 l
stroke
grestore
0 setlinecap
[6 6] 0 setdash
0.000 setgray
gsave
476.4 223.2 76.84 61.38 clipbox
76.8375 89.28 m
415.683 248.036 l
415.683 248.036 l
stroke
grestore
gsave
476.4 223.2 76.84 61.38 clipbox
297.319 205.129 m
553.225 265.078 l
553.225 265.078 l
stroke
grestore
gsave
476.4 223.2 76.84 61.38 clipbox
415.683 61.38 m
415.683 284.58 l
stroke
grestore
0.500 setlinewidth
[] 0 setdash
gsave
/o {
gsave
newpath
translate
0.5 setlinewidth
1 setlinejoin
0 setlinecap
0 0 m
0 4 l
gsave
0.000 setgray
fill
grestore
stroke
grestore
} bind def
76.8375 61.38 o
grestore
gsave
/o {
gsave
newpath
translate
0.5 setlinewidth
1 setlinejoin
0 setlinecap
0 0 m
0 -4 l
gsave
0.000 setgray
fill
grestore
stroke
grestore
} bind def
76.8375 284.58 o
grestore
gsave
64.337500 44.880000 translate
0.000000 rotate
/DejaVuSans findfont
12.0 scalefont
setfont
0.000000 0.828125 moveto
/one glyphshow

7.634766 0.828125 moveto
/zero glyphshow

/DejaVuSans findfont
8.4 scalefont
setfont
15.269531 7.765625 moveto
/hyphen glyphshow

18.300586 7.765625 moveto
/two glyphshow


grestore
gsave
/o {
gsave
newpath
translate
0.5 setlinewidth
1 setlinejoin
0 setlinecap
0 0 m
0 4 l
gsave
0.000 setgray
fill
grestore
stroke
grestore
} bind def
195.936 61.38 o
grestore
gsave
/o {
gsave
newpath
translate
0.5 setlinewidth
1 setlinejoin
0 setlinecap
0 0 m
0 -4 l
gsave
0.000 setgray
fill
grestore
stroke
grestore
} bind def
195.936 284.58 o
grestore
gsave
183.435625 44.880000 translate
0.000000 rotate
/DejaVuSans findfont
12.0 scalefont
setfont
0.000000 0.937500 moveto
/one glyphshow

7.634766 0.937500 moveto
/zero glyphshow

/DejaVuSans findfont
8.4 scalefont
setfont
15.269531 7.875000 moveto
/hyphen glyphshow

18.300586 7.875000 moveto
/one glyphshow


grestore
gsave
/o {
gsave
newpath
translate
0.5 setlinewidth
1 setlinejoin
0 setlinecap
0 0 m
0 4 l
gsave
0.000 setgray
fill
grestore
stroke
grestore
} bind def
315.034 61.38 o
grestore
gsave
/o {
gsave
newpath
translate
0.5 setlinewidth
1 setlinejoin
0 setlinecap
0 0 m
0 -4 l
gsave
0.000 setgray
fill
grestore
stroke
grestore
} bind def
315.034 284.58 o
grestore
gsave
304.033750 44.880000 translate
0.000000 rotate
/DejaVuSans findfont
12.0 scalefont
setfont
0.000000 0.828125 moveto
/one glyphshow

7.634766 0.828125 moveto
/zero glyphshow

/DejaVuSans findfont
8.4 scalefont
setfont
15.269531 7.765625 moveto
/zero glyphshow


grestore
gsave
/o {
gsave
newpath
translate
0.5 setlinewidth
1 setlinejoin
0 setlinecap
0 0 m
0 4 l
gsave
0.000 setgray
fill
grestore
stroke
grestore
} bind def
434.132 61.38 o
grestore
gsave
/o {
gsave
newpath
translate
0.5 setlinewidth
1 setlinejoin
0 setlinecap
0 0 m
0 -4 l
gsave
0.000 setgray
fill
grestore
stroke
grestore
} bind def
434.132 284.58 o
grestore
gsave
423.131875 44.880000 translate
0.000000 rotate
/DejaVuSans findfont
12.0 scalefont
setfont
0.000000 0.937500 moveto
/one glyphshow

7.634766 0.937500 moveto
/zero glyphshow

/DejaVuSans findfont
8.4 scalefont
setfont
15.269531 7.875000 moveto
/one glyphshow


grestore
gsave
/o {
gsave
newpath
translate
0.5 setlinewidth
1 setlinejoin
0 setlinecap
0 0 m
0 4 l
gsave
0.000 setgray
fill
grestore
stroke
grestore
} bind def
553.23 61.38 o
grestore
gsave
/o {
gsave
newpath
translate
0.5 setlinewidth
1 setlinejoin
0 setlinecap
0 0 m
0 -4 l
gsave
0.000 setgray
fill
grestore
stroke
grestore
} bind def
553.23 284.58 o
grestore
gsave
542.230000 44.880000 translate
0.000000 rotate
/DejaVuSans findfont
12.0 scalefont
setfont
0.000000 0.828125 moveto
/one glyphshow

7.634766 0.828125 moveto
/zero glyphshow

/DejaVuSans findfont
8.4 scalefont
setfont
15.269531 7.765625 moveto
/two glyphshow


grestore
gsave
/o {
gsave
newpath
translate
0.5 setlinewidth
1 setlinejoin
0 setlinecap
0 0 m
0 2 l
gsave
0.000 setgray
fill
grestore
stroke
grestore
} bind def
112.69 61.38 o
grestore
gsave
/o {
gsave
newpath
translate
0.5 setlinewidth
1 setlinejoin
0 setlinecap
0 0 m
0 -2 l
gsave
0.000 setgray
fill
grestore
stroke
grestore
} bind def
112.69 284.58 o
grestore
gsave
/o {
gsave
newpath
translate
0.5 setlinewidth
1 setlinejoin
0 setlinecap
0 0 m
0 2 l
gsave
0.000 setgray
fill
grestore
stroke
grestore
} bind def
133.662 61.38 o
grestore
gsave
/o {
gsave
newpath
translate
0.5 setlinewidth
1 setlinejoin
0 setlinecap
0 0 m
0 -2 l
gsave
0.000 setgray
fill
grestore
stroke
grestore
} bind def
133.662 284.58 o
grestore
gsave
/o {
gsave
newpath
translate
0.5 setlinewidth
1 setlinejoin
0 setlinecap
0 0 m
0 2 l
gsave
0.000 setgray
fill
grestore
stroke
grestore
} bind def
148.542 61.38 o
grestore
gsave
/o {
gsave
newpath
translate
0.5 setlinewidth
1 setlinejoin
0 setlinecap
0 0 m
0 -2 l
gsave
0.000 setgray
fill
grestore
stroke
grestore
} bind def
148.542 284.58 o
grestore
gsave
/o {
gsave
newpath
translate
0.5 setlinewidth
1 setlinejoin
0 setlinecap
0 0 m
0 2 l
gsave
0.000 setgray
fill
grestore
stroke
grestore
} bind def
160.084 61.38 o
grestore
gsave
/o {
gsave
newpath
translate
0.5 setlinewidth
1 setlinejoin
0 setlinecap
0 0 m
0 -2 l
gsave
0.000 setgray
fill
grestore
stroke
grestore
} bind def
160.084 284.58 o
grestore
gsave
/o {
gsave
newpath
translate
0.5 setlinewidth
1 setlinejoin
0 setlinecap
0 0 m
0 2 l
gsave
0.000 setgray
fill
grestore
stroke
grestore
} bind def
169.514 61.38 o
grestore
gsave
/o {
gsave
newpath
translate
0.5 setlinewidth
1 setlinejoin
0 setlinecap
0 0 m
0 -2 l
gsave
0.000 setgray
fill
grestore
stroke
grestore
} bind def
169.514 284.58 o
grestore
gsave
/o {
gsave
newpath
translate
0.5 setlinewidth
1 setlinejoin
0 setlinecap
0 0 m
0 2 l
gsave
0.000 setgray
fill
grestore
stroke
grestore
} bind def
177.487 61.38 o
grestore
gsave
/o {
gsave
newpath
translate
0.5 setlinewidth
1 setlinejoin
0 setlinecap
0 0 m
0 -2 l
gsave
0.000 setgray
fill
grestore
stroke
grestore
} bind def
177.487 284.58 o
grestore
gsave
/o {
gsave
newpath
translate
0.5 setlinewidth
1 setlinejoin
0 setlinecap
0 0 m
0 2 l
gsave
0.000 setgray
fill
grestore
stroke
grestore
} bind def
184.394 61.38 o
grestore
gsave
/o {
gsave
newpath
translate
0.5 setlinewidth
1 setlinejoin
0 setlinecap
0 0 m
0 -2 l
gsave
0.000 setgray
fill
grestore
stroke
grestore
} bind def
184.394 284.58 o
grestore
gsave
/o {
gsave
newpath
translate
0.5 setlinewidth
1 setlinejoin
0 setlinecap
0 0 m
0 2 l
gsave
0.000 setgray
fill
grestore
stroke
grestore
} bind def
190.486 61.38 o
grestore
gsave
/o {
gsave
newpath
translate
0.5 setlinewidth
1 setlinejoin
0 setlinecap
0 0 m
0 -2 l
gsave
0.000 setgray
fill
grestore
stroke
grestore
} bind def
190.486 284.58 o
grestore
gsave
/o {
gsave
newpath
translate
0.5 setlinewidth
1 setlinejoin
0 setlinecap
0 0 m
0 2 l
gsave
0.000 setgray
fill
grestore
stroke
grestore
} bind def
231.788 61.38 o
grestore
gsave
/o {
gsave
newpath
translate
0.5 setlinewidth
1 setlinejoin
0 setlinecap
0 0 m
0 -2 l
gsave
0.000 setgray
fill
grestore
stroke
grestore
} bind def
231.788 284.58 o
grestore
gsave
/o {
gsave
newpath
translate
0.5 setlinewidth
1 setlinejoin
0 setlinecap
0 0 m
0 2 l
gsave
0.000 setgray
fill
grestore
stroke
grestore
} bind def
252.76 61.38 o
grestore
gsave
/o {
gsave
newpath
translate
0.5 setlinewidth
1 setlinejoin
0 setlinecap
0 0 m
0 -2 l
gsave
0.000 setgray
fill
grestore
stroke
grestore
} bind def
252.76 284.58 o
grestore
gsave
/o {
gsave
newpath
translate
0.5 setlinewidth
1 setlinejoin
0 setlinecap
0 0 m
0 2 l
gsave
0.000 setgray
fill
grestore
stroke
grestore
} bind def
267.64 61.38 o
grestore
gsave
/o {
gsave
newpath
translate
0.5 setlinewidth
1 setlinejoin
0 setlinecap
0 0 m
0 -2 l
gsave
0.000 setgray
fill
grestore
stroke
grestore
} bind def
267.64 284.58 o
grestore
gsave
/o {
gsave
newpath
translate
0.5 setlinewidth
1 setlinejoin
0 setlinecap
0 0 m
0 2 l
gsave
0.000 setgray
fill
grestore
stroke
grestore
} bind def
279.182 61.38 o
grestore
gsave
/o {
gsave
newpath
translate
0.5 setlinewidth
1 setlinejoin
0 setlinecap
0 0 m
0 -2 l
gsave
0.000 setgray
fill
grestore
stroke
grestore
} bind def
279.182 284.58 o
grestore
gsave
/o {
gsave
newpath
translate
0.5 setlinewidth
1 setlinejoin
0 setlinecap
0 0 m
0 2 l
gsave
0.000 setgray
fill
grestore
stroke
grestore
} bind def
288.612 61.38 o
grestore
gsave
/o {
gsave
newpath
translate
0.5 setlinewidth
1 setlinejoin
0 setlinecap
0 0 m
0 -2 l
gsave
0.000 setgray
fill
grestore
stroke
grestore
} bind def
288.612 284.58 o
grestore
gsave
/o {
gsave
newpath
translate
0.5 setlinewidth
1 setlinejoin
0 setlinecap
0 0 m
0 2 l
gsave
0.000 setgray
fill
grestore
stroke
grestore
} bind def
296.585 61.38 o
grestore
gsave
/o {
gsave
newpath
translate
0.5 setlinewidth
1 setlinejoin
0 setlinecap
0 0 m
0 -2 l
gsave
0.000 setgray
fill
grestore
stroke
grestore
} bind def
296.585 284.58 o
grestore
gsave
/o {
gsave
newpath
translate
0.5 setlinewidth
1 setlinejoin
0 setlinecap
0 0 m
0 2 l
gsave
0.000 setgray
fill
grestore
stroke
grestore
} bind def
303.492 61.38 o
grestore
gsave
/o {
gsave
newpath
translate
0.5 setlinewidth
1 setlinejoin
0 setlinecap
0 0 m
0 -2 l
gsave
0.000 setgray
fill
grestore
stroke
grestore
} bind def
303.492 284.58 o
grestore
gsave
/o {
gsave
newpath
translate
0.5 setlinewidth
1 setlinejoin
0 setlinecap
0 0 m
0 2 l
gsave
0.000 setgray
fill
grestore
stroke
grestore
} bind def
309.584 61.38 o
grestore
gsave
/o {
gsave
newpath
translate
0.5 setlinewidth
1 setlinejoin
0 setlinecap
0 0 m
0 -2 l
gsave
0.000 setgray
fill
grestore
stroke
grestore
} bind def
309.584 284.58 o
grestore
gsave
/o {
gsave
newpath
translate
0.5 setlinewidth
1 setlinejoin
0 setlinecap
0 0 m
0 2 l
gsave
0.000 setgray
fill
grestore
stroke
grestore
} bind def
350.886 61.38 o
grestore
gsave
/o {
gsave
newpath
translate
0.5 setlinewidth
1 setlinejoin
0 setlinecap
0 0 m
0 -2 l
gsave
0.000 setgray
fill
grestore
stroke
grestore
} bind def
350.886 284.58 o
grestore
gsave
/o {
gsave
newpath
translate
0.5 setlinewidth
1 setlinejoin
0 setlinecap
0 0 m
0 2 l
gsave
0.000 setgray
fill
grestore
stroke
grestore
} bind def
371.858 61.38 o
grestore
gsave
/o {
gsave
newpath
translate
0.5 setlinewidth
1 setlinejoin
0 setlinecap
0 0 m
0 -2 l
gsave
0.000 setgray
fill
grestore
stroke
grestore
} bind def
371.858 284.58 o
grestore
gsave
/o {
gsave
newpath
translate
0.5 setlinewidth
1 setlinejoin
0 setlinecap
0 0 m
0 2 l
gsave
0.000 setgray
fill
grestore
stroke
grestore
} bind def
386.738 61.38 o
grestore
gsave
/o {
gsave
newpath
translate
0.5 setlinewidth
1 setlinejoin
0 setlinecap
0 0 m
0 -2 l
gsave
0.000 setgray
fill
grestore
stroke
grestore
} bind def
386.738 284.58 o
grestore
gsave
/o {
gsave
newpath
translate
0.5 setlinewidth
1 setlinejoin
0 setlinecap
0 0 m
0 2 l
gsave
0.000 setgray
fill
grestore
stroke
grestore
} bind def
398.28 61.38 o
grestore
gsave
/o {
gsave
newpath
translate
0.5 setlinewidth
1 setlinejoin
0 setlinecap
0 0 m
0 -2 l
gsave
0.000 setgray
fill
grestore
stroke
grestore
} bind def
398.28 284.58 o
grestore
gsave
/o {
gsave
newpath
translate
0.5 setlinewidth
1 setlinejoin
0 setlinecap
0 0 m
0 2 l
gsave
0.000 setgray
fill
grestore
stroke
grestore
} bind def
407.71 61.38 o
grestore
gsave
/o {
gsave
newpath
translate
0.5 setlinewidth
1 setlinejoin
0 setlinecap
0 0 m
0 -2 l
gsave
0.000 setgray
fill
grestore
stroke
grestore
} bind def
407.71 284.58 o
grestore
gsave
/o {
gsave
newpath
translate
0.5 setlinewidth
1 setlinejoin
0 setlinecap
0 0 m
0 2 l
gsave
0.000 setgray
fill
grestore
stroke
grestore
} bind def
415.683 61.38 o
grestore
gsave
/o {
gsave
newpath
translate
0.5 setlinewidth
1 setlinejoin
0 setlinecap
0 0 m
0 -2 l
gsave
0.000 setgray
fill
grestore
stroke
grestore
} bind def
415.683 284.58 o
grestore
gsave
/o {
gsave
newpath
translate
0.5 setlinewidth
1 setlinejoin
0 setlinecap
0 0 m
0 2 l
gsave
0.000 setgray
fill
grestore
stroke
grestore
} bind def
422.59 61.38 o
grestore
gsave
/o {
gsave
newpath
translate
0.5 setlinewidth
1 setlinejoin
0 setlinecap
0 0 m
0 -2 l
gsave
0.000 setgray
fill
grestore
stroke
grestore
} bind def
422.59 284.58 o
grestore
gsave
/o {
gsave
newpath
translate
0.5 setlinewidth
1 setlinejoin
0 setlinecap
0 0 m
0 2 l
gsave
0.000 setgray
fill
grestore
stroke
grestore
} bind def
428.682 61.38 o
grestore
gsave
/o {
gsave
newpath
translate
0.5 setlinewidth
1 setlinejoin
0 setlinecap
0 0 m
0 -2 l
gsave
0.000 setgray
fill
grestore
stroke
grestore
} bind def
428.682 284.58 o
grestore
gsave
/o {
gsave
newpath
translate
0.5 setlinewidth
1 setlinejoin
0 setlinecap
0 0 m
0 2 l
gsave
0.000 setgray
fill
grestore
stroke
grestore
} bind def
469.984 61.38 o
grestore
gsave
/o {
gsave
newpath
translate
0.5 setlinewidth
1 setlinejoin
0 setlinecap
0 0 m
0 -2 l
gsave
0.000 setgray
fill
grestore
stroke
grestore
} bind def
469.984 284.58 o
grestore
gsave
/o {
gsave
newpath
translate
0.5 setlinewidth
1 setlinejoin
0 setlinecap
0 0 m
0 2 l
gsave
0.000 setgray
fill
grestore
stroke
grestore
} bind def
490.956 61.38 o
grestore
gsave
/o {
gsave
newpath
translate
0.5 setlinewidth
1 setlinejoin
0 setlinecap
0 0 m
0 -2 l
gsave
0.000 setgray
fill
grestore
stroke
grestore
} bind def
490.956 284.58 o
grestore
gsave
/o {
gsave
newpath
translate
0.5 setlinewidth
1 setlinejoin
0 setlinecap
0 0 m
0 2 l
gsave
0.000 setgray
fill
grestore
stroke
grestore
} bind def
505.836 61.38 o
grestore
gsave
/o {
gsave
newpath
translate
0.5 setlinewidth
1 setlinejoin
0 setlinecap
0 0 m
0 -2 l
gsave
0.000 setgray
fill
grestore
stroke
grestore
} bind def
505.836 284.58 o
grestore
gsave
/o {
gsave
newpath
translate
0.5 setlinewidth
1 setlinejoin
0 setlinecap
0 0 m
0 2 l
gsave
0.000 setgray
fill
grestore
stroke
grestore
} bind def
517.378 61.38 o
grestore
gsave
/o {
gsave
newpath
translate
0.5 setlinewidth
1 setlinejoin
0 setlinecap
0 0 m
0 -2 l
gsave
0.000 setgray
fill
grestore
stroke
grestore
} bind def
517.378 284.58 o
grestore
gsave
/o {
gsave
newpath
translate
0.5 setlinewidth
1 setlinejoin
0 setlinecap
0 0 m
0 2 l
gsave
0.000 setgray
fill
grestore
stroke
grestore
} bind def
526.808 61.38 o
grestore
gsave
/o {
gsave
newpath
translate
0.5 setlinewidth
1 setlinejoin
0 setlinecap
0 0 m
0 -2 l
gsave
0.000 setgray
fill
grestore
stroke
grestore
} bind def
526.808 284.58 o
grestore
gsave
/o {
gsave
newpath
translate
0.5 setlinewidth
1 setlinejoin
0 setlinecap
0 0 m
0 2 l
gsave
0.000 setgray
fill
grestore
stroke
grestore
} bind def
534.781 61.38 o
grestore
gsave
/o {
gsave
newpath
translate
0.5 setlinewidth
1 setlinejoin
0 setlinecap
0 0 m
0 -2 l
gsave
0.000 setgray
fill
grestore
stroke
grestore
} bind def
534.781 284.58 o
grestore
gsave
/o {
gsave
newpath
translate
0.5 setlinewidth
1 setlinejoin
0 setlinecap
0 0 m
0 2 l
gsave
0.000 setgray
fill
grestore
stroke
grestore
} bind def
541.688 61.38 o
grestore
gsave
/o {
gsave
newpath
translate
0.5 setlinewidth
1 setlinejoin
0 setlinecap
0 0 m
0 -2 l
gsave
0.000 setgray
fill
grestore
stroke
grestore
} bind def
541.688 284.58 o
grestore
gsave
/o {
gsave
newpath
translate
0.5 setlinewidth
1 setlinejoin
0 setlinecap
0 0 m
0 2 l
gsave
0.000 setgray
fill
grestore
stroke
grestore
} bind def
547.78 61.38 o
grestore
gsave
/o {
gsave
newpath
translate
0.5 setlinewidth
1 setlinejoin
0 setlinecap
0 0 m
0 -2 l
gsave
0.000 setgray
fill
grestore
stroke
grestore
} bind def
547.78 284.58 o
grestore
/DejaVuSans findfont
12.000 scalefont
setfont
gsave
223.455625 28.255000 translate
0.000000 rotate
0.000000 0.000000 m /W glyphshow
11.615234 0.000000 m /i glyphshow
14.949219 0.000000 m /n glyphshow
22.554688 0.000000 m /d glyphshow
30.171875 0.000000 m /o glyphshow
37.513672 0.000000 m /w glyphshow
47.328125 0.000000 m /space glyphshow
51.142578 0.000000 m /W glyphshow
62.757812 0.000000 m /i glyphshow
66.091797 0.000000 m /d glyphshow
73.708984 0.000000 m /t glyphshow
78.414062 0.000000 m /h glyphshow
86.019531 0.000000 m /space glyphshow
89.833984 0.000000 m /i glyphshow
93.167969 0.000000 m /n glyphshow
100.773438 0.000000 m /space glyphshow
104.587891 0.000000 m /U glyphshow
113.371094 0.000000 m /n glyphshow
120.976562 0.000000 m /i glyphshow
124.310547 0.000000 m /t glyphshow
129.015625 0.000000 m /s glyphshow
135.267578 0.000000 m /space glyphshow
139.082031 0.000000 m /o glyphshow
146.423828 0.000000 m /f glyphshow
150.648438 0.000000 m /space glyphshow
154.462891 0.000000 m /T glyphshow
161.417969 0.000000 m /i glyphshow
164.751953 0.000000 m /m glyphshow
176.441406 0.000000 m /e glyphshow
grestore
gsave
/o {
gsave
newpath
translate
0.5 setlinewidth
1 setlinejoin
0 setlinecap
0 0 m
4 0 l
gsave
0.000 setgray
fill
grestore
stroke
grestore
} bind def
76.8375 61.38 o
grestore
gsave
/o {
gsave
newpath
translate
0.5 setlinewidth
1 setlinejoin
0 setlinecap
0 0 m
-4 0 l
gsave
0.000 setgray
fill
grestore
stroke
grestore
} bind def
553.23 61.38 o
grestore
gsave
47.837500 56.380000 translate
0.000000 rotate
/DejaVuSans findfont
12.0 scalefont
setfont
0.000000 0.937500 moveto
/one glyphshow

7.634766 0.937500 moveto
/zero glyphshow

/DejaVuSans findfont
8.4 scalefont
setfont
15.269531 7.875000 moveto
/hyphen glyphshow

18.300586 7.875000 moveto
/five glyphshow


grestore
gsave
/o {
gsave
newpath
translate
0.5 setlinewidth
1 setlinejoin
0 setlinecap
0 0 m
4 0 l
gsave
0.000 setgray
fill
grestore
stroke
grestore
} bind def
76.8375 89.28 o
grestore
gsave
/o {
gsave
newpath
translate
0.5 setlinewidth
1 setlinejoin
0 setlinecap
0 0 m
-4 0 l
gsave
0.000 setgray
fill
grestore
stroke
grestore
} bind def
553.23 89.28 o
grestore
gsave
47.837500 84.280000 translate
0.000000 rotate
/DejaVuSans findfont
12.0 scalefont
setfont
0.000000 0.937500 moveto
/one glyphshow

7.634766 0.937500 moveto
/zero glyphshow

/DejaVuSans findfont
8.4 scalefont
setfont
15.269531 7.875000 moveto
/hyphen glyphshow

18.300586 7.875000 moveto
/four glyphshow


grestore
gsave
/o {
gsave
newpath
translate
0.5 setlinewidth
1 setlinejoin
0 setlinecap
0 0 m
4 0 l
gsave
0.000 setgray
fill
grestore
stroke
grestore
} bind def
76.8375 117.18 o
grestore
gsave
/o {
gsave
newpath
translate
0.5 setlinewidth
1 setlinejoin
0 setlinecap
0 0 m
-4 0 l
gsave
0.000 setgray
fill
grestore
stroke
grestore
} bind def
553.23 117.18 o
grestore
gsave
47.837500 112.180000 translate
0.000000 rotate
/DejaVuSans findfont
12.0 scalefont
setfont
0.000000 0.828125 moveto
/one glyphshow

7.634766 0.828125 moveto
/zero glyphshow

/DejaVuSans findfont
8.4 scalefont
setfont
15.269531 7.765625 moveto
/hyphen glyphshow

18.300586 7.765625 moveto
/three glyphshow


grestore
gsave
/o {
gsave
newpath
translate
0.5 setlinewidth
1 setlinejoin
0 setlinecap
0 0 m
4 0 l
gsave
0.000 setgray
fill
grestore
stroke
grestore
} bind def
76.8375 145.08 o
grestore
gsave
/o {
gsave
newpath
translate
0.5 setlinewidth
1 setlinejoin
0 setlinecap
0 0 m
-4 0 l
gsave
0.000 setgray
fill
grestore
stroke
grestore
} bind def
553.23 145.08 o
grestore
gsave
47.837500 140.080000 translate
0.000000 rotate
/DejaVuSans findfont
12.0 scalefont
setfont
0.000000 0.828125 moveto
/one glyphshow

7.634766 0.828125 moveto
/zero glyphshow

/DejaVuSans findfont
8.4 scalefont
setfont
15.269531 7.765625 moveto
/hyphen glyphshow

18.300586 7.765625 moveto
/two glyphshow


grestore
gsave
/o {
gsave
newpath
translate
0.5 setlinewidth
1 setlinejoin
0 setlinecap
0 0 m
4 0 l
gsave
0.000 setgray
fill
grestore
stroke
grestore
} bind def
76.8375 172.98 o
grestore
gsave
/o {
gsave
newpath
translate
0.5 setlinewidth
1 setlinejoin
0 setlinecap
0 0 m
-4 0 l
gsave
0.000 setgray
fill
grestore
stroke
grestore
} bind def
553.23 172.98 o
grestore
gsave
47.837500 167.980000 translate
0.000000 rotate
/DejaVuSans findfont
12.0 scalefont
setfont
0.000000 0.937500 moveto
/one glyphshow

7.634766 0.937500 moveto
/zero glyphshow

/DejaVuSans findfont
8.4 scalefont
setfont
15.269531 7.875000 moveto
/hyphen glyphshow

18.300586 7.875000 moveto
/one glyphshow


grestore
gsave
/o {
gsave
newpath
translate
0.5 setlinewidth
1 setlinejoin
0 setlinecap
0 0 m
4 0 l
gsave
0.000 setgray
fill
grestore
stroke
grestore
} bind def
76.8375 200.88 o
grestore
gsave
/o {
gsave
newpath
translate
0.5 setlinewidth
1 setlinejoin
0 setlinecap
0 0 m
-4 0 l
gsave
0.000 setgray
fill
grestore
stroke
grestore
} bind def
553.23 200.88 o
grestore
gsave
50.837500 195.880000 translate
0.000000 rotate
/DejaVuSans findfont
12.0 scalefont
setfont
0.000000 0.828125 moveto
/one glyphshow

7.634766 0.828125 moveto
/zero glyphshow

/DejaVuSans findfont
8.4 scalefont
setfont
15.269531 7.765625 moveto
/zero glyphshow


grestore
gsave
/o {
gsave
newpath
translate
0.5 setlinewidth
1 setlinejoin
0 setlinecap
0 0 m
4 0 l
gsave
0.000 setgray
fill
grestore
stroke
grestore
} bind def
76.8375 228.78 o
grestore
gsave
/o {
gsave
newpath
translate
0.5 setlinewidth
1 setlinejoin
0 setlinecap
0 0 m
-4 0 l
gsave
0.000 setgray
fill
grestore
stroke
grestore
} bind def
553.23 228.78 o
grestore
gsave
50.837500 223.780000 translate
0.000000 rotate
/DejaVuSans findfont
12.0 scalefont
setfont
0.000000 0.937500 moveto
/one glyphshow

7.634766 0.937500 moveto
/zero glyphshow

/DejaVuSans findfont
8.4 scalefont
setfont
15.269531 7.875000 moveto
/one glyphshow


grestore
gsave
/o {
gsave
newpath
translate
0.5 setlinewidth
1 setlinejoin
0 setlinecap
0 0 m
4 0 l
gsave
0.000 setgray
fill
grestore
stroke
grestore
} bind def
76.8375 256.68 o
grestore
gsave
/o {
gsave
newpath
translate
0.5 setlinewidth
1 setlinejoin
0 setlinecap
0 0 m
-4 0 l
gsave
0.000 setgray
fill
grestore
stroke
grestore
} bind def
553.23 256.68 o
grestore
gsave
50.837500 251.680000 translate
0.000000 rotate
/DejaVuSans findfont
12.0 scalefont
setfont
0.000000 0.828125 moveto
/one glyphshow

7.634766 0.828125 moveto
/zero glyphshow

/DejaVuSans findfont
8.4 scalefont
setfont
15.269531 7.765625 moveto
/two glyphshow


grestore
gsave
/o {
gsave
newpath
translate
0.5 setlinewidth
1 setlinejoin
0 setlinecap
0 0 m
4 0 l
gsave
0.000 setgray
fill
grestore
stroke
grestore
} bind def
76.8375 284.58 o
grestore
gsave
/o {
gsave
newpath
translate
0.5 setlinewidth
1 setlinejoin
0 setlinecap
0 0 m
-4 0 l
gsave
0.000 setgray
fill
grestore
stroke
grestore
} bind def
553.23 284.58 o
grestore
gsave
50.837500 279.580000 translate
0.000000 rotate
/DejaVuSans findfont
12.0 scalefont
setfont
0.000000 0.828125 moveto
/one glyphshow

7.634766 0.828125 moveto
/zero glyphshow

/DejaVuSans findfont
8.4 scalefont
setfont
15.269531 7.765625 moveto
/three glyphshow


grestore
gsave
/o {
gsave
newpath
translate
0.5 setlinewidth
1 setlinejoin
0 setlinecap
0 0 m
2 0 l
gsave
0.000 setgray
fill
grestore
stroke
grestore
} bind def
76.8375 69.7787 o
grestore
gsave
/o {
gsave
newpath
translate
0.5 setlinewidth
1 setlinejoin
0 setlinecap
0 0 m
-2 0 l
gsave
0.000 setgray
fill
grestore
stroke
grestore
} bind def
553.23 69.7787 o
grestore
gsave
/o {
gsave
newpath
translate
0.5 setlinewidth
1 setlinejoin
0 setlinecap
0 0 m
2 0 l
gsave
0.000 setgray
fill
grestore
stroke
grestore
} bind def
76.8375 78.1775 o
grestore
gsave
/o {
gsave
newpath
translate
0.5 setlinewidth
1 setlinejoin
0 setlinecap
0 0 m
-2 0 l
gsave
0.000 setgray
fill
grestore
stroke
grestore
} bind def
553.23 78.1775 o
grestore
gsave
/o {
gsave
newpath
translate
0.5 setlinewidth
1 setlinejoin
0 setlinecap
0 0 m
2 0 l
gsave
0.000 setgray
fill
grestore
stroke
grestore
} bind def
76.8375 83.0904 o
grestore
gsave
/o {
gsave
newpath
translate
0.5 setlinewidth
1 setlinejoin
0 setlinecap
0 0 m
-2 0 l
gsave
0.000 setgray
fill
grestore
stroke
grestore
} bind def
553.23 83.0904 o
grestore
gsave
/o {
gsave
newpath
translate
0.5 setlinewidth
1 setlinejoin
0 setlinecap
0 0 m
2 0 l
gsave
0.000 setgray
fill
grestore
stroke
grestore
} bind def
76.8375 86.5762 o
grestore
gsave
/o {
gsave
newpath
translate
0.5 setlinewidth
1 setlinejoin
0 setlinecap
0 0 m
-2 0 l
gsave
0.000 setgray
fill
grestore
stroke
grestore
} bind def
553.23 86.5762 o
grestore
gsave
/o {
gsave
newpath
translate
0.5 setlinewidth
1 setlinejoin
0 setlinecap
0 0 m
2 0 l
gsave
0.000 setgray
fill
grestore
stroke
grestore
} bind def
76.8375 97.6787 o
grestore
gsave
/o {
gsave
newpath
translate
0.5 setlinewidth
1 setlinejoin
0 setlinecap
0 0 m
-2 0 l
gsave
0.000 setgray
fill
grestore
stroke
grestore
} bind def
553.23 97.6787 o
grestore
gsave
/o {
gsave
newpath
translate
0.5 setlinewidth
1 setlinejoin
0 setlinecap
0 0 m
2 0 l
gsave
0.000 setgray
fill
grestore
stroke
grestore
} bind def
76.8375 106.077 o
grestore
gsave
/o {
gsave
newpath
translate
0.5 setlinewidth
1 setlinejoin
0 setlinecap
0 0 m
-2 0 l
gsave
0.000 setgray
fill
grestore
stroke
grestore
} bind def
553.23 106.077 o
grestore
gsave
/o {
gsave
newpath
translate
0.5 setlinewidth
1 setlinejoin
0 setlinecap
0 0 m
2 0 l
gsave
0.000 setgray
fill
grestore
stroke
grestore
} bind def
76.8375 110.99 o
grestore
gsave
/o {
gsave
newpath
translate
0.5 setlinewidth
1 setlinejoin
0 setlinecap
0 0 m
-2 0 l
gsave
0.000 setgray
fill
grestore
stroke
grestore
} bind def
553.23 110.99 o
grestore
gsave
/o {
gsave
newpath
translate
0.5 setlinewidth
1 setlinejoin
0 setlinecap
0 0 m
2 0 l
gsave
0.000 setgray
fill
grestore
stroke
grestore
} bind def
76.8375 114.476 o
grestore
gsave
/o {
gsave
newpath
translate
0.5 setlinewidth
1 setlinejoin
0 setlinecap
0 0 m
-2 0 l
gsave
0.000 setgray
fill
grestore
stroke
grestore
} bind def
553.23 114.476 o
grestore
gsave
/o {
gsave
newpath
translate
0.5 setlinewidth
1 setlinejoin
0 setlinecap
0 0 m
2 0 l
gsave
0.000 setgray
fill
grestore
stroke
grestore
} bind def
76.8375 125.579 o
grestore
gsave
/o {
gsave
newpath
translate
0.5 setlinewidth
1 setlinejoin
0 setlinecap
0 0 m
-2 0 l
gsave
0.000 setgray
fill
grestore
stroke
grestore
} bind def
553.23 125.579 o
grestore
gsave
/o {
gsave
newpath
translate
0.5 setlinewidth
1 setlinejoin
0 setlinecap
0 0 m
2 0 l
gsave
0.000 setgray
fill
grestore
stroke
grestore
} bind def
76.8375 133.977 o
grestore
gsave
/o {
gsave
newpath
translate
0.5 setlinewidth
1 setlinejoin
0 setlinecap
0 0 m
-2 0 l
gsave
0.000 setgray
fill
grestore
stroke
grestore
} bind def
553.23 133.977 o
grestore
gsave
/o {
gsave
newpath
translate
0.5 setlinewidth
1 setlinejoin
0 setlinecap
0 0 m
2 0 l
gsave
0.000 setgray
fill
grestore
stroke
grestore
} bind def
76.8375 138.89 o
grestore
gsave
/o {
gsave
newpath
translate
0.5 setlinewidth
1 setlinejoin
0 setlinecap
0 0 m
-2 0 l
gsave
0.000 setgray
fill
grestore
stroke
grestore
} bind def
553.23 138.89 o
grestore
gsave
/o {
gsave
newpath
translate
0.5 setlinewidth
1 setlinejoin
0 setlinecap
0 0 m
2 0 l
gsave
0.000 setgray
fill
grestore
stroke
grestore
} bind def
76.8375 142.376 o
grestore
gsave
/o {
gsave
newpath
translate
0.5 setlinewidth
1 setlinejoin
0 setlinecap
0 0 m
-2 0 l
gsave
0.000 setgray
fill
grestore
stroke
grestore
} bind def
553.23 142.376 o
grestore
gsave
/o {
gsave
newpath
translate
0.5 setlinewidth
1 setlinejoin
0 setlinecap
0 0 m
2 0 l
gsave
0.000 setgray
fill
grestore
stroke
grestore
} bind def
76.8375 153.479 o
grestore
gsave
/o {
gsave
newpath
translate
0.5 setlinewidth
1 setlinejoin
0 setlinecap
0 0 m
-2 0 l
gsave
0.000 setgray
fill
grestore
stroke
grestore
} bind def
553.23 153.479 o
grestore
gsave
/o {
gsave
newpath
translate
0.5 setlinewidth
1 setlinejoin
0 setlinecap
0 0 m
2 0 l
gsave
0.000 setgray
fill
grestore
stroke
grestore
} bind def
76.8375 161.877 o
grestore
gsave
/o {
gsave
newpath
translate
0.5 setlinewidth
1 setlinejoin
0 setlinecap
0 0 m
-2 0 l
gsave
0.000 setgray
fill
grestore
stroke
grestore
} bind def
553.23 161.877 o
grestore
gsave
/o {
gsave
newpath
translate
0.5 setlinewidth
1 setlinejoin
0 setlinecap
0 0 m
2 0 l
gsave
0.000 setgray
fill
grestore
stroke
grestore
} bind def
76.8375 166.79 o
grestore
gsave
/o {
gsave
newpath
translate
0.5 setlinewidth
1 setlinejoin
0 setlinecap
0 0 m
-2 0 l
gsave
0.000 setgray
fill
grestore
stroke
grestore
} bind def
553.23 166.79 o
grestore
gsave
/o {
gsave
newpath
translate
0.5 setlinewidth
1 setlinejoin
0 setlinecap
0 0 m
2 0 l
gsave
0.000 setgray
fill
grestore
stroke
grestore
} bind def
76.8375 170.276 o
grestore
gsave
/o {
gsave
newpath
translate
0.5 setlinewidth
1 setlinejoin
0 setlinecap
0 0 m
-2 0 l
gsave
0.000 setgray
fill
grestore
stroke
grestore
} bind def
553.23 170.276 o
grestore
gsave
/o {
gsave
newpath
translate
0.5 setlinewidth
1 setlinejoin
0 setlinecap
0 0 m
2 0 l
gsave
0.000 setgray
fill
grestore
stroke
grestore
} bind def
76.8375 181.379 o
grestore
gsave
/o {
gsave
newpath
translate
0.5 setlinewidth
1 setlinejoin
0 setlinecap
0 0 m
-2 0 l
gsave
0.000 setgray
fill
grestore
stroke
grestore
} bind def
553.23 181.379 o
grestore
gsave
/o {
gsave
newpath
translate
0.5 setlinewidth
1 setlinejoin
0 setlinecap
0 0 m
2 0 l
gsave
0.000 setgray
fill
grestore
stroke
grestore
} bind def
76.8375 189.777 o
grestore
gsave
/o {
gsave
newpath
translate
0.5 setlinewidth
1 setlinejoin
0 setlinecap
0 0 m
-2 0 l
gsave
0.000 setgray
fill
grestore
stroke
grestore
} bind def
553.23 189.777 o
grestore
gsave
/o {
gsave
newpath
translate
0.5 setlinewidth
1 setlinejoin
0 setlinecap
0 0 m
2 0 l
gsave
0.000 setgray
fill
grestore
stroke
grestore
} bind def
76.8375 194.69 o
grestore
gsave
/o {
gsave
newpath
translate
0.5 setlinewidth
1 setlinejoin
0 setlinecap
0 0 m
-2 0 l
gsave
0.000 setgray
fill
grestore
stroke
grestore
} bind def
553.23 194.69 o
grestore
gsave
/o {
gsave
newpath
translate
0.5 setlinewidth
1 setlinejoin
0 setlinecap
0 0 m
2 0 l
gsave
0.000 setgray
fill
grestore
stroke
grestore
} bind def
76.8375 198.176 o
grestore
gsave
/o {
gsave
newpath
translate
0.5 setlinewidth
1 setlinejoin
0 setlinecap
0 0 m
-2 0 l
gsave
0.000 setgray
fill
grestore
stroke
grestore
} bind def
553.23 198.176 o
grestore
gsave
/o {
gsave
newpath
translate
0.5 setlinewidth
1 setlinejoin
0 setlinecap
0 0 m
2 0 l
gsave
0.000 setgray
fill
grestore
stroke
grestore
} bind def
76.8375 209.279 o
grestore
gsave
/o {
gsave
newpath
translate
0.5 setlinewidth
1 setlinejoin
0 setlinecap
0 0 m
-2 0 l
gsave
0.000 setgray
fill
grestore
stroke
grestore
} bind def
553.23 209.279 o
grestore
gsave
/o {
gsave
newpath
translate
0.5 setlinewidth
1 setlinejoin
0 setlinecap
0 0 m
2 0 l
gsave
0.000 setgray
fill
grestore
stroke
grestore
} bind def
76.8375 217.677 o
grestore
gsave
/o {
gsave
newpath
translate
0.5 setlinewidth
1 setlinejoin
0 setlinecap
0 0 m
-2 0 l
gsave
0.000 setgray
fill
grestore
stroke
grestore
} bind def
553.23 217.677 o
grestore
gsave
/o {
gsave
newpath
translate
0.5 setlinewidth
1 setlinejoin
0 setlinecap
0 0 m
2 0 l
gsave
0.000 setgray
fill
grestore
stroke
grestore
} bind def
76.8375 222.59 o
grestore
gsave
/o {
gsave
newpath
translate
0.5 setlinewidth
1 setlinejoin
0 setlinecap
0 0 m
-2 0 l
gsave
0.000 setgray
fill
grestore
stroke
grestore
} bind def
553.23 222.59 o
grestore
gsave
/o {
gsave
newpath
translate
0.5 setlinewidth
1 setlinejoin
0 setlinecap
0 0 m
2 0 l
gsave
0.000 setgray
fill
grestore
stroke
grestore
} bind def
76.8375 226.076 o
grestore
gsave
/o {
gsave
newpath
translate
0.5 setlinewidth
1 setlinejoin
0 setlinecap
0 0 m
-2 0 l
gsave
0.000 setgray
fill
grestore
stroke
grestore
} bind def
553.23 226.076 o
grestore
gsave
/o {
gsave
newpath
translate
0.5 setlinewidth
1 setlinejoin
0 setlinecap
0 0 m
2 0 l
gsave
0.000 setgray
fill
grestore
stroke
grestore
} bind def
76.8375 237.179 o
grestore
gsave
/o {
gsave
newpath
translate
0.5 setlinewidth
1 setlinejoin
0 setlinecap
0 0 m
-2 0 l
gsave
0.000 setgray
fill
grestore
stroke
grestore
} bind def
553.23 237.179 o
grestore
gsave
/o {
gsave
newpath
translate
0.5 setlinewidth
1 setlinejoin
0 setlinecap
0 0 m
2 0 l
gsave
0.000 setgray
fill
grestore
stroke
grestore
} bind def
76.8375 245.577 o
grestore
gsave
/o {
gsave
newpath
translate
0.5 setlinewidth
1 setlinejoin
0 setlinecap
0 0 m
-2 0 l
gsave
0.000 setgray
fill
grestore
stroke
grestore
} bind def
553.23 245.577 o
grestore
gsave
/o {
gsave
newpath
translate
0.5 setlinewidth
1 setlinejoin
0 setlinecap
0 0 m
2 0 l
gsave
0.000 setgray
fill
grestore
stroke
grestore
} bind def
76.8375 250.49 o
grestore
gsave
/o {
gsave
newpath
translate
0.5 setlinewidth
1 setlinejoin
0 setlinecap
0 0 m
-2 0 l
gsave
0.000 setgray
fill
grestore
stroke
grestore
} bind def
553.23 250.49 o
grestore
gsave
/o {
gsave
newpath
translate
0.5 setlinewidth
1 setlinejoin
0 setlinecap
0 0 m
2 0 l
gsave
0.000 setgray
fill
grestore
stroke
grestore
} bind def
76.8375 253.976 o
grestore
gsave
/o {
gsave
newpath
translate
0.5 setlinewidth
1 setlinejoin
0 setlinecap
0 0 m
-2 0 l
gsave
0.000 setgray
fill
grestore
stroke
grestore
} bind def
553.23 253.976 o
grestore
gsave
/o {
gsave
newpath
translate
0.5 setlinewidth
1 setlinejoin
0 setlinecap
0 0 m
2 0 l
gsave
0.000 setgray
fill
grestore
stroke
grestore
} bind def
76.8375 265.079 o
grestore
gsave
/o {
gsave
newpath
translate
0.5 setlinewidth
1 setlinejoin
0 setlinecap
0 0 m
-2 0 l
gsave
0.000 setgray
fill
grestore
stroke
grestore
} bind def
553.23 265.079 o
grestore
gsave
/o {
gsave
newpath
translate
0.5 setlinewidth
1 setlinejoin
0 setlinecap
0 0 m
2 0 l
gsave
0.000 setgray
fill
grestore
stroke
grestore
} bind def
76.8375 273.477 o
grestore
gsave
/o {
gsave
newpath
translate
0.5 setlinewidth
1 setlinejoin
0 setlinecap
0 0 m
-2 0 l
gsave
0.000 setgray
fill
grestore
stroke
grestore
} bind def
553.23 273.477 o
grestore
gsave
/o {
gsave
newpath
translate
0.5 setlinewidth
1 setlinejoin
0 setlinecap
0 0 m
2 0 l
gsave
0.000 setgray
fill
grestore
stroke
grestore
} bind def
76.8375 278.39 o
grestore
gsave
/o {
gsave
newpath
translate
0.5 setlinewidth
1 setlinejoin
0 setlinecap
0 0 m
-2 0 l
gsave
0.000 setgray
fill
grestore
stroke
grestore
} bind def
553.23 278.39 o
grestore
gsave
/o {
gsave
newpath
translate
0.5 setlinewidth
1 setlinejoin
0 setlinecap
0 0 m
2 0 l
gsave
0.000 setgray
fill
grestore
stroke
grestore
} bind def
76.8375 281.876 o
grestore
gsave
/o {
gsave
newpath
translate
0.5 setlinewidth
1 setlinejoin
0 setlinecap
0 0 m
-2 0 l
gsave
0.000 setgray
fill
grestore
stroke
grestore
} bind def
553.23 281.876 o
grestore
gsave
40.337500 160.308125 translate
90.000000 rotate
0.000000 0.000000 m /M glyphshow
10.353516 0.000000 m /S glyphshow
17.970703 0.000000 m /D glyphshow
grestore
1.000 setlinewidth
gsave
76.8375 284.58 m
553.23 284.58 l
stroke
grestore
gsave
553.23 61.38 m
553.23 284.58 l
stroke
grestore
gsave
76.8375 61.38 m
553.23 61.38 l
stroke
grestore
gsave
76.8375 61.38 m
76.8375 284.58 l
stroke
grestore
gsave
303.491949 164.581263 translate
0.000000 rotate
0.000000 0.000000 m /B glyphshow
8.232422 0.000000 m /a glyphshow
15.585938 0.000000 m /l glyphshow
18.919922 0.000000 m /l glyphshow
22.253906 0.000000 m /i glyphshow
25.587891 0.000000 m /s glyphshow
31.839844 0.000000 m /t glyphshow
36.544922 0.000000 m /i glyphshow
39.878906 0.000000 m /c glyphshow
46.476562 0.000000 m /space glyphshow
50.291016 0.000000 m /m glyphshow
61.980469 0.000000 m /o glyphshow
69.322266 0.000000 m /t glyphshow
74.027344 0.000000 m /i glyphshow
77.361328 0.000000 m /o glyphshow
84.703125 0.000000 m /n glyphshow
grestore
gsave
422.590074 265.078737 translate
0.000000 rotate
0.000000 0.000000 m /D glyphshow
9.240234 0.000000 m /i glyphshow
12.574219 0.000000 m /f glyphshow
16.798828 0.000000 m /f glyphshow
21.023438 0.000000 m /u glyphshow
28.628906 0.000000 m /s glyphshow
34.880859 0.000000 m /i glyphshow
38.214844 0.000000 m /v glyphshow
45.316406 0.000000 m /e glyphshow
52.699219 0.000000 m /space glyphshow
56.513672 0.000000 m /m glyphshow
68.203125 0.000000 m /o glyphshow
75.544922 0.000000 m /t glyphshow
80.250000 0.000000 m /i glyphshow
83.583984 0.000000 m /o glyphshow
90.925781 0.000000 m /n glyphshow
grestore
gsave
422.590074 178.031263 translate
0.000000 rotate
0.000000 0.000000 m /C glyphshow
8.378906 0.000000 m /o glyphshow
15.720703 0.000000 m /r glyphshow
20.404297 0.000000 m /r glyphshow
25.087891 0.000000 m /e glyphshow
32.470703 0.000000 m /l glyphshow
35.804688 0.000000 m /a glyphshow
43.158203 0.000000 m /t glyphshow
47.863281 0.000000 m /i glyphshow
51.197266 0.000000 m /o glyphshow
58.539062 0.000000 m /n glyphshow
66.144531 0.000000 m /space glyphshow
69.958984 0.000000 m /l glyphshow
73.292969 0.000000 m /e glyphshow
80.675781 0.000000 m /n glyphshow
88.281250 0.000000 m /g glyphshow
95.898438 0.000000 m /t glyphshow
100.603516 0.000000 m /h glyphshow
108.208984 0.000000 m /space glyphshow
grestore
gsave
422.590074 164.581263 translate
0.000000 rotate
0.000000 0.000000 m /asciitilde glyphshow
10.054688 0.000000 m /space glyphshow
13.869141 0.000000 m /seven glyphshow
21.503906 0.000000 m /zero glyphshow
29.138672 0.000000 m /zero glyphshow
36.773438 0.000000 m /space glyphshow
40.587891 0.000000 m /t glyphshow
45.292969 0.000000 m /i glyphshow
48.626953 0.000000 m /m glyphshow
60.316406 0.000000 m /e glyphshow
67.699219 0.000000 m /s glyphshow
73.951172 0.000000 m /t glyphshow
78.656250 0.000000 m /e glyphshow
86.039062 0.000000 m /p glyphshow
93.656250 0.000000 m /s glyphshow
grestore

end
showpage
